axi_lite_slave/zipcpu_demo/design.vcd
$date
	Sun Jul  4 19:08:12 2021
$end
$version
	Icarus Verilog
$end
$timescale
	1ps
$end
$scope module tb_axi_lite_slave $end
$var wire 32 ! AXIML_ARADDR [31:0] $end
$var wire 1 " AXIML_ARVALID $end
$var wire 32 # AXIML_AWADDR [31:0] $end
$var wire 1 $ AXIML_AWVALID $end
$var wire 1 % AXIML_BREADY $end
$var wire 2 & AXIML_BRESP [1:0] $end
$var wire 1 ' AXIML_RREADY $end
$var wire 2 ( AXIML_RRESP [1:0] $end
$var wire 32 ) AXIML_WDATA [31:0] $end
$var wire 4 * AXIML_WSTRB [3:0] $end
$var wire 1 + AXIML_WVALID $end
$var wire 1 , clk $end
$var wire 1 - rst $end
$var wire 1 . AXIML_WREADY $end
$var wire 1 / AXIML_RVALID $end
$var wire 32 0 AXIML_RDATA [31:0] $end
$var wire 1 1 AXIML_BVALID $end
$var wire 1 2 AXIML_AWREADY $end
$var wire 1 3 AXIML_ARREADY $end
$var reg 1 4 r_rst $end
$var reg 8 5 test_id [7:0] $end
$scope module dut $end
$var wire 1 , S_AXI_ACLK $end
$var wire 32 6 S_AXI_ARADDR [31:0] $end
$var wire 1 4 S_AXI_ARESETn $end
$var wire 3 7 S_AXI_ARPROT [2:0] $end
$var wire 1 " S_AXI_ARVALID $end
$var wire 32 8 S_AXI_AWADDR [31:0] $end
$var wire 3 9 S_AXI_AWPROT [2:0] $end
$var wire 1 2 S_AXI_AWREADY $end
$var wire 1 $ S_AXI_AWVALID $end
$var wire 1 % S_AXI_BREADY $end
$var wire 2 : S_AXI_BRESP [1:0] $end
$var wire 32 ; S_AXI_RDATA [31:0] $end
$var wire 1 ' S_AXI_RREADY $end
$var wire 2 < S_AXI_RRESP [1:0] $end
$var wire 32 = S_AXI_WDATA [31:0] $end
$var wire 1 . S_AXI_WREADY $end
$var wire 4 > S_AXI_WSTRB [3:0] $end
$var wire 1 + S_AXI_WVALID $end
$var wire 1 ? read_resp_stall $end
$var wire 1 @ valid_read_req $end
$var wire 1 A valid_write_addr $end
$var wire 1 B valid_write_data $end
$var wire 1 C write_resp_stall $end
$var wire 1 / S_AXI_RVALID $end
$var wire 1 1 S_AXI_BVALID $end
$var wire 1 3 S_AXI_ARREADY $end
$var reg 1 3 axi_arready $end
$var reg 1 D axi_awready $end
$var reg 1 1 axi_bvalid $end
$var reg 32 E axi_rdata [31:0] $end
$var reg 1 / axi_rvalid $end
$var reg 1 F axi_wready $end
$var reg 32 G pre_raddr [31:0] $end
$var reg 32 H pre_waddr [31:0] $end
$var reg 32 I pre_wdata [31:0] $end
$var reg 4 J pre_wstrb [3:0] $end
$var reg 32 K rd_addr [31:0] $end
$var reg 32 L waddr [31:0] $end
$var reg 32 M wdata [31:0] $end
$var reg 4 N wstrb [3:0] $end
$upscope $end
$upscope $end
$enddefinitions $end
#0
$dumpvars
bz N
bz M
bz L
bz K
bz J
bz I
bz H
b0 G
1F
bx E
1D
0C
0B
0A
0@
0?
bz >
bz =
b0 <
bx ;
b0 :
b0 9
bz 8
b0 7
bz 6
b0 5
14
13
12
01
bx 0
1/
1.
1-
1,
0+
bz *
bz )
b0 (
1'
b0 &
1%
0$
bz #
0"
bz !
$end
#5000
0,
#10000
bz G
0/
1,
#15000
0,
#20000
1,
#25000
0,
#30000
1,
#35000
0,
#40000
1,
#45000
0,
#50000
1,
#55000
0,
#60000
1,
#65000
0,
#70000
1,
#75000
0,
#80000
1,
#85000
0,
#90000
1,
#95000
0,
#100000
b0 L
1A
1B
b0 M
b1111 N
b0 #
b0 8
1$
1+
b0 )
b0 =
b1111 *
b1111 >
1,
#105000
0,
#110000
0B
0A
0+
0$
11
b1111 J
b0 I
b0 H
1,
#115000
0,
#120000
01
1,
#125000
0,
#130000
1,
#135000
0,
#140000
b100 L
1A
1B
b1 M
b100 #
b100 8
1$
1+
b1 )
b1 =
1,
#145000
0,
#150000
0B
0A
0+
0$
11
b1 I
b100 H
1,
#155000
0,
#160000
01
1,
#165000
0,
#170000
1,
#175000
0,
#180000
b1000 L
1A
1B
b10 M
b1000 #
b1000 8
1$
1+
b10 )
b10 =
1,
#185000
0,
#190000
0B
0A
0+
0$
11
b10 I
b1000 H
1,
#195000
0,
#200000
01
1,
#205000
0,
#210000
1,
#215000
0,
#220000
b1100 L
1A
1B
b11 M
b1100 #
b1100 8
1$
1+
b11 )
b11 =
1,
#225000
0,
#230000
0B
0A
0+
0$
11
b11 I
b1100 H
1,
#235000
0,
#240000
01
1,
#245000
0,
#250000
1,
#255000
0,
#260000
b10000 L
1A
1B
b100 M
b10000 #
b10000 8
1$
1+
b100 )
b100 =
1,
#265000
0,
#270000
0B
0A
0+
0$
11
b100 I
b10000 H
1,
#275000
0,
#280000
01
1,
#285000
0,
#290000
1,
#295000
0,
#300000
b10100 L
1A
1B
b101 M
b10100 #
b10100 8
1$
1+
b101 )
b101 =
1,
#305000
0,
#310000
0B
0A
0+
0$
11
b101 I
b10100 H
1,
#315000
0,
#320000
01
1,
#325000
0,
#330000
1,
#335000
0,
#340000
b11000 L
1A
1B
b110 M
b11000 #
b11000 8
1$
1+
b110 )
b110 =
1,
#345000
0,
#350000
0B
0A
0+
0$
11
b110 I
b11000 H
1,
#355000
0,
#360000
01
1,
#365000
0,
#370000
1,
#375000
0,
#380000
b11100 L
1A
1B
b111 M
b11100 #
b11100 8
1$
1+
b111 )
b111 =
1,
#385000
0,
#390000
0B
0A
0+
0$
11
b111 I
b11100 H
1,
#395000
0,
#400000
01
1,
#405000
0,
#410000
1,
#415000
0,
#420000
b100000 L
1A
1B
b1000 M
b100000 #
b100000 8
1$
1+
b1000 )
b1000 =
1,
#425000
0,
#430000
0B
0A
0+
0$
11
b1000 I
b100000 H
1,
#435000
0,
#440000
01
1,
#445000
0,
#450000
1,
#455000
0,
#460000
b100100 L
1A
1B
b1001 M
b100100 #
b100100 8
1$
1+
b1001 )
b1001 =
1,
#465000
0,
#470000
0B
0A
0+
0$
11
b1001 I
b100100 H
1,
#475000
0,
#480000
01
1,
#485000
0,
#490000
1,
#495000
0,
#500000
b101000 L
1A
1B
b1010 M
b101000 #
b101000 8
1$
1+
b1010 )
b1010 =
1,
#505000
0,
#510000
0B
0A
0+
0$
11
b1010 I
b101000 H
1,
#515000
0,
#520000
01
1,
#525000
0,
#530000
1,
#535000
0,
#540000
b101100 L
1A
1B
b1011 M
b101100 #
b101100 8
1$
1+
b1011 )
b1011 =
1,
#545000
0,
#550000
0B
0A
0+
0$
11
b1011 I
b101100 H
1,
#555000
0,
#560000
01
1,
#565000
0,
#570000
1,
#575000
0,
#580000
b110000 L
1A
1B
b1100 M
b110000 #
b110000 8
1$
1+
b1100 )
b1100 =
1,
#585000
0,
#590000
0B
0A
0+
0$
11
b1100 I
b110000 H
1,
#595000
0,
#600000
01
1,
#605000
0,
#610000
1,
#615000
0,
#620000
b110100 L
1A
1B
b1101 M
b110100 #
b110100 8
1$
1+
b1101 )
b1101 =
1,
#625000
0,
#630000
0B
0A
0+
0$
11
b1101 I
b110100 H
1,
#635000
0,
#640000
01
1,
#645000
0,
#650000
1,
#655000
0,
#660000
b111000 L
1A
1B
b1110 M
b111000 #
b111000 8
1$
1+
b1110 )
b1110 =
1,
#665000
0,
#670000
0B
0A
0+
0$
11
b1110 I
b111000 H
1,
#675000
0,
#680000
01
1,
#685000
0,
#690000
1,
#695000
0,
#700000
b111100 L
1A
1B
b1111 M
b111100 #
b111100 8
1$
1+
b1111 )
b1111 =
1,
#705000
0,
#710000
0B
0A
0+
0$
11
b1111 I
b111100 H
1,
#715000
0,
#720000
01
1,
#725000
0,
#730000
1,
#735000
0,
#740000
b1000000 L
1A
1B
b10000 M
b1000000 #
b1000000 8
1$
1+
b10000 )
b10000 =
1,
#745000
0,
#750000
0B
0A
0+
0$
11
b10000 I
b1000000 H
1,
#755000
0,
#760000
01
1,
#765000
0,
#770000
1,
#775000
0,
#780000
b1000100 L
1A
1B
b10001 M
b1000100 #
b1000100 8
1$
1+
b10001 )
b10001 =
1,
#785000
0,
#790000
0B
0A
0+
0$
11
b10001 I
b1000100 H
1,
#795000
0,
#800000
01
1,
#805000
0,
#810000
1,
#815000
0,
#820000
b1001000 L
1A
1B
b10010 M
b1001000 #
b1001000 8
1$
1+
b10010 )
b10010 =
1,
#825000
0,
#830000
0B
0A
0+
0$
11
b10010 I
b1001000 H
1,
#835000
0,
#840000
01
1,
#845000
0,
#850000
1,
#855000
0,
#860000
b1001100 L
1A
1B
b10011 M
b1001100 #
b1001100 8
1$
1+
b10011 )
b10011 =
1,
#865000
0,
#870000
0B
0A
0+
0$
11
b10011 I
b1001100 H
1,
#875000
0,
#880000
01
1,
#885000
0,
#890000
1,
#895000
0,
#900000
b1010000 L
1A
1B
b10100 M
b1010000 #
b1010000 8
1$
1+
b10100 )
b10100 =
1,
#905000
0,
#910000
0B
0A
0+
0$
11
b10100 I
b1010000 H
1,
#915000
0,
#920000
01
1,
#925000
0,
#930000
1,
#935000
0,
#940000
b1010100 L
1A
1B
b10101 M
b1010100 #
b1010100 8
1$
1+
b10101 )
b10101 =
1,
#945000
0,
#950000
0B
0A
0+
0$
11
b10101 I
b1010100 H
1,
#955000
0,
#960000
01
1,
#965000
0,
#970000
1,
#975000
0,
#980000
b1011000 L
1A
1B
b10110 M
b1011000 #
b1011000 8
1$
1+
b10110 )
b10110 =
1,
#985000
0,
#990000
0B
0A
0+
0$
11
b10110 I
b1011000 H
1,
#995000
0,
#1000000
01
1,
#1005000
0,
#1010000
1,
#1015000
0,
#1020000
b1011100 L
1A
1B
b10111 M
b1011100 #
b1011100 8
1$
1+
b10111 )
b10111 =
1,
#1025000
0,
#1030000
0B
0A
0+
0$
11
b10111 I
b1011100 H
1,
#1035000
0,
#1040000
01
1,
#1045000
0,
#1050000
1,
#1055000
0,
#1060000
b1100000 L
1A
1B
b11000 M
b1100000 #
b1100000 8
1$
1+
b11000 )
b11000 =
1,
#1065000
0,
#1070000
0B
0A
0+
0$
11
b11000 I
b1100000 H
1,
#1075000
0,
#1080000
01
1,
#1085000
0,
#1090000
1,
#1095000
0,
#1100000
b1100100 L
1A
1B
b11001 M
b1100100 #
b1100100 8
1$
1+
b11001 )
b11001 =
1,
#1105000
0,
#1110000
0B
0A
0+
0$
11
b11001 I
b1100100 H
1,
#1115000
0,
#1120000
01
1,
#1125000
0,
#1130000
1,
#1135000
0,
#1140000
b1101000 L
1A
1B
b11010 M
b1101000 #
b1101000 8
1$
1+
b11010 )
b11010 =
1,
#1145000
0,
#1150000
0B
0A
0+
0$
11
b11010 I
b1101000 H
1,
#1155000
0,
#1160000
01
1,
#1165000
0,
#1170000
1,
#1175000
0,
#1180000
b1101100 L
1A
1B
b11011 M
b1101100 #
b1101100 8
1$
1+
b11011 )
b11011 =
1,
#1185000
0,
#1190000
0B
0A
0+
0$
11
b11011 I
b1101100 H
1,
#1195000
0,
#1200000
01
1,
#1205000
0,
#1210000
1,
#1215000
0,
#1220000
b1110000 L
1A
1B
b11100 M
b1110000 #
b1110000 8
1$
1+
b11100 )
b11100 =
1,
#1225000
0,
#1230000
0B
0A
0+
0$
11
b11100 I
b1110000 H
1,
#1235000
0,
#1240000
01
1,
#1245000
0,
#1250000
1,
#1255000
0,
#1260000
b1110100 L
1A
1B
b11101 M
b1110100 #
b1110100 8
1$
1+
b11101 )
b11101 =
1,
#1265000
0,
#1270000
0B
0A
0+
0$
11
b11101 I
b1110100 H
1,
#1275000
0,
#1280000
01
1,
#1285000
0,
#1290000
1,
#1295000
0,
#1300000
b1111000 L
1A
1B
b11110 M
b1111000 #
b1111000 8
1$
1+
b11110 )
b11110 =
1,
#1305000
0,
#1310000
0B
0A
0+
0$
11
b11110 I
b1111000 H
1,
#1315000
0,
#1320000
01
1,
#1325000
0,
#1330000
1,
#1335000
0,
#1340000
b1111100 L
1A
1B
b11111 M
b1111100 #
b1111100 8
1$
1+
b11111 )
b11111 =
1,
#1345000
0,
#1350000
0B
0A
0+
0$
11
b11111 I
b1111100 H
1,
#1355000
0,
#1360000
01
1,
#1365000
0,
#1370000
1,
#1375000
0,
#1380000
b0 K
1@
b0 !
b0 6
1"
1,
#1385000
0,
#1390000
0@
0"
b0 0
b0 ;
b0 E
b0 G
1/
1,
#1395000
0,
#1400000
0/
1,
#1405000
0,
#1410000
b100 K
1@
b100 !
b100 6
1"
1,
#1415000
0,
#1420000
0@
0"
1/
b100 G
b1 0
b1 ;
b1 E
1,
#1425000
0,
#1430000
0/
1,
#1435000
0,
#1440000
b1000 K
1@
b1000 !
b1000 6
1"
1,
#1445000
0,
#1450000
0@
0"
b10 0
b10 ;
b10 E
b1000 G
1/
1,
#1455000
0,
#1460000
0/
1,
#1465000
0,
#1470000
b1100 K
1@
b1100 !
b1100 6
1"
1,
#1475000
0,
#1480000
0@
0"
1/
b1100 G
b11 0
b11 ;
b11 E
1,
#1485000
0,
#1490000
0/
1,
#1495000
0,
#1500000
b10000 K
1@
b10000 !
b10000 6
1"
1,
#1505000
0,
#1510000
0@
0"
b100 0
b100 ;
b100 E
b10000 G
1/
1,
#1515000
0,
#1520000
0/
1,
#1525000
0,
#1530000
b10100 K
1@
b10100 !
b10100 6
1"
1,
#1535000
0,
#1540000
0@
0"
1/
b10100 G
b101 0
b101 ;
b101 E
1,
#1545000
0,
#1550000
0/
1,
#1555000
0,
#1560000
b11000 K
1@
b11000 !
b11000 6
1"
1,
#1565000
0,
#1570000
0@
0"
b110 0
b110 ;
b110 E
b11000 G
1/
1,
#1575000
0,
#1580000
0/
1,
#1585000
0,
#1590000
b11100 K
1@
b11100 !
b11100 6
1"
1,
#1595000
0,
#1600000
0@
0"
1/
b11100 G
b111 0
b111 ;
b111 E
1,
#1605000
0,
#1610000
0/
1,
#1615000
0,
#1620000
b100000 K
1@
b100000 !
b100000 6
1"
1,
#1625000
0,
#1630000
0@
0"
b1000 0
b1000 ;
b1000 E
b100000 G
1/
1,
#1635000
0,
#1640000
0/
1,
#1645000
0,
#1650000
b100100 K
1@
b100100 !
b100100 6
1"
1,
#1655000
0,
#1660000
0@
0"
1/
b100100 G
b1001 0
b1001 ;
b1001 E
1,
#1665000
0,
#1670000
0/
1,
#1675000
0,
#1680000
b101000 K
1@
b101000 !
b101000 6
1"
1,
#1685000
0,
#1690000
0@
0"
b1010 0
b1010 ;
b1010 E
b101000 G
1/
1,
#1695000
0,
#1700000
0/
1,
#1705000
0,
#1710000
b101100 K
1@
b101100 !
b101100 6
1"
1,
#1715000
0,
#1720000
0@
0"
1/
b101100 G
b1011 0
b1011 ;
b1011 E
1,
#1725000
0,
#1730000
0/
1,
#1735000
0,
#1740000
b110000 K
1@
b110000 !
b110000 6
1"
1,
#1745000
0,
#1750000
0@
0"
b1100 0
b1100 ;
b1100 E
b110000 G
1/
1,
#1755000
0,
#1760000
0/
1,
#1765000
0,
#1770000
b110100 K
1@
b110100 !
b110100 6
1"
1,
#1775000
0,
#1780000
0@
0"
1/
b110100 G
b1101 0
b1101 ;
b1101 E
1,
#1785000
0,
#1790000
0/
1,
#1795000
0,
#1800000
b111000 K
1@
b111000 !
b111000 6
1"
1,
#1805000
0,
#1810000
0@
0"
b1110 0
b1110 ;
b1110 E
b111000 G
1/
1,
#1815000
0,
#1820000
0/
1,
#1825000
0,
#1830000
b111100 K
1@
b111100 !
b111100 6
1"
1,
#1835000
0,
#1840000
0@
0"
1/
b111100 G
b1111 0
b1111 ;
b1111 E
1,
#1845000
0,
#1850000
0/
1,
#1855000
0,
#1860000
b1000000 K
1@
b1000000 !
b1000000 6
1"
1,
#1865000
0,
#1870000
0@
0"
b10000 0
b10000 ;
b10000 E
b1000000 G
1/
1,
#1875000
0,
#1880000
0/
1,
#1885000
0,
#1890000
b1000100 K
1@
b1000100 !
b1000100 6
1"
1,
#1895000
0,
#1900000
0@
0"
1/
b1000100 G
b10001 0
b10001 ;
b10001 E
1,
#1905000
0,
#1910000
0/
1,
#1915000
0,
#1920000
b1001000 K
1@
b1001000 !
b1001000 6
1"
1,
#1925000
0,
#1930000
0@
0"
b10010 0
b10010 ;
b10010 E
b1001000 G
1/
1,
#1935000
0,
#1940000
0/
1,
#1945000
0,
#1950000
b1001100 K
1@
b1001100 !
b1001100 6
1"
1,
#1955000
0,
#1960000
0@
0"
1/
b1001100 G
b10011 0
b10011 ;
b10011 E
1,
#1965000
0,
#1970000
0/
1,
#1975000
0,
#1980000
b1010000 K
1@
b1010000 !
b1010000 6
1"
1,
#1985000
0,
#1990000
0@
0"
b10100 0
b10100 ;
b10100 E
b1010000 G
1/
1,
#1995000
0,
#2000000
0/
1,
#2005000
0,
#2010000
b1010100 K
1@
b1010100 !
b1010100 6
1"
1,
#2015000
0,
#2020000
0@
0"
1/
b1010100 G
b10101 0
b10101 ;
b10101 E
1,
#2025000
0,
#2030000
0/
1,
#2035000
0,
#2040000
b1011000 K
1@
b1011000 !
b1011000 6
1"
1,
#2045000
0,
#2050000
0@
0"
b10110 0
b10110 ;
b10110 E
b1011000 G
1/
1,
#2055000
0,
#2060000
0/
1,
#2065000
0,
#2070000
b1011100 K
1@
b1011100 !
b1011100 6
1"
1,
#2075000
0,
#2080000
0@
0"
1/
b1011100 G
b10111 0
b10111 ;
b10111 E
1,
#2085000
0,
#2090000
0/
1,
#2095000
0,
#2100000
b1100000 K
1@
b1100000 !
b1100000 6
1"
1,
#2105000
0,
#2110000
0@
0"
b11000 0
b11000 ;
b11000 E
b1100000 G
1/
1,
#2115000
0,
#2120000
0/
1,
#2125000
0,
#2130000
b1100100 K
1@
b1100100 !
b1100100 6
1"
1,
#2135000
0,
#2140000
0@
0"
1/
b1100100 G
b11001 0
b11001 ;
b11001 E
1,
#2145000
0,
#2150000
0/
1,
#2155000
0,
#2160000
b1101000 K
1@
b1101000 !
b1101000 6
1"
1,
#2165000
0,
#2170000
0@
0"
b11010 0
b11010 ;
b11010 E
b1101000 G
1/
1,
#2175000
0,
#2180000
0/
1,
#2185000
0,
#2190000
b1101100 K
1@
b1101100 !
b1101100 6
1"
1,
#2195000
0,
#2200000
0@
0"
1/
b1101100 G
b11011 0
b11011 ;
b11011 E
1,
#2205000
0,
#2210000
0/
1,
#2215000
0,
#2220000
b1110000 K
1@
b1110000 !
b1110000 6
1"
1,
#2225000
0,
#2230000
0@
0"
b11100 0
b11100 ;
b11100 E
b1110000 G
1/
1,
#2235000
0,
#2240000
0/
1,
#2245000
0,
#2250000
b1110100 K
1@
b1110100 !
b1110100 6
1"
1,
#2255000
0,
#2260000
0@
0"
1/
b1110100 G
b11101 0
b11101 ;
b11101 E
1,
#2265000
0,
#2270000
0/
1,
#2275000
0,
#2280000
b1111000 K
1@
b1111000 !
b1111000 6
1"
1,
#2285000
0,
#2290000
0@
0"
b11110 0
b11110 ;
b11110 E
b1111000 G
1/
1,
#2295000
0,
#2300000
0/
1,
#2305000
0,
#2310000
b1111100 K
1@
b1111100 !
b1111100 6
1"
1,
#2315000
0,
#2320000
0@
0"
1/
b1111100 G
b11111 0
b11111 ;
b11111 E
1,
#2325000
0,
#2330000
b101000 K
1@
b101000 !
b101000 6
1"
0/
1,
#2335000
0,
#2340000
1?
1/
b101100 G
b1010 0
b1010 ;
b1010 E
b101100 K
b101100 !
b101100 6
0'
1,
#2345000
0,
#2350000
03
b110000 G
b110000 K
b110000 !
b110000 6
1,
#2355000
0,
#2360000
0"
1,
#2365000
0,
#2370000
1,
#2375000
0,
#2380000
1,
#2385000
0,
#2390000
1,
#2395000
0,
#2400000
1,
#2405000
0,
#2410000
1,
#2415000
0,
#2420000
1,
#2425000
0,
#2430000
1,
#2435000
0,
#2440000
1,
#2445000
0,
#2450000
1,
#2455000
0,
#2460000
0?
1'
1,
#2465000
0,
#2470000
0@
13
b1100 0
b1100 ;
b1100 E
1,
#2475000
0,
#2480000
0/
1,
