work_in_progress/nn/neuron/dev/acc/sim.vcd
$date
	Sat Nov 14 22:30:20 2020
$end
$version
	Icarus Verilog
$end
$timescale
	1ps
$end
$scope module sig_acc_tb $end
$var wire 1 ! clk $end
$var wire 16 " din [15:0] $end
$var wire 1 # en $end
$var wire 1 $ last $end
$var wire 1 % rst $end
$var wire 1 & dout_valid $end
$var wire 32 ' dout [31:0] $end
$scope module sig_acc_inst $end
$var wire 1 ! clk $end
$var wire 16 ( din [15:0] $end
$var wire 32 ) dout [31:0] $end
$var wire 1 & dout_valid $end
$var wire 1 # en $end
$var wire 1 $ last $end
$var wire 1 % rst $end
$var wire 32 * align_din [31:0] $end
$var wire 32 + acc_combo [31:0] $end
$var reg 32 , acc_mem [31:0] $end
$var reg 32 - d_acc_combo [31:0] $end
$var reg 1 . flag $end
$var reg 32 / r_dout [31:0] $end
$var reg 1 0 valid $end
$scope begin genblk1 $end
$upscope $end
$upscope $end
$upscope $end
$enddefinitions $end
#0
$dumpvars
00
b0 /
0.
b0 -
b0 ,
b110011001000000 +
b110011001000000 *
b0 )
b110011001 (
b0 '
0&
0%
0$
1#
b110011001 "
1!
$end
#5000
0!
#10000
b1100110011000000 *
b1100110011 "
b1100110011 (
b10011001100000000 +
b110011001000000 ,
b110011001000000 -
1!
#15000
0!
#20000
b10011001100000000 *
b10011001100 "
b10011001100 (
b10011001100000000 -
b100110011000000000 +
b10011001100000000 ,
1!
#25000
0!
#30000
b11001100110000000 *
b11001100110 "
b11001100110 (
b111111111110000000 +
b100110011000000000 ,
b100110011000000000 -
1!
#35000
0!
#40000
b100000000000000000 *
b100000000000 "
b100000000000 (
b111111111110000000 -
b1011111111110000000 +
b111111111110000000 ,
1!
#45000
0!
#50000
b100110011001000000 *
b100110011001 "
b100110011001 (
b10000110010111000000 +
b1011111111110000000 ,
b1011111111110000000 -
1!
#55000
0!
#60000
b101100110011000000 *
b101100110011 "
b101100110011 (
b10000110010111000000 -
b10110011001010000000 +
b10000110010111000000 ,
1!
#65000
0!
#70000
b110011001100000000 *
b110011001100 "
b110011001100 (
b11100110010110000000 +
b10110011001010000000 ,
b10110011001010000000 -
1!
#75000
0!
#80000
b111001100110000000 *
b111001100110 "
b111001100110 (
b11100110010110000000 -
b100011111111100000000 +
b11100110010110000000 ,
1!
#85000
0!
#90000
b1000000000000000000 *
b1000000000000 "
b1000000000000 (
b101011111111100000000 +
b100011111111100000000 ,
b100011111111100000000 -
1!
#95000
0!
#100000
b1000110011001000000 *
b1000110011001 "
b1000110011001 (
b101011111111100000000 -
b110100110010101000000 +
b101011111111100000000 ,
1!
#105000
0!
#110000
b1001100110011000000 *
b1001100110011 "
b1001100110011 (
b111110011001000000000 +
b110100110010101000000 ,
b110100110010101000000 -
1!
#115000
0!
#120000
b1010011001100000000 *
b1010011001100 "
b1010011001100 (
b111110011001000000000 -
b1001000110010100000000 +
b111110011001000000000 ,
1!
#125000
0!
#130000
b1011001100110000000 *
b1011001100110 "
b1011001100110 (
b1010011111111010000000 +
b1001000110010100000000 ,
b1001000110010100000000 -
1!
#135000
0!
#140000
b1100000000000000000 *
b1100000000000 "
b1100000000000 (
b1010011111111010000000 -
b1011111111111010000000 +
b1010011111111010000000 ,
1!
#145000
0!
#150000
b1100110011001000000 *
b1100110011001 "
b1100110011001 (
b1101100110010011000000 +
b1011111111111010000000 ,
b1011111111111010000000 -
1!
#155000
0!
#160000
b1101100110011000000 *
b1101100110011 "
b1101100110011 (
b1101100110010011000000 -
b1111010011000110000000 +
b1101100110010011000000 ,
1!
#165000
0!
#170000
b1110011001100000000 *
b1110011001100 "
b1110011001100 (
b10001000110010010000000 +
b1111010011000110000000 ,
b1111010011000110000000 -
1!
#175000
0!
#180000
b1111001100110000000 *
b1111001100110 "
b1111001100110 (
b10001000110010010000000 -
b10010111111111000000000 +
b10001000110010010000000 ,
1!
#185000
0!
#190000
b10000000000000000000 *
b10000000000000 "
b10000000000000 (
b10100111111111000000000 +
b10010111111111000000000 ,
b10010111111111000000000 -
1!
#195000
0!
#200000
b10000110011001000000 *
b10000110011001 "
b10000110011001 (
b10100111111111000000000 -
b10111000110010001000000 +
b10100111111111000000000 ,
1!
#205000
0!
#210000
b10001100110011000000 *
b10001100110011 "
b10001100110011 (
b11001010011000100000000 +
b10111000110010001000000 ,
b10111000110010001000000 -
1!
#215000
0!
#220000
b10010011001100000000 *
b10010011001100 "
b10010011001100 (
b11001010011000100000000 -
b11011100110010000000000 +
b11001010011000100000000 ,
1!
#225000
0!
#230000
b10011001100110000000 *
b10011001100110 "
b10011001100110 (
b11101111111110110000000 +
b11011100110010000000000 ,
b11011100110010000000000 -
1!
#235000
0!
#240000
b10100000000000000000 *
b10100000000000 "
b10100000000000 (
b11101111111110110000000 -
b100000011111110110000000 +
b11101111111110110000000 ,
1!
#245000
0!
#250000
b10100110011001000000 *
b10100110011001 "
b10100110011001 (
b100011000110001111000000 +
b100000011111110110000000 ,
b100000011111110110000000 -
1!
#255000
0!
#260000
b10101100110011000000 *
b10101100110011 "
b10101100110011 (
b100011000110001111000000 -
b100101110011000010000000 +
b100011000110001111000000 ,
1!
#265000
0!
#270000
b10110011001100000000 *
b10110011001100 "
b10110011001100 (
b101000100110001110000000 +
b100101110011000010000000 ,
b100101110011000010000000 -
1!
#275000
0!
#280000
b10111001100110000000 *
b10111001100110 "
b10111001100110 (
b101000100110001110000000 -
b101011011111110100000000 +
b101000100110001110000000 ,
1!
#285000
0!
#290000
b11000000000000000000 *
b11000000000000 "
b11000000000000 (
b101110011111110100000000 +
b101011011111110100000000 ,
b101011011111110100000000 -
1!
#295000
0!
#300000
b11000110011001000000 *
b11000110011001 "
b11000110011001 (
1$
b101110011111110100000000 -
b110001100110001101000000 +
b101110011111110100000000 ,
1!
#305000
0!
#310000
0#
0$
b110001100110001101000000 '
b110001100110001101000000 )
b110001100110001101000000 /
b11000110011001000000 +
b0 ,
1&
10
b110001100110001101000000 -
1!
#315000
0!
#320000
b11111111111111001110101001000000 +
b11111111111111001110101001000000 *
b1111001110101001 "
b1111001110101001 (
1#
b11000110011001000000 -
0&
00
1!
#325000
0!
#330000
b11111111111111111110101100000000 *
b1111111110101100 "
b1111111110101100 (
b11111111111111001101010101000000 +
b11111111111111001110101001000000 ,
b11111111111111001110101001000000 -
1!
#335000
0!
#340000
b11111111111111010111011101000000 *
b1111010111011101 "
b1111010111011101 (
b11111111111111001101010101000000 -
b11111111111110100100110010000000 +
b11111111111111001101010101000000 ,
1!
#345000
0!
#350000
b11111111111111010000000101000000 *
b1111010000000101 "
b1111010000000101 (
b11111111111101110100110111000000 +
b11111111111110100100110010000000 ,
b11111111111110100100110010000000 -
1!
#355000
0!
#360000
b11111111111111100000000111000000 *
b1111100000000111 "
b1111100000000111 (
b11111111111101110100110111000000 -
b11111111111101010100111110000000 +
b11111111111101110100110111000000 ,
1!
#365000
0!
#370000
b11111111111111110001101000000000 *
b1111110001101000 "
b1111110001101000 (
b11111111111101000110100110000000 +
b11111111111101010100111110000000 ,
b11111111111101010100111110000000 -
1!
#375000
0!
#380000
b11111111111111110011010101000000 *
b1111110011010101 "
b1111110011010101 (
b11111111111101000110100110000000 -
b11111111111100111001111011000000 +
b11111111111101000110100110000000 ,
1!
#385000
0!
#390000
b11111111111111001111010101000000 *
b1111001111010101 "
b1111001111010101 (
b11111111111100001001010000000000 +
b11111111111100111001111011000000 ,
b11111111111100111001111011000000 -
1!
#395000
0!
#400000
b11111111111111110101001100000000 *
b1111110101001100 "
b1111110101001100 (
b11111111111100001001010000000000 -
b11111111111011111110011100000000 +
b11111111111100001001010000000000 ,
1!
#405000
0!
#410000
b11111111111111111010010111000000 *
b1111111010010111 "
b1111111010010111 (
b11111111111011111000110011000000 +
b11111111111011111110011100000000 ,
b11111111111011111110011100000000 -
1!
#415000
0!
#420000
b11111111111111010100001001000000 *
b1111010100001001 "
b1111010100001001 (
b11111111111011111000110011000000 -
b11111111111011001100111100000000 +
b11111111111011111000110011000000 ,
1!
#425000
0!
#430000
b11111111111111000010111111000000 *
b1111000010111111 "
b1111000010111111 (
b11111111111010001111111011000000 +
b11111111111011001100111100000000 ,
b11111111111011001100111100000000 -
1!
#435000
0!
#440000
b11111111111111111111110000000000 *
b1111111111110000 "
b1111111111110000 (
b11111111111010001111111011000000 -
b11111111111010001111101011000000 +
b11111111111010001111111011000000 ,
1!
#445000
0!
#450000
b11111111111111011111001111000000 *
b1111011111001111 "
b1111011111001111 (
b11111111111001101110111010000000 +
b11111111111010001111101011000000 ,
b11111111111010001111101011000000 -
1!
#455000
0!
#460000
b11111111111111001100000000000000 *
b1111001100000000 "
b1111001100000000 (
b11111111111001101110111010000000 -
b11111111111000111010111010000000 +
b11111111111001101110111010000000 ,
1!
#465000
0!
#470000
b11111111111111011000110100000000 *
b1111011000110100 "
b1111011000110100 (
b11111111111000010011101110000000 +
b11111111111000111010111010000000 ,
b11111111111000111010111010000000 -
1!
#475000
0!
#480000
b11111111111111010001110100000000 *
b1111010001110100 "
b1111010001110100 (
b11111111111000010011101110000000 -
b11111111110111100101100010000000 +
b11111111111000010011101110000000 ,
1!
#485000
0!
#490000
b11111111111111101101010101000000 *
b1111101101010101 "
b1111101101010101 (
b11111111110111010010110111000000 +
b11111111110111100101100010000000 ,
b11111111110111100101100010000000 -
1!
#495000
0!
#500000
b11111111111111000101010001000000 *
b1111000101010001 "
b1111000101010001 (
b11111111110111010010110111000000 -
b11111111110110011000001000000000 +
b11111111110111010010110111000000 ,
1!
#505000
0!
#510000
b11111111111111010010010010000000 *
b1111010010010010 "
b1111010010010010 (
b11111111110101101010011010000000 +
b11111111110110011000001000000000 ,
b11111111110110011000001000000000 -
1!
#515000
0!
#520000
b11111111111111011101010010000000 *
b1111011101010010 "
b1111011101010010 (
b11111111110101101010011010000000 -
b11111111110101000111101100000000 +
b11111111110101101010011010000000 ,
1!
#525000
0!
#530000
b11111111111111110110111010000000 *
b1111110110111010 "
b1111110110111010 (
b11111111110100111110100110000000 +
b11111111110101000111101100000000 ,
b11111111110101000111101100000000 -
1!
#535000
0!
#540000
b11111111111111101000000111000000 *
b1111101000000111 "
b1111101000000111 (
b11111111110100111110100110000000 -
b11111111110100100110101101000000 +
b11111111110100111110100110000000 ,
1!
#545000
0!
#550000
b11111111111111010100110111000000 *
b1111010100110111 "
b1111010100110111 (
b11111111110011111011100100000000 +
b11111111110100100110101101000000 ,
b11111111110100100110101101000000 -
1!
#555000
0!
#560000
b11111111111111100011101111000000 *
b1111100011101111 "
b1111100011101111 (
b11111111110011111011100100000000 -
b11111111110011011111010011000000 +
b11111111110011111011100100000000 ,
1!
#565000
0!
#570000
b11111111111111100100001111000000 *
b1111100100001111 "
b1111100100001111 (
b11111111110011000011100010000000 +
b11111111110011011111010011000000 ,
b11111111110011011111010011000000 -
1!
#575000
0!
#580000
b11111111111111011000011110000000 *
b1111011000011110 "
b1111011000011110 (
b11111111110011000011100010000000 -
b11111111110010011100000000000000 +
b11111111110011000011100010000000 ,
1!
#585000
0!
#590000
b11111111111111011111001011000000 *
b1111011111001011 "
b1111011111001011 (
b11111111110001111011001011000000 +
b11111111110010011100000000000000 ,
b11111111110010011100000000000000 -
1!
#595000
0!
#600000
b11111111111111010110011000000000 *
b1111010110011000 "
b1111010110011000 (
b11111111110001111011001011000000 -
b11111111110001010001100011000000 +
b11111111110001111011001011000000 ,
1!
#605000
0!
#610000
b11111111111111011001100011000000 *
b1111011001100011 "
b1111011001100011 (
b11111111110000101011000110000000 +
b11111111110001010001100011000000 ,
b11111111110001010001100011000000 -
1!
#615000
0!
#620000
b11111111111111001100011110000000 *
b1111001100011110 "
b1111001100011110 (
b11111111110000101011000110000000 -
b11111111101111110111100100000000 +
b11111111110000101011000110000000 ,
1!
#625000
0!
#630000
b11111111111111011110101000000000 *
b1111011110101000 "
b1111011110101000 (
b11111111101111010110001100000000 +
b11111111101111110111100100000000 ,
b11111111101111110111100100000000 -
1!
#635000
0!
#640000
b11111111111111000101110111000000 *
b1111000101110111 "
b1111000101110111 (
b11111111101111010110001100000000 -
b11111111101110011100000011000000 +
b11111111101111010110001100000000 ,
1!
#645000
0!
#650000
b11111111111111101011100101000000 *
b1111101011100101 "
b1111101011100101 (
b11111111101110000111101000000000 +
b11111111101110011100000011000000 ,
b11111111101110011100000011000000 -
1!
#655000
0!
#660000
b11111111111111111010001110000000 *
b1111111010001110 "
b1111111010001110 (
b11111111101110000111101000000000 -
b11111111101110000001110110000000 +
b11111111101110000111101000000000 ,
1!
#665000
0!
#670000
b11111111111111101100110001000000 *
b1111101100110001 "
b1111101100110001 (
b11111111101101101110100111000000 +
b11111111101110000001110110000000 ,
b11111111101110000001110110000000 -
1!
#675000
0!
#680000
b11111111111111111000101110000000 *
b1111111000101110 "
b1111111000101110 (
b11111111101101101110100111000000 -
b11111111101101100111010101000000 +
b11111111101101101110100111000000 ,
1!
#685000
0!
#690000
b11111111111111001010111110000000 *
b1111001010111110 "
b1111001010111110 (
b11111111101100110010010011000000 +
b11111111101101100111010101000000 ,
b11111111101101100111010101000000 -
1!
#695000
0!
#700000
b11111111111111111101000000000000 *
b1111111101000000 "
b1111111101000000 (
b11111111101100110010010011000000 -
b11111111101100101111010011000000 +
b11111111101100110010010011000000 ,
1!
#705000
0!
#710000
b11111111111111010111111011000000 *
b1111010111111011 "
b1111010111111011 (
1$
b11111111101100000111001110000000 +
b11111111101100101111010011000000 ,
b11111111101100101111010011000000 -
1!
#715000
0!
#720000
0#
0$
b11111111101100000111001110000000 -
b11111111111111010111111011000000 +
b0 ,
1&
10
b11111111101100000111001110000000 '
b11111111101100000111001110000000 )
b11111111101100000111001110000000 /
1!
#725000
0!
#730000
b11111111111000101100110100000000 +
b11111111111000101100110100000000 *
b1000101100110100 "
b1000101100110100 (
1#
0&
00
b11111111111111010111111011000000 -
1!
#735000
0!
#740000
b11111111111000101100110100000000 -
b11111111110001011001101000000000 +
b11111111111000101100110100000000 ,
1!
#745000
0!
#750000
b11111111101010000110011100000000 +
b11111111110001011001101000000000 ,
b11111111110001011001101000000000 -
1!
#755000
0!
#760000
b11111111101010000110011100000000 -
b11111111100010110011010000000000 +
b11111111101010000110011100000000 ,
1!
#765000
0!
#770000
b11111111011011100000000100000000 +
b11111111100010110011010000000000 ,
b11111111100010110011010000000000 -
1!
#775000
0!
#780000
b11111111011011100000000100000000 -
b11111111010100001100111000000000 +
b11111111011011100000000100000000 ,
1!
#785000
0!
#790000
b11111111001100111001101100000000 +
b11111111010100001100111000000000 ,
b11111111010100001100111000000000 -
1!
#795000
0!
#800000
b11111111001100111001101100000000 -
b11111111000101100110100000000000 +
b11111111001100111001101100000000 ,
1!
#805000
0!
#810000
b11111110111110010011010100000000 +
b11111111000101100110100000000000 ,
b11111111000101100110100000000000 -
1!
#815000
0!
#820000
b11111110111110010011010100000000 -
b11111110110111000000001000000000 +
b11111110111110010011010100000000 ,
1!
#825000
0!
#830000
b11111110101111101100111100000000 +
b11111110110111000000001000000000 ,
b11111110110111000000001000000000 -
1!
#835000
0!
#840000
b11111110101111101100111100000000 -
b11111110101000011001110000000000 +
b11111110101111101100111100000000 ,
1!
#845000
0!
#850000
b11111110100001000110100100000000 +
b11111110101000011001110000000000 ,
b11111110101000011001110000000000 -
1!
#855000
0!
#860000
b11111110100001000110100100000000 -
b11111110011001110011011000000000 +
b11111110100001000110100100000000 ,
1!
#865000
0!
#870000
b11111110010010100000001100000000 +
b11111110011001110011011000000000 ,
b11111110011001110011011000000000 -
1!
#875000
0!
#880000
b11111110010010100000001100000000 -
b11111110001011001101000000000000 +
b11111110010010100000001100000000 ,
1!
#885000
0!
#890000
b11111110000011111001110100000000 +
b11111110001011001101000000000000 ,
b11111110001011001101000000000000 -
1!
#895000
0!
#900000
b11111110000011111001110100000000 -
b11111101111100100110101000000000 +
b11111110000011111001110100000000 ,
1!
#905000
0!
#910000
b11111101110101010011011100000000 +
b11111101111100100110101000000000 ,
b11111101111100100110101000000000 -
1!
#915000
0!
#920000
b11111101110101010011011100000000 -
b11111101101110000000010000000000 +
b11111101110101010011011100000000 ,
1!
#925000
0!
#930000
b11111101100110101101000100000000 +
b11111101101110000000010000000000 ,
b11111101101110000000010000000000 -
1!
#935000
0!
#940000
b11111101100110101101000100000000 -
b11111101011111011001111000000000 +
b11111101100110101101000100000000 ,
1!
#945000
0!
#950000
b11111101011000000110101100000000 +
b11111101011111011001111000000000 ,
b11111101011111011001111000000000 -
1!
#955000
0!
#960000
b11111101011000000110101100000000 -
b11111101010000110011100000000000 +
b11111101011000000110101100000000 ,
1!
#965000
0!
#970000
b11111101001001100000010100000000 +
b11111101010000110011100000000000 ,
b11111101010000110011100000000000 -
1!
#975000
0!
#980000
b11111101001001100000010100000000 -
b11111101000010001101001000000000 +
b11111101001001100000010100000000 ,
1!
#985000
0!
#990000
b11111100111010111001111100000000 +
b11111101000010001101001000000000 ,
b11111101000010001101001000000000 -
1!
#995000
0!
#1000000
b11111100111010111001111100000000 -
b11111100110011100110110000000000 +
b11111100111010111001111100000000 ,
1!
#1005000
0!
#1010000
b11111100101100010011100100000000 +
b11111100110011100110110000000000 ,
b11111100110011100110110000000000 -
1!
#1015000
0!
#1020000
b11111100101100010011100100000000 -
b11111100100101000000011000000000 +
b11111100101100010011100100000000 ,
1!
#1025000
0!
#1030000
b11111100011101101101001100000000 +
b11111100100101000000011000000000 ,
b11111100100101000000011000000000 -
1!
#1035000
0!
#1040000
b11111100011101101101001100000000 -
b11111100010110011010000000000000 +
b11111100011101101101001100000000 ,
1!
#1045000
0!
#1050000
b11111100001111000110110100000000 +
b11111100010110011010000000000000 ,
b11111100010110011010000000000000 -
1!
#1055000
0!
#1060000
b11111100001111000110110100000000 -
b11111100000111110011101000000000 +
b11111100001111000110110100000000 ,
1!
#1065000
0!
#1070000
b11111100000000100000011100000000 +
b11111100000111110011101000000000 ,
b11111100000111110011101000000000 -
1!
#1075000
0!
#1080000
b11111100000000100000011100000000 -
b11111011111001001101010000000000 +
b11111100000000100000011100000000 ,
1!
#1085000
0!
#1090000
b11111011110001111010000100000000 +
b11111011111001001101010000000000 ,
b11111011111001001101010000000000 -
1!
#1095000
0!
#1100000
b11111011110001111010000100000000 -
b11111011101010100110111000000000 +
b11111011110001111010000100000000 ,
1!
#1105000
0!
#1110000
b11111011100011010011101100000000 +
b11111011101010100110111000000000 ,
b11111011101010100110111000000000 -
1!
#1115000
0!
#1120000
b11111011100011010011101100000000 -
b11111011011100000000100000000000 +
b11111011100011010011101100000000 ,
1!
#1125000
0!
#1130000
b11111011010100101101010100000000 +
b11111011011100000000100000000000 ,
b11111011011100000000100000000000 -
1!
#1135000
0!
#1140000
b11111011010100101101010100000000 -
b11111011001101011010001000000000 +
b11111011010100101101010100000000 ,
1!
#1145000
0!
#1150000
b11111011000110000110111100000000 +
b11111011001101011010001000000000 ,
b11111011001101011010001000000000 -
1!
#1155000
0!
#1160000
b11111011000110000110111100000000 -
b11111010111110110011110000000000 +
b11111011000110000110111100000000 ,
1!
#1165000
0!
#1170000
b11111010110111100000100100000000 +
b11111010111110110011110000000000 ,
b11111010111110110011110000000000 -
1!
#1175000
0!
#1180000
b11111010110111100000100100000000 -
b11111010110000001101011000000000 +
b11111010110111100000100100000000 ,
1!
#1185000
0!
#1190000
b11111010101000111010001100000000 +
b11111010110000001101011000000000 ,
b11111010110000001101011000000000 -
1!
#1195000
0!
#1200000
b11111010101000111010001100000000 -
b11111010100001100111000000000000 +
b11111010101000111010001100000000 ,
1!
#1205000
0!
#1210000
b11111010011010010011110100000000 +
b11111010100001100111000000000000 ,
b11111010100001100111000000000000 -
1!
#1215000
0!
#1220000
b11111010011010010011110100000000 -
b11111010010011000000101000000000 +
b11111010011010010011110100000000 ,
1!
#1225000
0!
#1230000
b11111010001011101101011100000000 +
b11111010010011000000101000000000 ,
b11111010010011000000101000000000 -
1!
#1235000
0!
#1240000
b11111010001011101101011100000000 -
b11111010000100011010010000000000 +
b11111010001011101101011100000000 ,
1!
#1245000
0!
#1250000
b11111001111101000111000100000000 +
b11111010000100011010010000000000 ,
b11111010000100011010010000000000 -
1!
#1255000
0!
#1260000
b11111001111101000111000100000000 -
b11111001110101110011111000000000 +
b11111001111101000111000100000000 ,
1!
#1265000
0!
#1270000
b11111001101110100000101100000000 +
b11111001110101110011111000000000 ,
b11111001110101110011111000000000 -
1!
#1275000
0!
#1280000
b11111001101110100000101100000000 -
b11111001100111001101100000000000 +
b11111001101110100000101100000000 ,
1!
#1285000
0!
#1290000
b11111001011111111010010100000000 +
b11111001100111001101100000000000 ,
b11111001100111001101100000000000 -
1!
#1295000
0!
#1300000
b11111001011111111010010100000000 -
b11111001011000100111001000000000 +
b11111001011111111010010100000000 ,
1!
#1305000
0!
#1310000
b11111001010001010011111100000000 +
b11111001011000100111001000000000 ,
b11111001011000100111001000000000 -
1!
#1315000
0!
#1320000
b11111001010001010011111100000000 -
b11111001001010000000110000000000 +
b11111001010001010011111100000000 ,
1!
#1325000
0!
#1330000
b11111001000010101101100100000000 +
b11111001001010000000110000000000 ,
b11111001001010000000110000000000 -
1!
#1335000
0!
#1340000
b11111001000010101101100100000000 -
b11111000111011011010011000000000 +
b11111001000010101101100100000000 ,
1!
#1345000
0!
#1350000
b11111000110100000111001100000000 +
b11111000111011011010011000000000 ,
b11111000111011011010011000000000 -
1!
#1355000
0!
#1360000
b11111000110100000111001100000000 -
b11111000101100110100000000000000 +
b11111000110100000111001100000000 ,
1!
#1365000
0!
#1370000
b11111000100101100000110100000000 +
b11111000101100110100000000000000 ,
b11111000101100110100000000000000 -
1!
#1375000
0!
#1380000
b11111000100101100000110100000000 -
b11111000011110001101101000000000 +
b11111000100101100000110100000000 ,
1!
#1385000
0!
#1390000
b11111000010110111010011100000000 +
b11111000011110001101101000000000 ,
b11111000011110001101101000000000 -
1!
#1395000
0!
#1400000
b11111000010110111010011100000000 -
b11111000001111100111010000000000 +
b11111000010110111010011100000000 ,
1!
#1405000
0!
#1410000
b11111000001000010100000100000000 +
b11111000001111100111010000000000 ,
b11111000001111100111010000000000 -
1!
#1415000
0!
#1420000
b11111000001000010100000100000000 -
b11111000000001000000111000000000 +
b11111000001000010100000100000000 ,
1!
#1425000
0!
#1430000
b11110111111001101101101100000000 +
b11111000000001000000111000000000 ,
b11111000000001000000111000000000 -
1!
#1435000
0!
#1440000
b11110111111001101101101100000000 -
b11110111110010011010100000000000 +
b11110111111001101101101100000000 ,
1!
#1445000
0!
#1450000
b11110111101011000111010100000000 +
b11110111110010011010100000000000 ,
b11110111110010011010100000000000 -
1!
#1455000
0!
#1460000
b11110111101011000111010100000000 -
b11110111100011110100001000000000 +
b11110111101011000111010100000000 ,
1!
#1465000
0!
#1470000
b11110111011100100000111100000000 +
b11110111100011110100001000000000 ,
b11110111100011110100001000000000 -
1!
#1475000
0!
#1480000
b11110111011100100000111100000000 -
b11110111010101001101110000000000 +
b11110111011100100000111100000000 ,
1!
#1485000
0!
#1490000
b11110111001101111010100100000000 +
b11110111010101001101110000000000 ,
b11110111010101001101110000000000 -
1!
#1495000
0!
#1500000
b11110111001101111010100100000000 -
b11110111000110100111011000000000 +
b11110111001101111010100100000000 ,
1!
#1505000
0!
#1510000
b11110110111111010100001100000000 +
b11110111000110100111011000000000 ,
b11110111000110100111011000000000 -
1!
#1515000
0!
#1520000
b11110110111111010100001100000000 -
b11110110111000000001000000000000 +
b11110110111111010100001100000000 ,
1!
#1525000
0!
#1530000
b11110110110000101101110100000000 +
b11110110111000000001000000000000 ,
b11110110111000000001000000000000 -
1!
#1535000
0!
#1540000
b11110110110000101101110100000000 -
b11110110101001011010101000000000 +
b11110110110000101101110100000000 ,
1!
#1545000
0!
#1550000
b11110110100010000111011100000000 +
b11110110101001011010101000000000 ,
b11110110101001011010101000000000 -
1!
#1555000
0!
#1560000
b11110110100010000111011100000000 -
b11110110011010110100010000000000 +
b11110110100010000111011100000000 ,
1!
#1565000
0!
#1570000
b11110110010011100001000100000000 +
b11110110011010110100010000000000 ,
b11110110011010110100010000000000 -
1!
#1575000
0!
#1580000
b11110110010011100001000100000000 -
b11110110001100001101111000000000 +
b11110110010011100001000100000000 ,
1!
#1585000
0!
#1590000
b11110110000100111010101100000000 +
b11110110001100001101111000000000 ,
b11110110001100001101111000000000 -
1!
#1595000
0!
#1600000
b11110110000100111010101100000000 -
b11110101111101100111100000000000 +
b11110110000100111010101100000000 ,
1!
#1605000
0!
#1610000
b11110101110110010100010100000000 +
b11110101111101100111100000000000 ,
b11110101111101100111100000000000 -
1!
#1615000
0!
#1620000
b11110101110110010100010100000000 -
b11110101101111000001001000000000 +
b11110101110110010100010100000000 ,
1!
#1625000
0!
#1630000
b11110101100111101101111100000000 +
b11110101101111000001001000000000 ,
b11110101101111000001001000000000 -
1!
#1635000
0!
#1640000
b11110101100111101101111100000000 -
b11110101100000011010110000000000 +
b11110101100111101101111100000000 ,
1!
#1645000
0!
#1650000
b11110101011001000111100100000000 +
b11110101100000011010110000000000 ,
b11110101100000011010110000000000 -
1!
#1655000
0!
#1660000
b11110101011001000111100100000000 -
b11110101010001110100011000000000 +
b11110101011001000111100100000000 ,
1!
#1665000
0!
#1670000
b11110101001010100001001100000000 +
b11110101010001110100011000000000 ,
b11110101010001110100011000000000 -
1!
#1675000
0!
#1680000
b11110101001010100001001100000000 -
b11110101000011001110000000000000 +
b11110101001010100001001100000000 ,
1!
#1685000
0!
#1690000
b11110100111011111010110100000000 +
b11110101000011001110000000000000 ,
b11110101000011001110000000000000 -
1!
#1695000
0!
#1700000
b11110100111011111010110100000000 -
b11110100110100100111101000000000 +
b11110100111011111010110100000000 ,
1!
#1705000
0!
#1710000
b11110100101101010100011100000000 +
b11110100110100100111101000000000 ,
b11110100110100100111101000000000 -
1!
#1715000
0!
#1720000
b11110100101101010100011100000000 -
b11110100100110000001010000000000 +
b11110100101101010100011100000000 ,
1!
#1725000
0!
#1730000
b11110100011110101110000100000000 +
b11110100100110000001010000000000 ,
b11110100100110000001010000000000 -
1!
#1735000
0!
#1740000
b11110100011110101110000100000000 -
b11110100010111011010111000000000 +
b11110100011110101110000100000000 ,
1!
#1745000
0!
#1750000
b11110100010000000111101100000000 +
b11110100010111011010111000000000 ,
b11110100010111011010111000000000 -
1!
#1755000
0!
#1760000
b11110100010000000111101100000000 -
b11110100001000110100100000000000 +
b11110100010000000111101100000000 ,
1!
#1765000
0!
#1770000
b11110100000001100001010100000000 +
b11110100001000110100100000000000 ,
b11110100001000110100100000000000 -
1!
#1775000
0!
#1780000
b11110100000001100001010100000000 -
b11110011111010001110001000000000 +
b11110100000001100001010100000000 ,
1!
#1785000
0!
#1790000
b11110011110010111010111100000000 +
b11110011111010001110001000000000 ,
b11110011111010001110001000000000 -
1!
#1795000
0!
#1800000
b11110011110010111010111100000000 -
b11110011101011100111110000000000 +
b11110011110010111010111100000000 ,
1!
#1805000
0!
#1810000
b11110011100100010100100100000000 +
b11110011101011100111110000000000 ,
b11110011101011100111110000000000 -
1!
#1815000
0!
#1820000
b11110011100100010100100100000000 -
b11110011011101000001011000000000 +
b11110011100100010100100100000000 ,
1!
#1825000
0!
#1830000
b11110011010101101110001100000000 +
b11110011011101000001011000000000 ,
b11110011011101000001011000000000 -
1!
#1835000
0!
#1840000
b11110011010101101110001100000000 -
b11110011001110011011000000000000 +
b11110011010101101110001100000000 ,
1!
#1845000
0!
#1850000
b11110011000111000111110100000000 +
b11110011001110011011000000000000 ,
b11110011001110011011000000000000 -
1!
#1855000
0!
#1860000
b11110011000111000111110100000000 -
b11110010111111110100101000000000 +
b11110011000111000111110100000000 ,
1!
#1865000
0!
#1870000
b11110010111000100001011100000000 +
b11110010111111110100101000000000 ,
b11110010111111110100101000000000 -
1!
#1875000
0!
#1880000
b11110010111000100001011100000000 -
b11110010110001001110010000000000 +
b11110010111000100001011100000000 ,
1!
#1885000
0!
#1890000
b11110010101001111011000100000000 +
b11110010110001001110010000000000 ,
b11110010110001001110010000000000 -
1!
#1895000
0!
#1900000
b11110010101001111011000100000000 -
b11110010100010100111111000000000 +
b11110010101001111011000100000000 ,
1!
#1905000
0!
#1910000
b11110010011011010100101100000000 +
b11110010100010100111111000000000 ,
b11110010100010100111111000000000 -
1!
#1915000
0!
#1920000
b11110010011011010100101100000000 -
b11110010010100000001100000000000 +
b11110010011011010100101100000000 ,
1!
#1925000
0!
#1930000
b11110010001100101110010100000000 +
b11110010010100000001100000000000 ,
b11110010010100000001100000000000 -
1!
#1935000
0!
#1940000
b11110010001100101110010100000000 -
b11110010000101011011001000000000 +
b11110010001100101110010100000000 ,
1!
#1945000
0!
#1950000
b11110001111110000111111100000000 +
b11110010000101011011001000000000 ,
b11110010000101011011001000000000 -
1!
#1955000
0!
#1960000
b11110001111110000111111100000000 -
b11110001110110110100110000000000 +
b11110001111110000111111100000000 ,
1!
#1965000
0!
#1970000
b11110001101111100001100100000000 +
b11110001110110110100110000000000 ,
b11110001110110110100110000000000 -
1!
#1975000
0!
#1980000
b11110001101111100001100100000000 -
b11110001101000001110011000000000 +
b11110001101111100001100100000000 ,
1!
#1985000
0!
#1990000
b11110001100000111011001100000000 +
b11110001101000001110011000000000 ,
b11110001101000001110011000000000 -
1!
#1995000
0!
#2000000
b11110001100000111011001100000000 -
b11110001011001101000000000000000 +
b11110001100000111011001100000000 ,
1!
#2005000
0!
#2010000
b11110001010010010100110100000000 +
b11110001011001101000000000000000 ,
b11110001011001101000000000000000 -
1!
#2015000
0!
#2020000
b11110001010010010100110100000000 -
b11110001001011000001101000000000 +
b11110001010010010100110100000000 ,
1!
#2025000
0!
#2030000
b11110001000011101110011100000000 +
b11110001001011000001101000000000 ,
b11110001001011000001101000000000 -
1!
