i2s/loopback/traces.vcd
$date
	Wed Feb 17 18:21:13 2021
$end
$version
	Icarus Verilog
$end
$timescale
	1ps
$end
$scope module i2s_pmod_tb $end
$var wire 1 ! adc_dat $end
$var wire 1 " clk $end
$var wire 1 # dac_sdat $end
$var wire 1 $ dac_sclk $end
$var wire 1 % dac_mclk $end
$var wire 1 & dac_lrck $end
$var wire 2 ' adc_tvalid [1:0] $end
$var wire 2 ( adc_tready [1:0] $end
$var wire 1 ) adc_sclk $end
$var wire 32 * adc_r_tdata [31:0] $end
$var wire 1 + adc_mclk $end
$var wire 1 , adc_lrck $end
$var wire 32 - adc_l_tdata [31:0] $end
$scope module i2s_pmod_inst $end
$var wire 1 ! adc_dat $end
$var wire 32 . adc_l_tdata [31:0] $end
$var wire 32 / adc_r_tdata [31:0] $end
$var wire 2 0 adc_tready [1:0] $end
$var wire 2 1 adc_tvalid [1:0] $end
$var wire 1 " clk $end
$var wire 32 2 dac_l_tdata [31:0] $end
$var wire 32 3 dac_r_tdata [31:0] $end
$var wire 1 # dac_sdat $end
$var wire 2 4 dac_tready [1:0] $end
$var wire 2 5 dac_tvalid [1:0] $end
$var wire 1 6 sdat_update $end
$var wire 6 7 index [5:0] $end
$var wire 1 $ dac_sclk $end
$var wire 1 % dac_mclk $end
$var wire 1 & dac_lrck $end
$var wire 1 ) adc_sclk $end
$var wire 1 + adc_mclk $end
$var wire 1 , adc_lrck $end
$var reg 64 8 adc_l_shift [63:0] $end
$var reg 32 9 adc_l_tdata_r [31:0] $end
$var reg 3 : adc_lrck_dly [2:0] $end
$var reg 64 ; adc_r_shift [63:0] $end
$var reg 32 < adc_r_tdata_r [31:0] $end
$var reg 3 = adc_sclk_dly [2:0] $end
$var reg 2 > adc_tvalid_r [1:0] $end
$var reg 9 ? counter [8:0] $end
$var reg 64 @ dac_l_shift [63:0] $end
$var reg 1 A dac_out $end
$var reg 64 B dac_r_shift [63:0] $end
$var reg 2 C dac_tready_r [1:0] $end
$var reg 1 D lrck_dly $end
$var reg 2 E lrck_dly_2 [1:0] $end
$var reg 3 F sync_adc_dat [2:0] $end
$upscope $end
$upscope $end
$enddefinitions $end
#0
$dumpvars
b0 F
b0 E
0D
b11 C
b0 B
0A
b0 @
b1 ?
b0 >
b0 =
b0 <
b0 ;
b0 :
b0 9
b0 8
b111111 7
06
b0 5
b11 4
b0 3
b0 2
b0 1
b11 0
b0 /
b0 .
b0 -
0,
1+
b0 *
0)
b11 (
b0 '
0&
1%
0$
0#
1"
0!
$end
#5000
0"
#10000
b0 (
b0 0
b0 4
0%
1$
0+
1)
b10 ?
1"
#15000
0"
#20000
1%
1+
16
b11 ?
b0 C
b1 =
1"
#25000
0"
#30000
b111110 7
0%
0$
0+
0)
06
b11 =
b100 ?
1"
#35000
0"
#40000
1%
1+
b101 ?
b110 =
1"
#45000
0"
#50000
0%
1$
0+
1)
b100 =
b110 ?
1"
#55000
0"
#60000
1%
1+
16
b111 ?
b1 =
1"
#65000
0"
#70000
b111101 7
0%
0$
0+
0)
06
b11 =
b1000 ?
1"
#75000
0"
#80000
1%
1+
b1001 ?
b110 =
1"
#85000
0"
#90000
0%
1$
0+
1)
b100 =
b1010 ?
1"
#95000
0"
#100000
1%
1+
16
b1011 ?
b1 =
1"
#105000
0"
#110000
b111100 7
0%
0$
0+
0)
06
b11 =
b1100 ?
1"
#115000
0"
#120000
1%
1+
b1101 ?
b110 =
1"
#125000
0"
#130000
0%
1$
0+
1)
b100 =
b1110 ?
1"
#135000
0"
#140000
1%
1+
16
b1111 ?
b1 =
1"
#145000
0"
#150000
b111011 7
0%
0$
0+
0)
06
b11 =
b10000 ?
1"
#155000
0"
#160000
1%
1+
b10001 ?
b110 =
1"
#165000
0"
#170000
0%
1$
0+
1)
b100 =
b10010 ?
1"
#175000
0"
#180000
1%
1+
16
b10011 ?
b1 =
1"
#185000
0"
#190000
b111010 7
0%
0$
0+
0)
06
b11 =
b10100 ?
1"
#195000
0"
#200000
1%
1+
b10101 ?
b110 =
1"
#205000
0"
#210000
0%
1$
0+
1)
b100 =
b10110 ?
1"
#215000
0"
#220000
1%
1+
16
b10111 ?
b1 =
1"
#225000
0"
#230000
b111001 7
0%
0$
0+
0)
06
b11 =
b11000 ?
1"
#235000
0"
#240000
1%
1+
b11001 ?
b110 =
1"
#245000
0"
#250000
0%
1$
0+
1)
b100 =
b11010 ?
1"
#255000
0"
#260000
1%
1+
16
b11011 ?
b1 =
1"
#265000
0"
#270000
b111000 7
0%
0$
0+
0)
06
b11 =
b11100 ?
1"
#275000
0"
#280000
1%
1+
b11101 ?
b110 =
1"
#285000
0"
#290000
0%
1$
0+
1)
b100 =
b11110 ?
1"
#295000
0"
#300000
1%
1+
16
b11111 ?
b1 =
1"
#305000
0"
#310000
b110111 7
0%
0$
0+
0)
06
b11 =
b100000 ?
1"
#315000
0"
#320000
1%
1+
b100001 ?
b110 =
1"
#325000
0"
#330000
0%
1$
0+
1)
b100 =
b100010 ?
1"
#335000
0"
#340000
1%
1+
16
b100011 ?
b1 =
1"
#345000
0"
#350000
b110110 7
0%
0$
0+
0)
06
b11 =
b100100 ?
1"
#355000
0"
#360000
1%
1+
b100101 ?
b110 =
1"
#365000
0"
#370000
0%
1$
0+
1)
b100 =
b100110 ?
1"
#375000
0"
#380000
1%
1+
16
b100111 ?
b1 =
1"
#385000
0"
#390000
b110101 7
0%
0$
0+
0)
06
b11 =
b101000 ?
1"
#395000
0"
#400000
1%
1+
b101001 ?
b110 =
1"
#405000
0"
#410000
0%
1$
0+
1)
b100 =
b101010 ?
1"
#415000
0"
#420000
1%
1+
16
b101011 ?
b1 =
1"
#425000
0"
#430000
b110100 7
0%
0$
0+
0)
06
b11 =
b101100 ?
1"
#435000
0"
#440000
1%
1+
b101101 ?
b110 =
1"
#445000
0"
#450000
0%
1$
0+
1)
b100 =
b101110 ?
1"
#455000
0"
#460000
1%
1+
16
b101111 ?
b1 =
1"
#465000
0"
#470000
b110011 7
0%
0$
0+
0)
06
b11 =
b110000 ?
1"
#475000
0"
#480000
1%
1+
b110001 ?
b110 =
1"
#485000
0"
#490000
0%
1$
0+
1)
b100 =
b110010 ?
1"
#495000
0"
#500000
1%
1+
16
b110011 ?
b1 =
1"
#505000
0"
#510000
b110010 7
0%
0$
0+
0)
06
b11 =
b110100 ?
1"
#515000
0"
#520000
1%
1+
b110101 ?
b110 =
1"
#525000
0"
#530000
0%
1$
0+
1)
b100 =
b110110 ?
1"
#535000
0"
#540000
1%
1+
16
b110111 ?
b1 =
1"
#545000
0"
#550000
b110001 7
0%
0$
0+
0)
06
b11 =
b111000 ?
1"
#555000
0"
#560000
1%
1+
b111001 ?
b110 =
1"
#565000
0"
#570000
0%
1$
0+
1)
b100 =
b111010 ?
1"
#575000
0"
#580000
1%
1+
16
b111011 ?
b1 =
1"
#585000
0"
#590000
b110000 7
0%
0$
0+
0)
06
b11 =
b111100 ?
1"
#595000
0"
#600000
1%
1+
b111101 ?
b110 =
1"
#605000
0"
#610000
0%
1$
0+
1)
b100 =
b111110 ?
1"
#615000
0"
#620000
1%
1+
16
b111111 ?
b1 =
1"
#625000
0"
#630000
b101111 7
0%
0$
0+
0)
06
b11 =
b1000000 ?
1"
#635000
0"
#640000
1%
1+
b1000001 ?
b110 =
1"
#645000
0"
#650000
0%
1$
0+
1)
b100 =
b1000010 ?
1"
#655000
0"
#660000
1%
1+
16
b1000011 ?
b1 =
1"
#665000
0"
#670000
b101110 7
0%
0$
0+
0)
06
b11 =
b1000100 ?
1"
#675000
0"
#680000
1%
1+
b1000101 ?
b110 =
1"
#685000
0"
#690000
0%
1$
0+
1)
b100 =
b1000110 ?
1"
#695000
0"
#700000
1%
1+
16
b1000111 ?
b1 =
1"
#705000
0"
#710000
b101101 7
0%
0$
0+
0)
06
b11 =
b1001000 ?
1"
#715000
0"
#720000
1%
1+
b1001001 ?
b110 =
1"
#725000
0"
#730000
0%
1$
0+
1)
b100 =
b1001010 ?
1"
#735000
0"
#740000
1%
1+
16
b1001011 ?
b1 =
1"
#745000
0"
#750000
b101100 7
0%
0$
0+
0)
06
b11 =
b1001100 ?
1"
#755000
0"
#760000
1%
1+
b1001101 ?
b110 =
1"
#765000
0"
#770000
0%
1$
0+
1)
b100 =
b1001110 ?
1"
#775000
0"
#780000
1%
1+
16
b1001111 ?
b1 =
1"
#785000
0"
#790000
b101011 7
0%
0$
0+
0)
06
b11 =
b1010000 ?
1"
#795000
0"
#800000
1%
1+
b1010001 ?
b110 =
1"
#805000
0"
#810000
0%
1$
0+
1)
b100 =
b1010010 ?
1"
#815000
0"
#820000
1%
1+
16
b1010011 ?
b1 =
1"
#825000
0"
#830000
b101010 7
0%
0$
0+
0)
06
b11 =
b1010100 ?
1"
#835000
0"
#840000
1%
1+
b1010101 ?
b110 =
1"
#845000
0"
#850000
0%
1$
0+
1)
b100 =
b1010110 ?
1"
#855000
0"
#860000
1%
1+
16
b1010111 ?
b1 =
1"
#865000
0"
#870000
b101001 7
0%
0$
0+
0)
06
b11 =
b1011000 ?
1"
#875000
0"
#880000
1%
1+
b1011001 ?
b110 =
1"
#885000
0"
#890000
0%
1$
0+
1)
b100 =
b1011010 ?
1"
#895000
0"
#900000
1%
1+
16
b1011011 ?
b1 =
1"
#905000
0"
#910000
b101000 7
0%
0$
0+
0)
06
b11 =
b1011100 ?
1"
#915000
0"
#920000
1%
1+
b1011101 ?
b110 =
1"
#925000
0"
#930000
0%
1$
0+
1)
b100 =
b1011110 ?
1"
#935000
0"
#940000
1%
1+
16
b1011111 ?
b1 =
1"
#945000
0"
#950000
b100111 7
0%
0$
0+
0)
06
b11 =
b1100000 ?
1"
#955000
0"
#960000
1%
1+
b1100001 ?
b110 =
1"
#965000
0"
#970000
0%
1$
0+
1)
b100 =
b1100010 ?
1"
#975000
0"
#980000
1%
1+
16
b1100011 ?
b1 =
1"
#985000
0"
#990000
b100110 7
0%
0$
0+
0)
06
b11 =
b1100100 ?
1"
#995000
0"
#1000000
1%
1+
b1100101 ?
b110 =
1"
#1005000
0"
#1010000
0%
1$
0+
1)
b100 =
b1100110 ?
1"
#1015000
0"
#1020000
1%
1+
16
b1100111 ?
b1 =
1"
#1025000
0"
#1030000
b100101 7
0%
0$
0+
0)
06
b11 =
b1101000 ?
1"
#1035000
0"
#1040000
1%
1+
b1101001 ?
b110 =
1"
#1045000
0"
#1050000
0%
1$
0+
1)
b100 =
b1101010 ?
1"
#1055000
0"
#1060000
1%
1+
16
b1101011 ?
b1 =
1"
#1065000
0"
#1070000
b100100 7
0%
0$
0+
0)
06
b11 =
b1101100 ?
1"
#1075000
0"
#1080000
1%
1+
b1101101 ?
b110 =
1"
#1085000
0"
#1090000
0%
1$
0+
1)
b100 =
b1101110 ?
1"
#1095000
0"
#1100000
1%
1+
16
b1101111 ?
b1 =
1"
#1105000
0"
#1110000
b100011 7
0%
0$
0+
0)
06
b11 =
b1110000 ?
1"
#1115000
0"
#1120000
1%
1+
b1110001 ?
b110 =
1"
#1125000
0"
#1130000
0%
1$
0+
1)
b100 =
b1110010 ?
1"
#1135000
0"
#1140000
1%
1+
16
b1110011 ?
b1 =
1"
#1145000
0"
#1150000
b100010 7
0%
0$
0+
0)
06
b11 =
b1110100 ?
1"
#1155000
0"
#1160000
1%
1+
b1110101 ?
b110 =
1"
#1165000
0"
#1170000
0%
1$
0+
1)
b100 =
b1110110 ?
1"
#1175000
0"
#1180000
1%
1+
16
b1110111 ?
b1 =
1"
#1185000
0"
#1190000
b100001 7
0%
0$
0+
0)
06
b11 =
b1111000 ?
1"
#1195000
0"
#1200000
1%
1+
b1111001 ?
b110 =
1"
#1205000
0"
#1210000
0%
1$
0+
1)
b100 =
b1111010 ?
1"
#1215000
0"
#1220000
1%
1+
16
b1111011 ?
b1 =
1"
#1225000
0"
#1230000
b100000 7
0%
0$
0+
0)
06
b11 =
b1111100 ?
1"
#1235000
0"
#1240000
1%
1+
b1111101 ?
b110 =
1"
#1245000
0"
#1250000
0%
1$
0+
1)
b100 =
b1111110 ?
1"
#1255000
0"
#1260000
1%
1+
16
b1111111 ?
b1 =
1"
#1265000
0"
#1270000
b111111 7
0%
1&
0$
0+
1,
0)
06
b11 =
b10000000 ?
1"
#1275000
0"
#1280000
1%
1+
b10000001 ?
1D
b0 (
b0 0
b0 4
b10 C
b1 E
b110 =
1"
#1285000
0"
#1290000
0%
1$
0+
1)
b100 =
b11 E
b0 C
b10000010 ?
1"
#1295000
0"
#1300000
1%
1+
16
b10000011 ?
b1 :
b1 =
1"
#1305000
0"
#1310000
b111110 7
0%
0$
0+
0)
06
b11 :
b11 =
b10000100 ?
1"
#1315000
0"
#1320000
1%
1+
b10000101 ?
b111 :
b110 =
b1 '
b1 1
b1 5
b1 >
1"
#1325000
0"
#1330000
0%
1$
0+
1)
b100 =
b10000110 ?
1"
#1335000
0"
#1340000
1%
1+
16
b10000111 ?
b1 =
1"
#1345000
0"
#1350000
b111101 7
0%
0$
0+
0)
06
b11 =
b10001000 ?
1"
#1355000
0"
#1360000
1%
1+
b10001001 ?
b110 =
1"
#1365000
0"
#1370000
0%
1$
0+
1)
b100 =
b10001010 ?
1"
#1375000
0"
#1380000
1%
1+
16
b10001011 ?
b1 =
1"
#1385000
0"
#1390000
b111100 7
0%
0$
0+
0)
06
b11 =
b10001100 ?
1"
#1395000
0"
#1400000
1%
1+
b10001101 ?
b110 =
1"
#1405000
0"
#1410000
0%
1$
0+
1)
b100 =
b10001110 ?
1"
#1415000
0"
#1420000
1%
1+
16
b10001111 ?
b1 =
1"
#1425000
0"
#1430000
b111011 7
0%
0$
0+
0)
06
b11 =
b10010000 ?
1"
#1435000
0"
#1440000
1%
1+
b10010001 ?
b110 =
1"
#1445000
0"
#1450000
0%
1$
0+
1)
b100 =
b10010010 ?
1"
#1455000
0"
#1460000
1%
1+
16
b10010011 ?
b1 =
1"
#1465000
0"
#1470000
b111010 7
0%
0$
0+
0)
06
b11 =
b10010100 ?
1"
#1475000
0"
#1480000
1%
1+
b10010101 ?
b110 =
1"
#1485000
0"
#1490000
0%
1$
0+
1)
b100 =
b10010110 ?
1"
#1495000
0"
#1500000
1%
1+
16
b10010111 ?
b1 =
1"
#1505000
0"
#1510000
b111001 7
0%
0$
0+
0)
06
b11 =
b10011000 ?
1"
#1515000
0"
#1520000
1%
1+
b10011001 ?
b110 =
1"
#1525000
0"
#1530000
0%
1$
0+
1)
b100 =
b10011010 ?
1"
#1535000
0"
#1540000
1%
1+
16
b10011011 ?
b1 =
1"
#1545000
0"
#1550000
b111000 7
0%
0$
0+
0)
06
b11 =
b10011100 ?
1"
#1555000
0"
#1560000
1%
1+
b10011101 ?
b110 =
1"
#1565000
0"
#1570000
0%
1$
0+
1)
b100 =
b10011110 ?
1"
#1575000
0"
#1580000
1%
1+
16
b10011111 ?
b1 =
1"
#1585000
0"
#1590000
b110111 7
0%
0$
0+
0)
06
b11 =
b10100000 ?
1"
#1595000
0"
#1600000
1%
1+
b10100001 ?
b110 =
1"
#1605000
0"
#1610000
0%
1$
0+
1)
b100 =
b10100010 ?
1"
#1615000
0"
#1620000
1%
1+
16
b10100011 ?
b1 =
1"
#1625000
0"
#1630000
b110110 7
0%
0$
0+
0)
06
b11 =
b10100100 ?
1"
#1635000
0"
#1640000
1%
1+
b10100101 ?
b110 =
1"
#1645000
0"
#1650000
0%
1$
0+
1)
b100 =
b10100110 ?
1"
#1655000
0"
#1660000
1%
1+
16
b10100111 ?
b1 =
1"
#1665000
0"
#1670000
b110101 7
0%
0$
0+
0)
06
b11 =
b10101000 ?
1"
#1675000
0"
#1680000
1%
1+
b10101001 ?
b110 =
1"
#1685000
0"
#1690000
0%
1$
0+
1)
b100 =
b10101010 ?
1"
#1695000
0"
#1700000
1%
1+
16
b10101011 ?
b1 =
1"
#1705000
0"
#1710000
b110100 7
0%
0$
0+
0)
06
b11 =
b10101100 ?
1"
#1715000
0"
#1720000
1%
1+
b10101101 ?
b110 =
1"
#1725000
0"
#1730000
0%
1$
0+
1)
b100 =
b10101110 ?
1"
#1735000
0"
#1740000
1%
1+
16
b10101111 ?
b1 =
1"
#1745000
0"
#1750000
b110011 7
0%
0$
0+
0)
06
b11 =
b10110000 ?
1"
#1755000
0"
#1760000
1%
1+
b10110001 ?
b110 =
1"
#1765000
0"
#1770000
0%
1$
0+
1)
b100 =
b10110010 ?
1"
#1775000
0"
#1780000
1%
1+
16
b10110011 ?
b1 =
1"
#1785000
0"
#1790000
b110010 7
0%
0$
0+
0)
06
b11 =
b10110100 ?
1"
#1795000
0"
#1800000
1%
1+
b10110101 ?
b110 =
1"
#1805000
0"
#1810000
0%
1$
0+
1)
b100 =
b10110110 ?
1"
#1815000
0"
#1820000
1%
1+
16
b10110111 ?
b1 =
1"
#1825000
0"
#1830000
b110001 7
0%
0$
0+
0)
06
b11 =
b10111000 ?
1"
#1835000
0"
#1840000
1%
1+
b10111001 ?
b110 =
1"
#1845000
0"
#1850000
0%
1$
0+
1)
b100 =
b10111010 ?
1"
#1855000
0"
#1860000
1%
1+
16
b10111011 ?
b1 =
1"
#1865000
0"
#1870000
b110000 7
0%
0$
0+
0)
06
b11 =
b10111100 ?
1"
#1875000
0"
#1880000
1%
1+
b10111101 ?
b110 =
1"
#1885000
0"
#1890000
0%
1$
0+
1)
b100 =
b10111110 ?
1"
#1895000
0"
#1900000
1%
1+
16
b10111111 ?
b1 =
1"
#1905000
0"
#1910000
b101111 7
0%
0$
0+
0)
06
b11 =
b11000000 ?
1"
#1915000
0"
#1920000
1%
1+
b11000001 ?
b110 =
1"
#1925000
0"
#1930000
0%
1$
0+
1)
b100 =
b11000010 ?
1"
#1935000
0"
#1940000
1%
1+
16
b11000011 ?
b1 =
1"
#1945000
0"
#1950000
b101110 7
0%
0$
0+
0)
06
b11 =
b11000100 ?
1"
#1955000
0"
#1960000
1%
1+
b11000101 ?
b110 =
1"
#1965000
0"
#1970000
0%
1$
0+
1)
b100 =
b11000110 ?
1"
#1975000
0"
#1980000
1%
1+
16
b11000111 ?
b1 =
1"
#1985000
0"
#1990000
b101101 7
0%
0$
0+
0)
06
b11 =
b11001000 ?
1"
#1995000
0"
#2000000
1%
1+
b11001001 ?
b110 =
1"
#2005000
0"
#2010000
0%
1$
0+
1)
b100 =
b11001010 ?
1"
#2015000
0"
#2020000
1%
1+
16
b11001011 ?
b1 =
1"
#2025000
0"
#2030000
b101100 7
0%
0$
0+
0)
06
b11 =
b11001100 ?
1"
#2035000
0"
#2040000
1%
1+
b11001101 ?
b110 =
1"
#2045000
0"
#2050000
0%
1$
0+
1)
b100 =
b11001110 ?
1"
#2055000
0"
#2060000
1%
1+
16
b11001111 ?
b1 =
1"
#2065000
0"
#2070000
b101011 7
0%
0$
0+
0)
06
b11 =
b11010000 ?
1"
#2075000
0"
#2080000
1%
1+
b11010001 ?
b110 =
1"
#2085000
0"
#2090000
0%
1$
0+
1)
b100 =
b11010010 ?
1"
#2095000
0"
#2100000
1%
1+
16
b11010011 ?
b1 =
1"
#2105000
0"
#2110000
b101010 7
0%
0$
0+
0)
06
b11 =
b11010100 ?
1"
#2115000
0"
#2120000
1%
1+
b11010101 ?
b110 =
1"
#2125000
0"
#2130000
0%
1$
0+
1)
b100 =
b11010110 ?
1"
#2135000
0"
#2140000
1%
1+
16
b11010111 ?
b1 =
1"
#2145000
0"
#2150000
b101001 7
0%
0$
0+
0)
06
b11 =
b11011000 ?
1"
#2155000
0"
#2160000
1%
1+
b11011001 ?
b110 =
1"
#2165000
0"
#2170000
0%
1$
0+
1)
b100 =
b11011010 ?
1"
#2175000
0"
#2180000
1%
1+
16
b11011011 ?
b1 =
1"
#2185000
0"
#2190000
b101000 7
0%
0$
0+
0)
06
b11 =
b11011100 ?
1"
#2195000
0"
#2200000
1%
1+
b11011101 ?
b110 =
1"
#2205000
0"
#2210000
0%
1$
0+
1)
b100 =
b11011110 ?
1"
#2215000
0"
#2220000
1%
1+
16
b11011111 ?
b1 =
1"
#2225000
0"
#2230000
b100111 7
0%
0$
0+
0)
06
b11 =
b11100000 ?
1"
#2235000
0"
#2240000
1%
1+
b11100001 ?
b110 =
1"
#2245000
0"
#2250000
0%
1$
0+
1)
b100 =
b11100010 ?
1"
#2255000
0"
#2260000
1%
1+
16
b11100011 ?
b1 =
1"
#2265000
0"
#2270000
b100110 7
0%
0$
0+
0)
06
b11 =
b11100100 ?
1"
#2275000
0"
#2280000
1%
1+
b11100101 ?
b110 =
1"
#2285000
0"
#2290000
0%
1$
0+
1)
b100 =
b11100110 ?
1"
#2295000
0"
#2300000
1%
1+
16
b11100111 ?
b1 =
1"
#2305000
0"
#2310000
b100101 7
0%
0$
0+
0)
06
b11 =
b11101000 ?
1"
#2315000
0"
#2320000
1%
1+
b11101001 ?
b110 =
1"
#2325000
0"
#2330000
0%
1$
0+
1)
b100 =
b11101010 ?
1"
#2335000
0"
#2340000
1%
1+
16
b11101011 ?
b1 =
1"
#2345000
0"
#2350000
b100100 7
0%
0$
0+
0)
06
b11 =
b11101100 ?
1"
#2355000
0"
#2360000
1%
1+
b11101101 ?
b110 =
1"
#2365000
0"
#2370000
0%
1$
0+
1)
b100 =
b11101110 ?
1"
#2375000
0"
#2380000
1%
1+
16
b11101111 ?
b1 =
1"
#2385000
0"
#2390000
b100011 7
0%
0$
0+
0)
06
b11 =
b11110000 ?
1"
#2395000
0"
#2400000
1%
1+
b11110001 ?
b110 =
1"
#2405000
0"
#2410000
0%
1$
0+
1)
b100 =
b11110010 ?
1"
#2415000
0"
#2420000
1%
1+
16
b11110011 ?
b1 =
1"
#2425000
0"
#2430000
b100010 7
0%
0$
0+
0)
06
b11 =
b11110100 ?
1"
#2435000
0"
#2440000
1%
1+
b11110101 ?
b110 =
1"
#2445000
0"
#2450000
0%
1$
0+
1)
b100 =
b11110110 ?
1"
#2455000
0"
#2460000
1%
1+
16
b11110111 ?
b1 =
1"
#2465000
0"
#2470000
b100001 7
0%
0$
0+
0)
06
b11 =
b11111000 ?
1"
#2475000
0"
#2480000
1%
1+
b11111001 ?
b110 =
1"
#2485000
0"
#2490000
0%
1$
0+
1)
b100 =
b11111010 ?
1"
#2495000
0"
#2500000
1%
1+
16
b11111011 ?
b1 =
1"
#2505000
0"
#2510000
b100000 7
0%
0$
0+
0)
06
b11 =
b11111100 ?
1"
#2515000
0"
#2520000
1%
1+
b11111101 ?
b110 =
1"
#2525000
0"
#2530000
0%
1$
0+
1)
b100 =
b11111110 ?
1"
#2535000
0"
#2540000
1%
1+
16
b11111111 ?
b1 =
1"
#2545000
0"
#2550000
1!
b111111 7
0%
0&
0$
0+
0,
0)
06
b11 =
b100000000 ?
1"
#2555000
0"
#2560000
1%
1+
b100000001 ?
0D
b0 (
b0 0
b0 4
b1 C
b10 E
b110 =
b1 F
1"
#2565000
0"
#2570000
0%
1$
0+
1)
b100 =
b11 F
b0 E
b0 C
b100000010 ?
1"
#2575000
0"
#2580000
1%
1+
16
b100000011 ?
b110 :
b1 =
b111 F
1"
#2585000
0"
#2590000
0!
b111110 7
0%
0$
0+
0)
06
b100 :
b11 =
b100000100 ?
1"
#2595000
0"
#2600000
1%
1+
b100000101 ?
b0 :
b110 =
b110 F
b1 ;
b11 '
b11 1
b11 5
b11 >
1"
#2605000
0"
#2610000
0%
1$
0+
1)
b100 =
b100 F
b100000110 ?
1"
#2615000
0"
#2620000
1%
1+
16
b100000111 ?
b1 =
b0 F
1"
#2625000
0"
#2630000
b111101 7
0%
0$
0+
0)
06
b11 =
b100001000 ?
1"
#2635000
0"
#2640000
1%
1+
b100001001 ?
b110 =
1"
#2645000
0"
#2650000
0%
1$
0+
1)
b100 =
b100001010 ?
1"
#2655000
0"
#2660000
1%
1+
16
b100001011 ?
b1 =
1"
#2665000
0"
#2670000
b111100 7
0%
0$
0+
0)
06
b11 =
b100001100 ?
1"
#2675000
0"
#2680000
1%
1+
b100001101 ?
b110 =
1"
#2685000
0"
#2690000
0%
1$
0+
1)
b100 =
b100001110 ?
1"
#2695000
0"
#2700000
1%
1+
16
b100001111 ?
b1 =
1"
#2705000
0"
#2710000
b111011 7
0%
0$
0+
0)
06
b11 =
b100010000 ?
1"
#2715000
0"
#2720000
1%
1+
b100010001 ?
b110 =
1"
#2725000
0"
#2730000
0%
1$
0+
1)
b100 =
b100010010 ?
1"
#2735000
0"
#2740000
1%
1+
16
b100010011 ?
b1 =
1"
#2745000
0"
#2750000
b111010 7
0%
0$
0+
0)
06
b11 =
b100010100 ?
1"
#2755000
0"
#2760000
1%
1+
b100010101 ?
b110 =
1"
#2765000
0"
#2770000
0%
1$
0+
1)
b100 =
b100010110 ?
1"
#2775000
0"
#2780000
1%
1+
16
b100010111 ?
b1 =
1"
#2785000
0"
#2790000
b111001 7
0%
0$
0+
0)
06
b11 =
b100011000 ?
1"
#2795000
0"
#2800000
1%
1+
b100011001 ?
b110 =
1"
#2805000
0"
#2810000
0%
1$
0+
1)
b100 =
b100011010 ?
1"
#2815000
0"
#2820000
1%
1+
16
b100011011 ?
b1 =
1"
#2825000
0"
#2830000
b111000 7
0%
0$
0+
0)
06
b11 =
b100011100 ?
1"
#2835000
0"
#2840000
1%
1+
b100011101 ?
b110 =
1"
#2845000
0"
#2850000
0%
1$
0+
1)
b100 =
b100011110 ?
1"
#2855000
0"
#2860000
1%
1+
16
b100011111 ?
b1 =
1"
#2865000
0"
#2870000
b110111 7
0%
0$
0+
0)
06
b11 =
b100100000 ?
1"
#2875000
0"
#2880000
1%
1+
b100100001 ?
b110 =
1"
#2885000
0"
#2890000
0%
1$
0+
1)
b100 =
b100100010 ?
1"
#2895000
0"
#2900000
1%
1+
16
b100100011 ?
b1 =
1"
#2905000
0"
#2910000
b110110 7
0%
0$
0+
0)
06
b11 =
b100100100 ?
1"
#2915000
0"
#2920000
1%
1+
b100100101 ?
b110 =
1"
#2925000
0"
#2930000
0%
1$
0+
1)
b100 =
b100100110 ?
1"
#2935000
0"
#2940000
1%
1+
16
b100100111 ?
b1 =
1"
#2945000
0"
#2950000
b110101 7
0%
0$
0+
0)
06
b11 =
b100101000 ?
1"
#2955000
0"
#2960000
1%
1+
b100101001 ?
b110 =
1"
#2965000
0"
#2970000
0%
1$
0+
1)
b100 =
b100101010 ?
1"
#2975000
0"
#2980000
1%
1+
16
b100101011 ?
b1 =
1"
#2985000
0"
#2990000
b110100 7
0%
0$
0+
0)
06
b11 =
b100101100 ?
1"
#2995000
0"
#3000000
1%
1+
b100101101 ?
b110 =
1"
#3005000
0"
#3010000
0%
1$
0+
1)
b100 =
b100101110 ?
1"
#3015000
0"
#3020000
1%
1+
16
b100101111 ?
b1 =
1"
#3025000
0"
#3030000
b110011 7
0%
0$
0+
0)
06
b11 =
b100110000 ?
1"
#3035000
0"
#3040000
1%
1+
b100110001 ?
b110 =
1"
#3045000
0"
#3050000
0%
1$
0+
1)
b100 =
b100110010 ?
1"
#3055000
0"
#3060000
1%
1+
16
b100110011 ?
b1 =
1"
#3065000
0"
#3070000
b110010 7
0%
0$
0+
0)
06
b11 =
b100110100 ?
1"
#3075000
0"
#3080000
1%
1+
b100110101 ?
b110 =
1"
#3085000
0"
#3090000
0%
1$
0+
1)
b100 =
b100110110 ?
1"
#3095000
0"
#3100000
1%
1+
16
b100110111 ?
b1 =
1"
#3105000
0"
#3110000
b110001 7
0%
0$
0+
0)
06
b11 =
b100111000 ?
1"
#3115000
0"
#3120000
1%
1+
b100111001 ?
b110 =
1"
#3125000
0"
#3130000
0%
1$
0+
1)
b100 =
b100111010 ?
1"
#3135000
0"
#3140000
1%
1+
16
b100111011 ?
b1 =
1"
#3145000
0"
#3150000
b110000 7
0%
0$
0+
0)
06
b11 =
b100111100 ?
1"
#3155000
0"
#3160000
1%
1+
b100111101 ?
b110 =
1"
#3165000
0"
#3170000
0%
1$
0+
1)
b100 =
b100111110 ?
1"
#3175000
0"
#3180000
1%
1+
16
b100111111 ?
b1 =
1"
#3185000
0"
#3190000
b101111 7
0%
0$
0+
0)
06
b11 =
b101000000 ?
1"
#3195000
0"
#3200000
1%
1+
b101000001 ?
b110 =
1"
#3205000
0"
#3210000
0%
1$
0+
1)
b100 =
b101000010 ?
1"
#3215000
0"
#3220000
1%
1+
16
b101000011 ?
b1 =
1"
#3225000
0"
#3230000
b101110 7
0%
0$
0+
0)
06
b11 =
b101000100 ?
1"
#3235000
0"
#3240000
1%
1+
b101000101 ?
b110 =
1"
#3245000
0"
#3250000
0%
1$
0+
1)
b100 =
b101000110 ?
1"
#3255000
0"
#3260000
1%
1+
16
b101000111 ?
b1 =
1"
#3265000
0"
#3270000
b101101 7
0%
0$
0+
0)
06
b11 =
b101001000 ?
1"
#3275000
0"
#3280000
1%
1+
b101001001 ?
b110 =
1"
#3285000
0"
#3290000
0%
1$
0+
1)
b100 =
b101001010 ?
1"
#3295000
0"
#3300000
1%
1+
16
b101001011 ?
b1 =
1"
#3305000
0"
#3310000
b101100 7
0%
0$
0+
0)
06
b11 =
b101001100 ?
1"
#3315000
0"
#3320000
1%
1+
b101001101 ?
b110 =
1"
#3325000
0"
#3330000
0%
1$
0+
1)
b100 =
b101001110 ?
1"
#3335000
0"
#3340000
1%
1+
16
b101001111 ?
b1 =
1"
#3345000
0"
#3350000
b101011 7
0%
0$
0+
0)
06
b11 =
b101010000 ?
1"
#3355000
0"
#3360000
1%
1+
b101010001 ?
b110 =
1"
#3365000
0"
#3370000
0%
1$
0+
1)
b100 =
b101010010 ?
1"
#3375000
0"
#3380000
1%
1+
16
b101010011 ?
b1 =
1"
#3385000
0"
#3390000
b101010 7
0%
0$
0+
0)
06
b11 =
b101010100 ?
1"
#3395000
0"
#3400000
1%
1+
b101010101 ?
b110 =
1"
