work_in_progress/nn/neuron/stable/Weights_mem/sim.vcd
$date
	Fri Nov  6 04:52:07 2020
$end
$version
	Icarus Verilog
$end
$timescale
	1ps
$end
$scope module Weight_mem $end
$var wire 1 ! clk $end
$var wire 8 " radd [7:0] $end
$var wire 1 # ren $end
$var wire 8 $ wadd [7:0] $end
$var wire 1 % wen $end
$var wire 16 & win [15:0] $end
$var reg 16 ' wout [15:0] $end
$upscope $end
$enddefinitions $end
#0
$dumpvars
bx '
b0 &
1%
b0 $
z#
bz "
1!
$end
#5000
b1 $
b1 &
0!
#10000
1!
#15000
b10 $
b10 &
0!
#20000
1!
#25000
b11 $
b11 &
0!
#30000
1!
#35000
b100 $
b100 &
0!
#40000
1!
#45000
b101 $
b101 &
0!
#50000
1!
#55000
b110 $
b110 &
0!
#60000
1!
#65000
b111 $
b111 &
0!
#70000
1!
#75000
b1000 $
b1000 &
0!
#80000
1!
#85000
b1001 $
b1001 &
0!
#90000
1!
#95000
b1010 $
b1010 &
0!
#100000
1!
#105000
b1011 $
b1011 &
0!
#110000
1!
#115000
b1100 $
b1100 &
0!
#120000
1!
#125000
b1101 $
b1101 &
0!
#130000
1!
#135000
b1110 $
b1110 &
0!
#140000
1!
#145000
b1111 $
b1111 &
0!
#150000
1!
#155000
b10000 $
b10000 &
0!
#160000
1!
#165000
b10001 $
b10001 &
0!
#170000
1!
#175000
b10010 $
b10010 &
0!
#180000
1!
#185000
b10011 $
b10011 &
0!
#190000
1!
#195000
b10100 $
b10100 &
0!
#200000
1!
#205000
b10101 $
b10101 &
0!
#210000
1!
#215000
b10110 $
b10110 &
0!
#220000
1!
#225000
b10111 $
b10111 &
0!
#230000
1!
#235000
b11000 $
b11000 &
0!
#240000
1!
#245000
b11001 $
b11001 &
0!
#250000
1!
#255000
b11010 $
b11010 &
0!
#260000
1!
#265000
b11011 $
b11011 &
0!
#270000
1!
#275000
b11100 $
b11100 &
0!
#280000
1!
#285000
b11101 $
b11101 &
0!
#290000
1!
#295000
b11110 $
b11110 &
0!
#300000
1!
#305000
b11111 $
b11111 &
0!
#310000
1!
#315000
b100000 $
b100000 &
0!
#320000
1!
#325000
b100001 $
b100001 &
0!
#330000
1!
#335000
b100010 $
b100010 &
0!
#340000
1!
#345000
b100011 $
b100011 &
0!
#350000
1!
#355000
b100100 $
b100100 &
0!
#360000
1!
#365000
b100101 $
b100101 &
0!
#370000
1!
#375000
b100110 $
b100110 &
0!
#380000
1!
#385000
b100111 $
b100111 &
0!
#390000
1!
#395000
b101000 $
b101000 &
0!
#400000
1!
#405000
b101001 $
b101001 &
0!
#410000
1!
#415000
b101010 $
b101010 &
0!
#420000
1!
#425000
b101011 $
b101011 &
0!
#430000
1!
#435000
b101100 $
b101100 &
0!
#440000
1!
#445000
b101101 $
b101101 &
0!
#450000
1!
#455000
b101110 $
b101110 &
0!
#460000
1!
#465000
b101111 $
b101111 &
0!
#470000
1!
#475000
b110000 $
b110000 &
0!
#480000
1!
#485000
b110001 $
b110001 &
0!
#490000
1!
#495000
b110010 $
b110010 &
0!
#500000
1!
#505000
b110011 $
b110011 &
0!
#510000
1!
#515000
b110100 $
b110100 &
0!
#520000
1!
#525000
b110101 $
b110101 &
0!
#530000
1!
#535000
b110110 $
b110110 &
0!
#540000
1!
#545000
b110111 $
b110111 &
0!
#550000
1!
#555000
b111000 $
b111000 &
0!
#560000
1!
#565000
b111001 $
b111001 &
0!
#570000
1!
#575000
b111010 $
b111010 &
0!
#580000
1!
#585000
b111011 $
b111011 &
0!
#590000
1!
#595000
b111100 $
b111100 &
0!
#600000
1!
#605000
b111101 $
b111101 &
0!
#610000
1!
#615000
b111110 $
b111110 &
0!
#620000
1!
#625000
b111111 $
b111111 &
0!
#630000
1!
#635000
b1000000 $
b1000000 &
0!
#640000
1!
#645000
b1000001 $
b1000001 &
0!
#650000
1!
#655000
b1000010 $
b1000010 &
0!
#660000
1!
#665000
b1000011 $
b1000011 &
0!
#670000
1!
#675000
b1000100 $
b1000100 &
0!
#680000
1!
#685000
b1000101 $
b1000101 &
0!
#690000
1!
#695000
b1000110 $
b1000110 &
0!
#700000
1!
#705000
b1000111 $
b1000111 &
0!
#710000
1!
#715000
b1001000 $
b1001000 &
0!
#720000
1!
#725000
b1001001 $
b1001001 &
0!
#730000
1!
#735000
b1001010 $
b1001010 &
0!
#740000
1!
#745000
b1001011 $
b1001011 &
0!
#750000
1!
#755000
b1001100 $
b1001100 &
0!
#760000
1!
#765000
b1001101 $
b1001101 &
0!
#770000
1!
#775000
b1001110 $
b1001110 &
0!
#780000
1!
#785000
b1001111 $
b1001111 &
0!
#790000
1!
#795000
b1010000 $
b1010000 &
0!
#800000
1!
#805000
b1010001 $
b1010001 &
0!
#810000
1!
#815000
b1010010 $
b1010010 &
0!
#820000
1!
#825000
b1010011 $
b1010011 &
0!
#830000
1!
#835000
b1010100 $
b1010100 &
0!
#840000
1!
#845000
b1010101 $
b1010101 &
0!
#850000
1!
#855000
b1010110 $
b1010110 &
0!
#860000
1!
#865000
b1010111 $
b1010111 &
0!
#870000
1!
#875000
b1011000 $
b1011000 &
0!
#880000
1!
#885000
b1011001 $
b1011001 &
0!
#890000
1!
#895000
b1011010 $
b1011010 &
0!
#900000
1!
#905000
b1011011 $
b1011011 &
0!
#910000
1!
#915000
b1011100 $
b1011100 &
0!
#920000
1!
#925000
b1011101 $
b1011101 &
0!
#930000
1!
#935000
b1011110 $
b1011110 &
0!
#940000
1!
#945000
b1011111 $
b1011111 &
0!
#950000
1!
#955000
b1100000 $
b1100000 &
0!
#960000
1!
#965000
b1100001 $
b1100001 &
0!
#970000
1!
#975000
b1100010 $
b1100010 &
0!
#980000
1!
#985000
b1100011 $
b1100011 &
0!
#990000
1!
#995000
b1100100 $
b1100100 &
0!
#1000000
1!
#1005000
b1100101 $
b1100101 &
0!
#1010000
1!
#1015000
b1100110 $
b1100110 &
0!
#1020000
1!
#1025000
b1100111 $
b1100111 &
0!
#1030000
1!
#1035000
b1101000 $
b1101000 &
0!
#1040000
1!
#1045000
b1101001 $
b1101001 &
0!
#1050000
1!
#1055000
b1101010 $
b1101010 &
0!
#1060000
1!
#1065000
b1101011 $
b1101011 &
0!
#1070000
1!
#1075000
b1101100 $
b1101100 &
0!
#1080000
1!
#1085000
b1101101 $
b1101101 &
0!
#1090000
1!
#1095000
b1101110 $
b1101110 &
0!
#1100000
1!
#1105000
b1101111 $
b1101111 &
0!
#1110000
1!
#1115000
b1110000 $
b1110000 &
0!
#1120000
1!
#1125000
b1110001 $
b1110001 &
0!
#1130000
1!
#1135000
b1110010 $
b1110010 &
0!
#1140000
1!
#1145000
b1110011 $
b1110011 &
0!
#1150000
1!
#1155000
b1110100 $
b1110100 &
0!
#1160000
1!
#1165000
b1110101 $
b1110101 &
0!
#1170000
1!
#1175000
b1110110 $
b1110110 &
0!
#1180000
1!
#1185000
b1110111 $
b1110111 &
0!
#1190000
1!
#1195000
b1111000 $
b1111000 &
0!
#1200000
1!
#1205000
b1111001 $
b1111001 &
0!
#1210000
1!
#1215000
b1111010 $
b1111010 &
0!
#1220000
1!
#1225000
b1111011 $
b1111011 &
0!
#1230000
1!
#1235000
b1111100 $
b1111100 &
0!
#1240000
1!
#1245000
b1111101 $
b1111101 &
0!
#1250000
1!
#1255000
b1111110 $
b1111110 &
0!
#1260000
1!
#1265000
b1111111 $
b1111111 &
0!
#1270000
1!
#1275000
0%
b0 "
1#
0!
#1280000
b1 "
b0 '
1!
#1285000
0!
#1290000
b10 "
b1 '
1!
#1295000
0!
#1300000
b11 "
b10 '
1!
#1305000
0!
#1310000
b100 "
b11 '
1!
#1315000
0!
#1320000
b101 "
b100 '
1!
#1325000
0!
#1330000
b110 "
b101 '
1!
#1335000
0!
#1340000
b111 "
b110 '
1!
#1345000
0!
#1350000
b1000 "
b111 '
1!
#1355000
0!
#1360000
b1001 "
b1000 '
1!
#1365000
0!
#1370000
b1010 "
b1001 '
1!
#1375000
0!
#1380000
b1011 "
b1010 '
1!
#1385000
0!
#1390000
b1100 "
b1011 '
1!
#1395000
0!
#1400000
b1101 "
b1100 '
1!
#1405000
0!
#1410000
b1110 "
b1101 '
1!
#1415000
0!
#1420000
b1111 "
b1110 '
1!
#1425000
0!
#1430000
b10000 "
b1111 '
1!
#1435000
0!
#1440000
b10001 "
b10000 '
1!
#1445000
0!
#1450000
b10010 "
b10001 '
1!
#1455000
0!
#1460000
b10011 "
b10010 '
1!
#1465000
0!
#1470000
b10100 "
b10011 '
1!
#1475000
0!
#1480000
b10101 "
b10100 '
1!
#1485000
0!
#1490000
b10110 "
b10101 '
1!
#1495000
0!
#1500000
b10111 "
b10110 '
1!
#1505000
0!
#1510000
b11000 "
b10111 '
1!
#1515000
0!
#1520000
b11001 "
b11000 '
1!
#1525000
0!
#1530000
b11010 "
b11001 '
1!
#1535000
0!
#1540000
b11011 "
b11010 '
1!
#1545000
0!
#1550000
b11100 "
b11011 '
1!
#1555000
0!
#1560000
b11101 "
b11100 '
1!
#1565000
0!
#1570000
b11110 "
b11101 '
1!
#1575000
0!
#1580000
b11111 "
b11110 '
1!
#1585000
0!
#1590000
b100000 "
b11111 '
1!
#1595000
0!
#1600000
b100001 "
b100000 '
1!
#1605000
0!
#1610000
b100010 "
b100001 '
1!
#1615000
0!
#1620000
b100011 "
b100010 '
1!
#1625000
0!
#1630000
b100100 "
b100011 '
1!
#1635000
0!
#1640000
b100101 "
b100100 '
1!
#1645000
0!
#1650000
b100110 "
b100101 '
1!
#1655000
0!
#1660000
b100111 "
b100110 '
1!
#1665000
0!
#1670000
b101000 "
b100111 '
1!
#1675000
0!
#1680000
b101001 "
b101000 '
1!
#1685000
0!
#1690000
b101010 "
b101001 '
1!
#1695000
0!
#1700000
b101011 "
b101010 '
1!
#1705000
0!
#1710000
b101100 "
b101011 '
1!
#1715000
0!
#1720000
b101101 "
b101100 '
1!
#1725000
0!
#1730000
b101110 "
b101101 '
1!
#1735000
0!
#1740000
b101111 "
b101110 '
1!
#1745000
0!
#1750000
b110000 "
b101111 '
1!
#1755000
0!
#1760000
b110001 "
b110000 '
1!
#1765000
0!
#1770000
b110010 "
b110001 '
1!
#1775000
0!
#1780000
b110011 "
b110010 '
1!
#1785000
0!
#1790000
b110100 "
b110011 '
1!
#1795000
0!
#1800000
b110101 "
b110100 '
1!
#1805000
0!
#1810000
b110110 "
b110101 '
1!
#1815000
0!
#1820000
b110111 "
b110110 '
1!
#1825000
0!
#1830000
b111000 "
b110111 '
1!
#1835000
0!
#1840000
b111001 "
b111000 '
1!
#1845000
0!
#1850000
b111010 "
b111001 '
1!
#1855000
0!
#1860000
b111011 "
b111010 '
1!
#1865000
0!
#1870000
b111100 "
b111011 '
1!
#1875000
0!
#1880000
b111101 "
b111100 '
1!
#1885000
0!
#1890000
b111110 "
b111101 '
1!
#1895000
0!
#1900000
b111111 "
b111110 '
1!
#1905000
0!
#1910000
b1000000 "
b111111 '
1!
#1915000
0!
#1920000
b1000001 "
b1000000 '
1!
#1925000
0!
#1930000
b1000010 "
b1000001 '
1!
#1935000
0!
#1940000
b1000011 "
b1000010 '
1!
#1945000
0!
#1950000
b1000100 "
b1000011 '
1!
#1955000
0!
#1960000
b1000101 "
b1000100 '
1!
#1965000
0!
#1970000
b1000110 "
b1000101 '
1!
#1975000
0!
#1980000
b1000111 "
b1000110 '
1!
#1985000
0!
#1990000
b1001000 "
b1000111 '
1!
#1995000
0!
#2000000
b1001001 "
b1001000 '
1!
#2005000
0!
#2010000
b1001010 "
b1001001 '
1!
#2015000
0!
#2020000
b1001011 "
b1001010 '
1!
#2025000
0!
#2030000
b1001100 "
b1001011 '
1!
#2035000
0!
#2040000
b1001101 "
b1001100 '
1!
#2045000
0!
#2050000
b1001110 "
b1001101 '
1!
#2055000
0!
#2060000
b1001111 "
b1001110 '
1!
#2065000
0!
#2070000
b1010000 "
b1001111 '
1!
#2075000
0!
#2080000
b1010001 "
b1010000 '
1!
#2085000
0!
#2090000
b1010010 "
b1010001 '
1!
#2095000
0!
#2100000
b1010011 "
b1010010 '
1!
#2105000
0!
#2110000
b1010100 "
b1010011 '
1!
#2115000
0!
#2120000
b1010101 "
b1010100 '
1!
#2125000
0!
#2130000
b1010110 "
b1010101 '
1!
#2135000
0!
#2140000
b1010111 "
b1010110 '
1!
#2145000
0!
#2150000
b1011000 "
b1010111 '
1!
#2155000
0!
#2160000
b1011001 "
b1011000 '
1!
#2165000
0!
#2170000
b1011010 "
b1011001 '
1!
#2175000
0!
#2180000
b1011011 "
b1011010 '
1!
#2185000
0!
#2190000
b1011100 "
b1011011 '
1!
#2195000
0!
#2200000
b1011101 "
b1011100 '
1!
#2205000
0!
#2210000
b1011110 "
b1011101 '
1!
#2215000
0!
#2220000
b1011111 "
b1011110 '
1!
#2225000
0!
#2230000
b1100000 "
b1011111 '
1!
#2235000
0!
#2240000
b1100001 "
b1100000 '
1!
#2245000
0!
#2250000
b1100010 "
b1100001 '
1!
#2255000
0!
#2260000
b1100011 "
b1100010 '
1!
#2265000
0!
#2270000
b1100100 "
b1100011 '
1!
#2275000
0!
#2280000
b1100101 "
b1100100 '
1!
#2285000
0!
#2290000
b1100110 "
b1100101 '
1!
#2295000
0!
#2300000
b1100111 "
b1100110 '
1!
#2305000
0!
#2310000
b1101000 "
b1100111 '
1!
#2315000
0!
#2320000
b1101001 "
b1101000 '
1!
#2325000
0!
#2330000
b1101010 "
b1101001 '
1!
#2335000
0!
#2340000
b1101011 "
b1101010 '
1!
#2345000
0!
#2350000
b1101100 "
b1101011 '
1!
#2355000
0!
#2360000
b1101101 "
b1101100 '
1!
#2365000
0!
#2370000
b1101110 "
b1101101 '
1!
#2375000
0!
#2380000
b1101111 "
b1101110 '
1!
#2385000
0!
#2390000
b1110000 "
b1101111 '
1!
#2395000
0!
#2400000
b1110001 "
b1110000 '
1!
#2405000
0!
#2410000
b1110010 "
b1110001 '
1!
#2415000
0!
#2420000
b1110011 "
b1110010 '
1!
#2425000
0!
#2430000
b1110100 "
b1110011 '
1!
#2435000
0!
#2440000
b1110101 "
b1110100 '
1!
#2445000
0!
#2450000
b1110110 "
b1110101 '
1!
#2455000
0!
#2460000
b1110111 "
b1110110 '
1!
#2465000
0!
#2470000
b1111000 "
b1110111 '
1!
#2475000
0!
#2480000
b1111001 "
b1111000 '
1!
#2485000
0!
#2490000
b1111010 "
b1111001 '
1!
#2495000
0!
#2500000
b1111011 "
b1111010 '
1!
#2505000
0!
#2510000
b1111100 "
b1111011 '
1!
#2515000
0!
#2520000
b1111101 "
b1111100 '
1!
#2525000
0!
#2530000
b1111110 "
b1111101 '
1!
#2535000
0!
#2540000
b1111111 "
b1111110 '
1!
#2545000
0!
#2550000
b1111111 '
1!
