dev/nn/neuron/dev/downsize/sim.vcd
$date
	Sun Nov 15 00:53:14 2020
$end
$version
	Icarus Verilog
$end
$timescale
	1ps
$end
$scope module downsize_tb $end
$var wire 1 ! clk $end
$var wire 128 " din [127:0] $end
$var wire 64 # dout [63:0] $end
$scope module donwsize_inst $end
$var wire 1 ! clk $end
$var wire 128 $ din [127:0] $end
$var wire 64 % dout [63:0] $end
$var reg 64 & r_dout [63:0] $end
$var integer 32 ' i [31:0] $end
$upscope $end
$upscope $end
$enddefinitions $end
#0
$dumpvars
b100 '
b100000000000011101101100000001000000110000000110010011 &
b100000000000011101101100000001000000110000000110010011 %
b1010110111001111111001010000000100111110001011011110111100000001000000010011000111001001000000000101111011100010100011111 $
b100000000000011101101100000001000000110000000110010011 #
b1010110111001111111001010000000100111110001011011110111100000001000000010011000111001001000000000101111011100010100011111 "
1!
$end
#5000
0!
#10000
b100101001000101011100000000000011100110100100100001010000000000001110000010100010100101000000001000001111011100010101001 "
b100101001000101011100000000000011100110100100100001010000000000001110000010100010100101000000001000001111011100010101001 $
b101011011000000100111110000000010000000100000000010111101 #
b101011011000000100111110000000010000000100000000010111101 %
b101011011000000100111110000000010000000100000000010111101 &
b100 '
1!
#15000
0!
#20000
b1100111110101010011001000000000010001010011010001001010000000000000000001101010000000100100000010010100100001000111010011 "
b1100111110101010011001000000000010001010011010001001010000000000000000001101010000000100100000010010100100001000111010011 $
b10010100000000011100110100000000011100000000000100000111 #
b10010100000000011100110100000000011100000000000100000111 %
b10010100000000011100110100000000011100000000000100000111 &
b100 '
1!
#25000
0!
#30000
b10010100101010111101001011000000001100100111100000000101000000000110001100001100101111001000000010100100011000000010111101 "
b10010100101010111101001011000000001100100111100000000101000000000110001100001100101111001000000010100100011000000010111101 $
b110011111000000010001010000000000000000010000001001010010 #
b110011111000000010001010000000000000000010000001001010010 %
b110011111000000010001010000000000000000010000001001010010 &
b100 '
1!
#35000
0!
#40000
b10001101111110011100101110000000000010101110111011000011100000000011000110000100010111101000000000110000010111110111110000 "
b10001101111110011100101110000000000010101110111011000011100000000011000110000100010111101000000000110000010111110111110000 $
b1001010010000000001100100100000001100011000000001010010001 #
b1001010010000000001100100100000001100011000000001010010001 %
b1001010010000000001100100100000001100011000000001010010001 &
b100 '
1!
#45000
0!
#50000
b10001010001011001010000111000000011010010011001011100001010000000001001010001111011011001100000000000000000101101011111000 "
b10001010001011001010000111000000011010010011001011100001010000000001001010001111011011001100000000000000000101101011111000 $
b1000110111000000000010101100000000110001100000000011000001 #
b1000110111000000000010101100000000110001100000000011000001 %
b1000110111000000000010101100000000110001100000000011000001 &
b100 '
1!
#55000
0!
#60000
b10011110010010001010111101000000000101111100010110101010000000000100011011010100000001011100000000111010001101011101000101 "
b10011110010010001010111101000000000101111100010110101010000000000100011011010100000001011100000000111010001101011101000101 $
b1000101000000000011010010000000000010010100000000000000000 #
b1000101000000000011010010000000000010010100000000000000000 %
b1000101000000000011010010000000000010010100000000000000000 &
b100 '
1!
#65000
0!
#70000
b10010010000111111011011110000000010010000000000101001110100000001000101100111010111100011000000001111000100110010101111100 "
b10010010000111111011011110000000010010000000000101001110100000001000101100111010111100011000000001111000100110010101111100 $
b1001111001000000000101111100000001000110110000000011101000 #
b1001111001000000000101111100000001000110110000000011101000 %
b1001111001000000000101111100000001000110110000000011101000 &
b100 '
1!
#75000
0!
#80000
b10100000001111011001110000000011001000011000101001010010000000001010111001100100011110000000000001101000001101001011000 "
b10100000001111011001110000000011001000011000101001010010000000001010111001100100011110000000000001101000001101001011000 $
b1001001000000000010010000000000010001011000000000111100010 #
b1001001000000000010010000000000010001011000000000111100010 %
b1001001000000000010010000000000010001011000000000111100010 &
b100 '
1!
#85000
0!
#90000
b10001011101001000111100111000000010011100000010001001011110000000001101100110111110101010000000001011100000011110101001001 "
b10001011101001000111100111000000010011100000010001001011110000000001101100110111110101010000000001011100000011110101001001 $
b1010000000000011001000000000000010101110000000000110100 #
b1010000000000011001000000000000010101110000000000110100 %
b1010000000000011001000000000000010101110000000000110100 &
b100 '
1!
#95000
0!
#100000
b1100010110111011001100100000000100000011111011110001110000000000110111000101110100110011100000001011101101100011101101000 "
b1100010110111011001100100000000100000011111011110001110000000000110111000101110100110011100000001011101101100011101101000 $
b1000101110000000010011100000000000011011000000000101110000 #
b1000101110000000010011100000000000011011000000000101110000 %
b1000101110000000010011100000000000011011000000000101110000 &
b100 '
1!
#105000
0!
#110000
b11101111100100000111011000000001010000110101100000100000000000101010100000100011001011100000001000010101001110011110100 "
b11101111100100000111011000000001010000110101100000100000000000101010100000100011001011100000001000010101001110011110100 $
b110001011000000100000011100000001101110000000000101110110 #
b110001011000000100000011100000001101110000000000101110110 %
b110001011000000100000011100000001101110000000000101110110 &
b100 '
1!
#115000
0!
#120000
b1010001001001110011110011000000101000001001000001110101100000001001011101111000000110110100000001010100111101111011001001 "
b1010001001001110011110011000000101000001001000001110101100000001001011101111000000110110100000001010100111101111011001001 $
b1110111000000001010000100000001010101000000000100001010 #
b1110111000000001010000100000001010101000000000100001010 %
b1110111000000001010000100000001010101000000000100001010 &
b100 '
1!
#125000
0!
#130000
b10001001111000001011101010000000100010110000111001101000000000000010011011110010101100000100000000001101010010000000010010 "
b10001001111000001011101010000000100010110000111001101000000000000010011011110010101100000100000000001101010010000000010010 $
b101000100000000101000001000000010010111010000000101010011 #
b101000100000000101000001000000010010111010000000101010011 %
b101000100000000101000001000000010010111010000000101010011 &
b100 '
1!
#135000
0!
#140000
b1001110001111111000100000000000100100111010101011111101110000000001100011000111110011111100000000100110110110011010011111 "
b1001110001111111000100000000000100100111010101011111101110000000001100011000111110011111100000000100110110110011010011111 $
b1000100111000000100010110000000000100110110000000000110101 #
b1000100111000000100010110000000000100110110000000000110101 %
b1000100111000000100010110000000000100110110000000000110101 &
b100 '
1!
#145000
0!
#150000
b10011010001101110000001101000000000101011010111011000011100000001001100111110100110111010000000000100111011100100010110001 "
b10011010001101110000001101000000000101011010111011000011100000001001100111110100110111010000000000100111011100100010110001 $
b100111000000000100100111000000000011000110000000010011011 #
b100111000000000100100111000000000011000110000000010011011 %
b100111000000000100100111000000000011000110000000010011011 &
b100 '
1!
#155000
0!
#160000
b1100111011111000101101111000000100111111101110111100010110000000010101011011100101010101000000001001011101001001001001011 "
b1100111011111000101101111000000100111111101110111100010110000000010101011011100101010101000000001001011101001001001001011 $
b1001101000000000000101011000000010011001110000000010011101 #
b1001101000000000000101011000000010011001110000000010011101 %
b1001101000000000000101011000000010011001110000000010011101 &
b100 '
1!
#165000
0!
#170000
b10100011011000100000101101000000001010000011011011011110000000000010000101100000111000101000000001110011100100110011001010 "
b10100011011000100000101101000000001010000011011011011110000000000010000101100000111000101000000001110011100100110011001010 $
b110011101000000100111111100000000101010110000000100101110 #
b110011101000000100111111100000000101010110000000100101110 %
b110011101000000100111111100000000101010110000000100101110 &
b100 '
1!
#175000
0!
#180000
b10001101111101100010011111000000010011000010100000111000110000000001000100000111101110001100000001101000101000110111001000 "
b10001101111101100010011111000000010011000010100000111000110000000001000100000111101110001100000001101000101000110111001000 $
b1010001101000000001010000000000000100001010000000111001110 #
b1010001101000000001010000000000000100001010000000111001110 %
b1010001101000000001010000000000000100001010000000111001110 &
b100 '
1!
#185000
0!
#190000
b1110000001100010001000000000000010001111001011101001010000000011101000001010010101101000000010011000000111101010110110 "
b1110000001100010001000000000000010001111001011101001010000000011101000001010010101101000000010011000000111101010110110 $
b1000110111000000010011000000000000010001000000000110100010 #
b1000110111000000010011000000000000010001000000000110100010 %
b1000110111000000010011000000000000010001000000000110100010 &
b100 '
1!
#195000
0!
#200000
b111000000000000010001100000000111010000000001001100000 #
b111000000000000010001100000000111010000000001001100000 %
b111000000000000010001100000000111010000000001001100000 &
b100 '
1!
