work_in_progress/nn/neuron_v3/signed_cast/traces.vcd
$date
	Tue Apr 13 17:57:00 2021
$end
$version
	Icarus Verilog
$end
$timescale
	1ps
$end
$scope module signed_cast_tb $end
$var wire 1 ! clk $end
$var wire 64 " din [63:0] $end
$var wire 1 # din_valid $end
$var wire 1 $ dout_valid $end
$var wire 128 % dout [127:0] $end
$scope module signed_cast_inst $end
$var wire 1 ! clk $end
$var wire 64 & din [63:0] $end
$var wire 1 # din_valid $end
$var wire 1 $ dout_valid $end
$var wire 128 ' dout [127:0] $end
$var reg 104 ( dout_frac [103:0] $end
$var reg 24 ) dout_int [23:0] $end
$var reg 1 * valid_out $end
$var integer 32 + i [31:0] $end
$var integer 32 , j [31:0] $end
$scope begin genblk1 $end
$var reg 16 - debug [15:0] $end
$upscope $end
$scope begin genblk4 $end
$upscope $end
$scope begin genblk5[0] $end
$upscope $end
$scope begin genblk5[1] $end
$upscope $end
$scope begin genblk5[2] $end
$upscope $end
$scope begin genblk5[3] $end
$upscope $end
$scope begin genblk5[4] $end
$upscope $end
$scope begin genblk5[5] $end
$upscope $end
$scope begin genblk5[6] $end
$upscope $end
$scope begin genblk5[7] $end
$upscope $end
$upscope $end
$upscope $end
$enddefinitions $end
#0
$dumpvars
b0 -
b1000 ,
b1000 +
0*
b0 )
b0 (
b0 '
b0 &
b0 %
0$
0#
b0 "
1!
$end
#5000
0!
#10000
b1000 ,
b1000 +
1!
#15000
0!
#20000
b1000 +
b1000 ,
1!
#25000
0!
#30000
b1000 ,
b1000 +
1!
#35000
0!
#40000
b1000 +
b1000 ,
1!
#45000
0!
#50000
b1000 ,
b1000 +
1!
#55000
0!
#60000
b1000 +
b1000 ,
1!
#65000
0!
#70000
b1000 ,
b1000 +
1!
#75000
0!
#80000
b1000 +
b1000 ,
1!
#85000
0!
#90000
1#
b100010110000110001000100011111100000000101110101011001101000010 "
b100010110000110001000100011111100000000101110101011001101000010 &
b1000 ,
b1000 +
1!
#95000
0!
#100000
b1010110010010111001011110111010010000010000000110101000000011100 "
b1010110010010111001011110111010010000010000000110101000000011100 &
b1101010000000001000110000000000010001000000000001111110000000000000000000000000100101000000000010000110000000000110010000000000 %
b1101010000000001000110000000000010001000000000001111110000000000000000000000000100101000000000010000110000000000110010000000000 '
b110000000101001 -
b11100010011000100100011 )
b1010000000000110000000000001000000000011110000000000000000000000101000000000000110000000000010000000000 (
1$
1*
b1000 +
b1000 ,
1!
#105000
0!
#110000
b11100011001011011010100011011000001010101001011110000000101100 "
b11100011001011011010100011011000001010101001011110000000101100 &
b10011000000000001000111000000000010111100000000001101000000000001000010000000000000001100000000001100000000000000011100000000000 %
b10011000000000001000111000000000010111100000000001101000000000001000010000000000000001100000000001100000000000000011100000000000 '
b11000000000000111000000000111100000000001000000000000010000000000001100000000000000000000001100000000000 (
b1010000110000100 -
b100100010011100000011001 )
b1000 ,
b1000 +
1!
#115000
0!
#120000
b1111001011110000000111100000001100100110000110010100111000000101 "
b1111001011110000000111100000001100100110000110010100111000000101 &
b1110000000000001001011000000000011101000000000001101100000000000001010000000000100010100000000011000000000000000101100000000000 %
b1110000000000001001011000000000011101000000000001101100000000000001010000000000100010100000000011000000000000000101100000000000 '
b10000100000 -
b11100011011000100110010 )
b10000000000001011000000000101000000000001100000000001010000000000010100000000000000000000001100000000000 (
b1000 +
b1000 ,
1!
#125000
0!
#130000
b110100011010010100110001100110110011110010101001000110100100000 "
b110100011010010100110001100110110011110010101001000110100100000 &
b11100100000000001110000000000000001111000000000000000110000000000100110000000000001100100000000001111100000000000000101000000000 %
b11100100000000001110000000000000001111000000000000000110000000000100110000000000001100100000000001111100000000000000101000000000 '
b100000000000000000000000111000000000000110000000000110000000000100100000000011100000000000101000000000 (
b100 -
b111111001000010001011000 )
b1000 ,
b1000 +
1!
#135000
0!
#140000
b110001010001101100110101101111011011010000011100110001100010 "
b110001010001101100110101101111011011010000011100110001100010 &
b1110000000000001010010000000000100100000000000010011010000000001001110000000000011010000000000010011010000000000100000000000000 %
b1110000000000001010010000000000100100000000000010011010000000001001110000000000011010000000000010011010000000000100000000000000 '
b100100010011000 -
b11101100100100011100010 )
b10000000000000010000000000100000000000011010000000001110000000000010000000000011010000000000000000000000 (
b1000 +
b1000 ,
1!
#145000
0!
#150000
b1101010010101011111001011001100001010010101001111110001101110001 "
b1101010010101011111001011001100001010010101001111110001101110001 &
b11000000000000110001000000000100001100000000001110110000000001011011000000000011000100000000010011000000000000110010000000000 %
b11000000000000110001000000000100001100000000001110110000000001011011000000000011000100000000010011000000000000110010000000000 '
b11000000000000001000000000001100000000010110000000001011000000000000100000000011000000000000010000000000 (
b1100100010001 -
b11100011101011100011 )
b1000 ,
b1000 +
1!
#155000
0!
#160000
b111110011110101010100111100000100011000011001110000100000010111 "
b111110011110101010100111100000100011000011001110000100000010111 &
b10101000000000001001011000000000110010100000000010010000000000000110010000000000100011100000000011000110000000000110001000000000 %
b10101000000000001001011000000000110010100000000010010000000000000110010000000000100011100000000011000110000000000110001000000000 '
b10001001100001 -
b101100110100011100110011 )
b1000000000001011000000000010100000000010000000000000010000000000011100000000000110000000000001000000000 (
b1000 +
b1000 ,
1!
#165000
0!
#170000
b1000101111011100100101011100111111010101010001101000101111101110 "
b1000101111011100100101011100111111010101010001101000101111101110 &
b1111000000000001110101000000000011001100000000010000010000000000011000000000000011011100000000000010000000000000010111000000000 %
b1111000000000001110101000000000011001100000000010000010000000000011000000000000011011100000000000010000000000000010111000000000 '
b11000000000000101000000000001100000000000010000000001000000000000011100000000010000000000000111000000000 (
b100010000010000 -
b11111011100001011000001 )
b1000 ,
b1000 +
1!
#175000
0!
#180000
b1101000100100010110110011000110001100001010000110110000011101011 "
b1101000100100010110110011000110001100001010000110110000011101011 &
b10010110000000001011100000000000100010100000000010011110000000001010101000000000011011000000000010010110000000001101110000000000 %
b10010110000000001011100000000000100010100000000010011110000000001010101000000000011011000000000010010110000000001101110000000000 '
b1000100000011000 -
b100101100100101011100110 )
b10110000000001100000000000010100000000011110000000000101000000000011000000000010110000000001110000000000 (
b1000 +
b1000 ,
1!
#185000
0!
#190000
b10100010000000000100010000000000101100100000000010011000000000000110001000000000011001100000000001100000000000001101011000000000 %
b10100010000000000100010000000000101100100000000010011000000000000110001000000000011001100000000001100000000000001101011000000000 '
b10000000000010000000000100100000000011000000000000001000000000001100000000000000000000001011000000000 (
b1001010100 -
b101010101100011011011110 )
b1000 ,
b1000 +
1!
