cic/traces.vcd
$date
	Sun Dec 27 22:37:00 2020
$end
$version
	Icarus Verilog
$end
$timescale
	1ps
$end
$scope module cic_tb $end
$var wire 1 ! clk_in $end
$var wire 16 " din [15:0] $end
$var wire 1 # rst $end
$var wire 3 $ test_number [2:0] $end
$var wire 32 % dout_int [31:0] $end
$var wire 32 & dout [31:0] $end
$var wire 1 ' clk_out $end
$var reg 3 ( test_number_r [2:0] $end
$scope module cic_inst $end
$var wire 1 ! clk_in $end
$var wire 1 ' clk_out $end
$var wire 16 ) din [15:0] $end
$var wire 1 # rst $end
$var wire 32 * int_out [31:0] $end
$var wire 32 + dout [31:0] $end
$var reg 2 , counter [1:0] $end
$var reg 32 - dec_out [31:0] $end
$var reg 1 . dec_rst $end
$var reg 1 / new_clk $end
$var reg 3 0 rst_delay [2:0] $end
$scope module comb_inst $end
$var wire 1 ' clk $end
$var wire 32 1 din [31:0] $end
$var wire 1 . rst $end
$var wire 32 2 dout [31:0] $end
$scope begin genblk1 $end
$scope begin comb_loop[0] $end
$var reg 32 3 comb_reg [31:0] $end
$var reg 32 4 diff_delay [31:0] $end
$scope begin genblk3 $end
$upscope $end
$upscope $end
$scope begin comb_loop[1] $end
$var reg 32 5 comb_reg [31:0] $end
$var reg 32 6 diff_delay [31:0] $end
$scope begin genblk4 $end
$upscope $end
$upscope $end
$scope begin comb_loop[2] $end
$var reg 32 7 comb_reg [31:0] $end
$var reg 32 8 diff_delay [31:0] $end
$scope begin genblk4 $end
$upscope $end
$upscope $end
$upscope $end
$upscope $end
$scope module integrator_inst $end
$var wire 1 ! clk_in $end
$var wire 16 9 din [15:0] $end
$var wire 1 # rst $end
$var wire 32 : dout [31:0] $end
$scope begin int_loop[0] $end
$var reg 32 ; dout_r [31:0] $end
$scope begin genblk2 $end
$upscope $end
$upscope $end
$scope begin int_loop[1] $end
$var reg 32 < dout_r [31:0] $end
$scope begin genblk3 $end
$upscope $end
$upscope $end
$scope begin int_loop[2] $end
$var reg 32 = dout_r [31:0] $end
$scope begin genblk3 $end
$upscope $end
$upscope $end
$upscope $end
$upscope $end
$upscope $end
$enddefinitions $end
#0
$dumpvars
b0 =
b0 <
b0 ;
b0 :
b0 9
b0 8
b0 7
b0 6
b0 5
b0 4
b0 3
b0 2
b0 1
b0 0
0/
0.
b0 -
b1 ,
b0 +
b0 *
b0 )
b0 (
0'
b0 &
b0 %
b0 $
0#
b0 "
1!
$end
#5000
0!
#10000
b10 ,
1!
#15000
0!
#20000
b11 ,
1!
#25000
0!
#30000
b1 "
b1 )
b1 9
1'
1/
b0 ,
1!
#35000
0!
#40000
b0 "
b0 )
b0 9
b1 ;
b1 ,
1!
#45000
0!
#50000
b10 ,
b1 <
1!
#55000
0!
#60000
b10 <
b1 *
b1 :
b1 =
b11 ,
1!
#65000
0!
#70000
b1 -
b1 1
0'
0/
b0 ,
b11 *
b11 :
b11 =
b11 <
1!
#75000
0!
#80000
b100 <
b110 *
b110 :
b110 =
b1 ,
1!
#85000
0!
#90000
b10 ,
b1010 *
b1010 :
b1010 =
b101 <
1!
#95000
0!
#100000
b110 <
b1111 *
b1111 :
b1111 =
b11 ,
1!
#105000
0!
#110000
b1 4
b1 3
1'
1/
b0 ,
b10101 *
b10101 :
b10101 =
b111 <
1!
#115000
0!
#120000
b1000 <
b11100 *
b11100 :
b11100 =
b1 ,
1!
#125000
0!
#130000
b10 ,
b100100 *
b100100 :
b100100 =
b1001 <
1!
#135000
0!
#140000
b1010 <
b101101 *
b101101 :
b101101 =
b11 ,
1!
#145000
0!
#150000
b101101 -
b101101 1
0'
0/
b0 ,
b110111 *
b110111 :
b110111 =
b1011 <
1!
#155000
0!
#160000
b1100 <
b1000010 *
b1000010 :
b1000010 =
b1 ,
1!
#165000
0!
#170000
b10 ,
b1001110 *
b1001110 :
b1001110 =
b1101 <
1!
#175000
0!
#180000
b1110 <
b1011011 *
b1011011 :
b1011011 =
b11 ,
1!
#185000
0!
#190000
b101101 4
b101100 3
b1 6
b1 5
1'
1/
b0 ,
b1101001 *
b1101001 :
b1101001 =
b1111 <
1!
#195000
0!
#200000
b10000 <
b1111000 *
b1111000 :
b1111000 =
b1 ,
1!
#205000
0!
#210000
b10 ,
b10001000 *
b10001000 :
b10001000 =
b10001 <
1!
#215000
0!
#220000
b10010 <
b10011001 *
b10011001 :
b10011001 =
b11 ,
1!
#225000
0!
#230000
b10011001 -
b10011001 1
0'
0/
b0 ,
b10101011 *
b10101011 :
b10101011 =
b10011 <
1!
#235000
0!
#240000
b10100 <
b10111110 *
b10111110 :
b10111110 =
b1 ,
1!
#245000
0!
#250000
b10 ,
b11010010 *
b11010010 :
b11010010 =
b10101 <
1!
#255000
0!
#260000
b10110 <
b11100111 *
b11100111 :
b11100111 =
b11 ,
1!
#265000
0!
#270000
b1 8
b1 %
b1 &
b1 +
b1 2
b1 7
b101100 6
b101011 5
b10011001 4
b1101100 3
1'
1/
b0 ,
b11111101 *
b11111101 :
b11111101 =
b10111 <
1!
#275000
0!
#280000
b11000 <
b100010100 *
b100010100 :
b100010100 =
b1 ,
1!
#285000
0!
#290000
b10 ,
b100101100 *
b100101100 :
b100101100 =
b11001 <
1!
#295000
0!
#300000
b11010 <
b101000101 *
b101000101 :
b101000101 =
b11 ,
1!
#305000
0!
#310000
b101000101 -
b101000101 1
0'
0/
b0 ,
b101011111 *
b101011111 :
b101011111 =
b11011 <
1!
#315000
0!
#320000
b11100 <
b101111010 *
b101111010 :
b101111010 =
b1 ,
1!
#325000
0!
#330000
b10 ,
b110010110 *
b110010110 :
b110010110 =
b11101 <
1!
#335000
0!
#340000
b11110 <
b110110011 *
b110110011 :
b110110011 =
b11 ,
1!
#345000
0!
#350000
b101000101 4
b10101100 3
b1101100 6
b1000000 5
b101011 8
b101010 %
b101010 &
b101010 +
b101010 2
b101010 7
1'
1/
b0 ,
b111010001 *
b111010001 :
b111010001 =
b11111 <
1!
#355000
0!
#360000
b100000 <
b111110000 *
b111110000 :
b111110000 =
b1 ,
1!
#365000
0!
#370000
b10 ,
b1000010000 *
b1000010000 :
b1000010000 =
b100001 <
1!
#375000
0!
#380000
b100010 <
b1000110001 *
b1000110001 :
b1000110001 =
b11 ,
1!
#385000
0!
#390000
b1000110001 -
b1000110001 1
0'
0/
b0 ,
b1001010011 *
b1001010011 :
b1001010011 =
b100011 <
1!
#395000
0!
#400000
b100100 <
b1001110110 *
b1001110110 :
b1001110110 =
b1 ,
1!
#405000
0!
#410000
b10 ,
b1010011010 *
b1010011010 :
b1010011010 =
b100101 <
1!
#415000
0!
#420000
b100110 <
b1010111111 *
b1010111111 :
b1010111111 =
b11 ,
1!
#425000
0!
#430000
b1000000 8
b10101 %
b10101 &
b10101 +
b10101 2
b10101 7
b10101100 6
b1000110001 4
b11101100 3
1'
1/
b0 ,
b1011100101 *
b1011100101 :
b1011100101 =
b100111 <
1!
#435000
0!
#440000
b101000 <
b1100001100 *
b1100001100 :
b1100001100 =
b1 ,
1!
#445000
0!
#450000
b10 ,
b1100110100 *
b1100110100 :
b1100110100 =
b101001 <
1!
#455000
0!
#460000
b101010 <
b1101011101 *
b1101011101 :
b1101011101 =
b11 ,
1!
#465000
0!
#470000
b1101011101 -
b1101011101 1
0'
0/
b0 ,
b1110000111 *
b1110000111 :
b1110000111 =
b101011 <
1!
#475000
0!
#480000
b101100 <
b1110110010 *
b1110110010 :
b1110110010 =
b1 ,
1!
#485000
0!
#490000
b10 ,
b1111011110 *
b1111011110 :
b1111011110 =
b101101 <
1!
#495000
0!
#500000
b101110 <
b10000001011 *
b10000001011 :
b10000001011 =
b11 ,
1!
#505000
0!
#510000
b1101011101 4
b100101100 3
b11101100 6
b0 %
b0 &
b0 +
b0 2
b0 7
1'
1/
b0 ,
b10000111001 *
b10000111001 :
b10000111001 =
b101111 <
1!
#515000
0!
#520000
b110000 <
b10001101000 *
b10001101000 :
b10001101000 =
b1 ,
1!
#525000
0!
#530000
b10 ,
b10010011000 *
b10010011000 :
b10010011000 =
b110001 <
1!
#535000
0!
#540000
b110010 <
b10011001001 *
b10011001001 :
b10011001001 =
b11 ,
1!
#545000
0!
#550000
b10011001001 -
b10011001001 1
0'
0/
b0 ,
b10011111011 *
b10011111011 :
b10011111011 =
b110011 <
1!
#555000
0!
#560000
b110100 <
b10100101110 *
b10100101110 :
b10100101110 =
b1 ,
1!
#565000
0!
#570000
b10 ,
b10101100010 *
b10101100010 :
b10101100010 =
b110101 <
1!
#575000
0!
#580000
b110110 <
b10110010111 *
b10110010111 :
b10110010111 =
b11 ,
1!
#585000
0!
#590000
b100101100 6
b10011001001 4
b101101100 3
1'
1/
b0 ,
b10111001101 *
b10111001101 :
b10111001101 =
b110111 <
1!
#595000
0!
#600000
b111000 <
b11000000100 *
b11000000100 :
b11000000100 =
b1 ,
1!
#605000
0!
#610000
b10 ,
b11000111100 *
b11000111100 :
b11000111100 =
b111001 <
1!
#615000
0!
#620000
b111010 <
b11001110101 *
b11001110101 :
b11001110101 =
b11 ,
1!
#625000
0!
#630000
b11001110101 -
b11001110101 1
0'
0/
b0 ,
b11010101111 *
b11010101111 :
b11010101111 =
b111011 <
1!
#635000
0!
#640000
b111100 <
b11011101010 *
b11011101010 :
b11011101010 =
b1 ,
1!
#645000
0!
#650000
b10 ,
b11100100110 *
b11100100110 :
b11100100110 =
b111101 <
1!
#655000
0!
#660000
b111110 <
b11101100011 *
b11101100011 :
b11101100011 =
b11 ,
1!
#665000
0!
#670000
b11001110101 4
b110101100 3
b101101100 6
1'
1/
b0 ,
b11110100001 *
b11110100001 :
b11110100001 =
b111111 <
1!
#675000
0!
#680000
b1000000 <
b11111100000 *
b11111100000 :
b11111100000 =
b1 ,
1!
#685000
0!
#690000
b10 ,
b100000100000 *
b100000100000 :
b100000100000 =
b1000001 <
1!
#695000
0!
#700000
b1000010 <
b100001100001 *
b100001100001 :
b100001100001 =
b11 ,
1!
#705000
0!
#710000
b100001100001 -
b100001100001 1
0'
0/
b0 ,
b100010100011 *
b100010100011 :
b100010100011 =
b1000011 <
1!
#715000
0!
#720000
b1000100 <
b100011100110 *
b100011100110 :
b100011100110 =
b1 ,
1!
#725000
0!
#730000
b10 ,
b100100101010 *
b100100101010 :
b100100101010 =
b1000101 <
1!
#735000
0!
#740000
b1000110 <
b100101101111 *
b100101101111 :
b100101101111 =
b11 ,
1!
#745000
0!
#750000
b110101100 6
b100001100001 4
b111101100 3
1'
1/
b0 ,
b100110110101 *
b100110110101 :
b100110110101 =
b1000111 <
1!
#755000
0!
#760000
b1001000 <
b100111111100 *
b100111111100 :
b100111111100 =
b1 ,
1!
#765000
0!
#770000
b10 ,
b101001000100 *
b101001000100 :
b101001000100 =
b1001001 <
1!
#775000
0!
#780000
b1001010 <
b101010001101 *
b101010001101 :
b101010001101 =
b11 ,
1!
#785000
0!
#790000
b101010001101 -
b101010001101 1
0'
0/
b0 ,
b101011010111 *
b101011010111 :
b101011010111 =
b1001011 <
1!
#795000
0!
#800000
b1001100 <
b101100100010 *
b101100100010 :
b101100100010 =
b1 ,
1!
#805000
0!
#810000
b10 ,
b101101101110 *
b101101101110 :
b101101101110 =
b1001101 <
1!
#815000
0!
#820000
b1001110 <
b101110111011 *
b101110111011 :
b101110111011 =
b11 ,
1!
#825000
0!
#830000
b101010001101 4
b1000101100 3
b111101100 6
1'
1/
b0 ,
b110000001001 *
b110000001001 :
b110000001001 =
b1001111 <
1!
#835000
0!
#840000
b1010000 <
b110001011000 *
b110001011000 :
b110001011000 =
b1 ,
1!
#845000
0!
#850000
b10 ,
b110010101000 *
b110010101000 :
b110010101000 =
b1010001 <
1!
#855000
0!
#860000
b1010010 <
b110011111001 *
b110011111001 :
b110011111001 =
b11 ,
1!
#865000
0!
#870000
b110011111001 -
b110011111001 1
0'
0/
b0 ,
b110101001011 *
b110101001011 :
b110101001011 =
b1010011 <
1!
#875000
0!
#880000
b1010100 <
b110110011110 *
b110110011110 :
b110110011110 =
b1 ,
1!
#885000
0!
#890000
b10 ,
b110111110010 *
b110111110010 :
b110111110010 =
b1010101 <
1!
#895000
0!
#900000
b1010110 <
b111001000111 *
b111001000111 :
b111001000111 =
b11 ,
1!
#905000
0!
#910000
b1000101100 6
b110011111001 4
b1001101100 3
1'
1/
b0 ,
b111010011101 *
b111010011101 :
b111010011101 =
b1010111 <
1!
#915000
0!
#920000
b1011000 <
b111011110100 *
b111011110100 :
b111011110100 =
b1 ,
1!
#925000
0!
#930000
b10 ,
b111101001100 *
b111101001100 :
b111101001100 =
b1011001 <
1!
#935000
0!
#940000
b1011010 <
b111110100101 *
b111110100101 :
b111110100101 =
b11 ,
1!
#945000
0!
#950000
b111110100101 -
b111110100101 1
0'
0/
b0 ,
b111111111111 *
b111111111111 :
b111111111111 =
b1011011 <
1!
#955000
0!
#960000
b1011100 <
b1000001011010 *
b1000001011010 :
b1000001011010 =
b1 ,
1!
#965000
0!
#970000
b10 ,
b1000010110110 *
b1000010110110 :
b1000010110110 =
b1011101 <
1!
#975000
0!
#980000
b1011110 <
b1000100010011 *
b1000100010011 :
b1000100010011 =
b11 ,
1!
#985000
0!
#990000
b111110100101 4
b1010101100 3
b1001101100 6
1'
1/
b0 ,
b1000101110001 *
b1000101110001 :
b1000101110001 =
b1011111 <
1!
#995000
0!
#1000000
b1100000 <
b1000111010000 *
b1000111010000 :
b1000111010000 =
b1 ,
1!
#1005000
0!
#1010000
b10 ,
b1001000110000 *
b1001000110000 :
b1001000110000 =
b1100001 <
1!
#1015000
0!
#1020000
b1100010 <
b1001010010001 *
b1001010010001 :
b1001010010001 =
b11 ,
1!
#1025000
0!
#1030000
b1001010010001 -
b1001010010001 1
0'
0/
b0 ,
b1001011110011 *
b1001011110011 :
b1001011110011 =
b1100011 <
1!
#1035000
0!
#1040000
b1100100 <
b1001101010110 *
b1001101010110 :
b1001101010110 =
b1 ,
1!
#1045000
0!
#1050000
b10 ,
b1001110111010 *
b1001110111010 :
b1001110111010 =
b1100101 <
1!
#1055000
0!
#1060000
b1100110 <
b1010000011111 *
b1010000011111 :
b1010000011111 =
b11 ,
1!
#1065000
0!
#1070000
b1010101100 6
b1001010010001 4
b1011101100 3
1'
1/
b0 ,
b1010010000101 *
b1010010000101 :
b1010010000101 =
b1100111 <
1!
#1075000
0!
#1080000
b1101000 <
b1010011101100 *
b1010011101100 :
b1010011101100 =
b1 ,
1!
#1085000
0!
#1090000
b10 ,
b1010101010100 *
b1010101010100 :
b1010101010100 =
b1101001 <
1!
#1095000
0!
#1100000
b1101010 <
b1010110111101 *
b1010110111101 :
b1010110111101 =
b11 ,
1!
#1105000
0!
#1110000
b1010110111101 -
b1010110111101 1
0'
0/
b0 ,
b1011000100111 *
b1011000100111 :
b1011000100111 =
b1101011 <
1!
#1115000
0!
#1120000
b1101100 <
b1011010010010 *
b1011010010010 :
b1011010010010 =
b1 ,
1!
#1125000
0!
#1130000
b10 ,
b1011011111110 *
b1011011111110 :
b1011011111110 =
b1101101 <
1!
#1135000
0!
#1140000
b1101110 <
b1011101101011 *
b1011101101011 :
b1011101101011 =
b11 ,
1!
#1145000
0!
#1150000
b1010110111101 4
b1100101100 3
b1011101100 6
1'
1/
b0 ,
b1011111011001 *
b1011111011001 :
b1011111011001 =
b1101111 <
1!
#1155000
0!
#1160000
b1110000 <
b1100001001000 *
b1100001001000 :
b1100001001000 =
b1 ,
1!
#1165000
0!
#1170000
b10 ,
b1100010111000 *
b1100010111000 :
b1100010111000 =
b1110001 <
1!
#1175000
0!
#1180000
b1110010 <
b1100100101001 *
b1100100101001 :
b1100100101001 =
b11 ,
1!
#1185000
0!
#1190000
b1100100101001 -
b1100100101001 1
0'
0/
b0 ,
b1100110011011 *
b1100110011011 :
b1100110011011 =
b1110011 <
1!
#1195000
0!
#1200000
b1110100 <
b1101000001110 *
b1101000001110 :
b1101000001110 =
b1 ,
1!
#1205000
0!
#1210000
b10 ,
b1101010000010 *
b1101010000010 :
b1101010000010 =
b1110101 <
1!
#1215000
0!
#1220000
b1110110 <
b1101011110111 *
b1101011110111 :
b1101011110111 =
b11 ,
1!
#1225000
0!
#1230000
b1100101100 6
b1100100101001 4
b1101101100 3
1'
1/
b0 ,
b1101101101101 *
b1101101101101 :
b1101101101101 =
b1110111 <
1!
#1235000
0!
#1240000
b1111000 <
b1101111100100 *
b1101111100100 :
b1101111100100 =
b1 ,
1!
#1245000
0!
#1250000
b10 ,
b1110001011100 *
b1110001011100 :
b1110001011100 =
b1111001 <
1!
#1255000
0!
#1260000
b1111010 <
b1110011010101 *
b1110011010101 :
b1110011010101 =
b11 ,
1!
#1265000
0!
#1270000
b1110011010101 -
b1110011010101 1
0'
0/
b0 ,
b1110101001111 *
b1110101001111 :
b1110101001111 =
b1111011 <
1!
#1275000
0!
#1280000
b1111100 <
b1110111001010 *
b1110111001010 :
b1110111001010 =
b1 ,
1!
#1285000
0!
#1290000
b10 ,
b1111001000110 *
b1111001000110 :
b1111001000110 =
b1111101 <
1!
#1295000
0!
#1300000
b1111110 <
b1111011000011 *
b1111011000011 :
b1111011000011 =
b11 ,
1!
#1305000
0!
#1310000
b1110011010101 4
b1110101100 3
b1101101100 6
1'
1/
b0 ,
b1111101000001 *
b1111101000001 :
b1111101000001 =
b1111111 <
1!
#1315000
0!
#1320000
b1 $
b1 "
b1 )
b1 9
b10000000 <
b1111111000000 *
b1111111000000 :
b1111111000000 =
b1 ,
1!
#1325000
0!
#1330000
b1 (
b10 ,
b10000001000000 *
b10000001000000 :
b10000001000000 =
b10000001 <
b10 ;
1!
#1335000
0!
#1340000
b11 ;
b10000011 <
b10000011000001 *
b10000011000001 :
b10000011000001 =
b11 ,
1!
#1345000
0!
#1350000
b10000011000001 -
b10000011000001 1
0'
0/
b0 ,
b10000101000100 *
b10000101000100 :
b10000101000100 =
b10000110 <
b100 ;
1!
#1355000
0!
#1360000
b101 ;
b10001010 <
b10000111001010 *
b10000111001010 :
b10000111001010 =
b1 ,
1!
#1365000
0!
#1370000
b10 ,
b10001001010100 *
b10001001010100 :
b10001001010100 =
b10001111 <
b110 ;
1!
#1375000
0!
#1380000
b111 ;
b10010101 <
b10001011100011 *
b10001011100011 :
b10001011100011 =
b11 ,
1!
#1385000
0!
#1390000
b1110101100 6
b10000011000001 4
b1111101100 3
1'
1/
b0 ,
b10001101111000 *
b10001101111000 :
b10001101111000 =
b10011100 <
b1000 ;
1!
#1395000
0!
#1400000
b1001 ;
b10100100 <
b10010000010100 *
b10010000010100 :
b10010000010100 =
b1 ,
1!
#1405000
0!
#1410000
b10 ,
b10010010111000 *
b10010010111000 :
b10010010111000 =
b10101101 <
b1010 ;
1!
#1415000
0!
#1420000
b1011 ;
b10110111 <
b10010101100101 *
b10010101100101 :
b10010101100101 =
b11 ,
1!
#1425000
0!
#1430000
b10010101100101 -
b10010101100101 1
0'
0/
b0 ,
b10011000011100 *
b10011000011100 :
b10011000011100 =
b11000010 <
b1100 ;
1!
#1435000
0!
#1440000
b1101 ;
b11001110 <
b10011011011110 *
b10011011011110 :
b10011011011110 =
b1 ,
1!
#1445000
0!
#1450000
b10 ,
b10011110101100 *
b10011110101100 :
b10011110101100 =
b11011011 <
b1110 ;
1!
#1455000
0!
#1460000
b1111 ;
b11101001 <
b10100010000111 *
b10100010000111 :
b10100010000111 =
b11 ,
1!
#1465000
0!
#1470000
b10010101100101 4
b10010100100 3
b1111101100 6
1'
1/
b0 ,
b10100101110000 *
b10100101110000 :
b10100101110000 =
b11111000 <
b10000 ;
1!
#1475000
0!
#1480000
b10001 ;
b100001000 <
b10101001101000 *
b10101001101000 :
b10101001101000 =
b1 ,
1!
#1485000
0!
#1490000
b10 ,
b10101101110000 *
b10101101110000 :
b10101101110000 =
b100011001 <
b10010 ;
1!
#1495000
0!
#1500000
b10011 ;
b100101011 <
b10110010001001 *
b10110010001001 :
b10110010001001 =
b11 ,
1!
#1505000
0!
#1510000
b10110010001001 -
b10110010001001 1
0'
0/
b0 ,
b10110110110100 *
b10110110110100 :
b10110110110100 =
b100111110 <
b10100 ;
1!
#1515000
0!
#1520000
b10101 ;
b101010010 <
b10111011110010 *
b10111011110010 :
b10111011110010 =
b1 ,
1!
#1525000
0!
#1530000
b10 ,
b11000001000100 *
b11000001000100 :
b11000001000100 =
b101100111 <
b10110 ;
1!
#1535000
0!
#1540000
b10111 ;
b101111101 <
b11000110101011 *
b11000110101011 :
b11000110101011 =
b11 ,
1!
#1545000
0!
#1550000
b10010100100 6
b10111000 5
b10110010001001 4
b11100100100 3
1'
1/
b0 ,
b11001100101000 *
b11001100101000 :
b11001100101000 =
b110010100 <
b11000 ;
1!
#1555000
0!
#1560000
b11001 ;
b110101100 <
b11010010111100 *
b11010010111100 :
b11010010111100 =
b1 ,
1!
#1565000
0!
#1570000
b10 ,
b11011001101000 *
b11011001101000 :
b11011001101000 =
b111000101 <
b11010 ;
1!
#1575000
0!
#1580000
b11011 ;
b111011111 <
b11100000101101 *
b11100000101101 :
b11100000101101 =
b11 ,
1!
#1585000
0!
#1590000
b11100000101101 -
b11100000101101 1
0'
0/
b0 ,
b11101000001100 *
b11101000001100 :
b11101000001100 =
b111111010 <
b11100 ;
1!
#1595000
0!
#1600000
b11101 ;
b1000010110 <
b11110000000110 *
b11110000000110 :
b11110000000110 =
b1 ,
1!
#1605000
0!
#1610000
b10 ,
b11111000011100 *
b11111000011100 :
b11111000011100 =
b1000110011 <
b11110 ;
1!
#1615000
0!
#1620000
b11111 ;
b1001010001 <
b100000001001111 *
b100000001001111 :
b100000001001111 =
b11 ,
1!
#1625000
0!
#1630000
b11100000101101 4
b101110100100 3
b11100100100 6
b1010000000 5
b10111000 8
b1111000 %
b1111000 &
b1111000 +
b1111000 2
b1111000 7
1'
1/
b0 ,
b100001010100000 *
b100001010100000 :
b100001010100000 =
b1001110000 <
b100000 ;
1!
#1635000
0!
#1640000
b100001 ;
b1010010000 <
b100010100010000 *
b100010100010000 :
b100010100010000 =
b1 ,
1!
#1645000
0!
#1650000
b10 ,
b100011110100000 *
b100011110100000 :
b100011110100000 =
b1010110001 <
b100010 ;
1!
#1655000
0!
#1660000
b100011 ;
b1011010011 <
b100101001010001 *
b100101001010001 :
b100101001010001 =
b11 ,
1!
#1665000
0!
#1670000
b100101001010001 -
b100101001010001 1
0'
0/
b0 ,
b100110100100100 *
b100110100100100 :
b100110100100100 =
b1011110110 <
b100100 ;
1!
#1675000
0!
#1680000
b100101 ;
b1100011010 <
b101000000011010 *
b101000000011010 :
b101000000011010 =
b1 ,
1!
#1685000
0!
#1690000
b10 ,
b101001100110100 *
b101001100110100 :
b101001100110100 =
b1100111111 <
b100110 ;
1!
#1695000
0!
#1700000
b100111 ;
b1101100101 <
b101011001110011 *
b101011001110011 :
b101011001110011 =
b11 ,
1!
#1705000
0!
#1710000
b1010000000 8
b111001000 %
b111001000 &
b111001000 +
b111001000 2
b111001000 7
b101110100100 6
b10010000000 5
b100101001010001 4
b1001000100100 3
1'
1/
b0 ,
b101100111011000 *
b101100111011000 :
b101100111011000 =
b1110001100 <
b101000 ;
1!
#1715000
0!
#1720000
b101001 ;
b1110110100 <
b101110101100100 *
b101110101100100 :
b101110101100100 =
b1 ,
1!
#1725000
0!
#1730000
b10 ,
b110000100011000 *
b110000100011000 :
b110000100011000 =
b1111011101 <
b101010 ;
1!
#1735000
0!
#1740000
b101011 ;
b10000000111 <
b110010011110101 *
b110010011110101 :
b110010011110101 =
b11 ,
1!
#1745000
0!
#1750000
b110010011110101 -
b110010011110101 1
0'
0/
b0 ,
b110100011111100 *
b110100011111100 :
b110100011111100 =
b10000110010 <
b101100 ;
1!
#1755000
0!
#1760000
b101101 ;
b10001011110 <
b110110100101110 *
b110110100101110 :
b110110100101110 =
b1 ,
1!
#1765000
0!
#1770000
b10 ,
b111000110001100 *
b111000110001100 :
b111000110001100 =
b10010001011 <
b101110 ;
1!
#1775000
0!
#1780000
b101111 ;
b10010111001 <
b111011000010111 *
b111011000010111 :
b111011000010111 =
b11 ,
1!
#1785000
0!
#1790000
b110010011110101 4
b1101010100100 3
b1001000100100 6
b11010000000 5
b10010000000 8
b1000000000 %
b1000000000 &
b1000000000 +
b1000000000 2
b1000000000 7
1'
1/
b0 ,
b111101011010000 *
b111101011010000 :
b111101011010000 =
b10011101000 <
b110000 ;
1!
#1795000
0!
#1800000
b110001 ;
b10100011000 <
b111111110111000 *
b111111110111000 :
b111111110111000 =
b1 ,
1!
#1805000
0!
#1810000
b10 ,
b1000010011010000 *
b1000010011010000 :
b1000010011010000 =
b10101001001 <
b110010 ;
1!
#1815000
0!
#1820000
b110011 ;
b10101111011 <
b1000101000011001 *
b1000101000011001 :
b1000101000011001 =
b11 ,
1!
#1825000
0!
#1830000
b1000101000011001 -
b1000101000011001 1
0'
0/
b0 ,
b1000111110010100 *
b1000111110010100 :
b1000111110010100 =
b10110101110 <
b110100 ;
1!
#1835000
0!
#1840000
b110101 ;
b10111100010 <
b1001010101000010 *
b1001010101000010 :
b1001010101000010 =
b1 ,
1!
#1845000
0!
#1850000
b10 ,
b1001101100100100 *
b1001101100100100 :
b1001101100100100 =
b11000010111 <
b110110 ;
1!
#1855000
0!
#1860000
b110111 ;
b11001001101 <
b1010000100111011 *
b1010000100111011 :
b1010000100111011 =
b11 ,
1!
#1865000
0!
#1870000
b11010000000 8
b1101010100100 6
b100010000000 5
b1000101000011001 4
b10010100100100 3
1'
1/
b0 ,
b1010011110001000 *
b1010011110001000 :
b1010011110001000 =
b11010000100 <
b111000 ;
1!
#1875000
0!
#1880000
b111001 ;
b11010111100 <
b1010111000001100 *
b1010111000001100 :
b1010111000001100 =
b1 ,
1!
#1885000
0!
#1890000
b10 ,
b1011010011001000 *
b1011010011001000 :
b1011010011001000 =
b11011110101 <
b111010 ;
1!
#1895000
0!
#1900000
b111011 ;
b11100101111 <
b1011101110111101 *
b1011101110111101 :
b1011101110111101 =
b11 ,
1!
#1905000
0!
#1910000
b1011101110111101 -
b1011101110111101 1
0'
0/
b0 ,
b1100001011101100 *
b1100001011101100 :
b1100001011101100 =
b11101101010 <
b111100 ;
1!
#1915000
0!
#1920000
b111101 ;
b11110100110 <
b1100101001010110 *
b1100101001010110 :
b1100101001010110 =
b1 ,
1!
#1925000
0!
#1930000
b10 ,
b1101000111111100 *
b1101000111111100 :
b1101000111111100 =
b11111100011 <
b111110 ;
1!
#1935000
0!
#1940000
b111111 ;
b100000100001 <
b1101100111011111 *
b1101100111011111 :
b1101100111011111 =
b11 ,
1!
#1945000
0!
#1950000
b1011101110111101 4
b11000110100100 3
b10010100100100 6
b101010000000 5
b100010000000 8
1'
1/
b0 ,
b1110001000000000 *
b1110001000000000 :
b1110001000000000 =
b100001100000 <
b1000000 ;
1!
#1955000
0!
#1960000
b1000001 ;
b100010100000 <
b1110101001100000 *
b1110101001100000 :
b1110101001100000 =
b1 ,
1!
#1965000
0!
#1970000
b10 ,
b1111001100000000 *
b1111001100000000 :
b1111001100000000 =
b100011100001 <
b1000010 ;
1!
#1975000
0!
#1980000
b1000011 ;
b100100100011 <
b1111101111100001 *
b1111101111100001 :
b1111101111100001 =
b11 ,
1!
#1985000
0!
#1990000
b1111101111100001 -
b1111101111100001 1
0'
0/
b0 ,
b10000010100000100 *
b10000010100000100 :
b10000010100000100 =
b100101100110 <
b1000100 ;
1!
#1995000
0!
#2000000
b1000101 ;
b100110101010 <
b10000111001101010 *
b10000111001101010 :
b10000111001101010 =
b1 ,
1!
#2005000
0!
#2010000
b10 ,
b10001100000010100 *
b10001100000010100 :
b10001100000010100 =
b100111101111 <
b1000110 ;
1!
#2015000
0!
#2020000
b1000111 ;
b101000110101 <
b10010001000000011 *
b10010001000000011 :
b10010001000000011 =
b11 ,
1!
#2025000
0!
#2030000
b101010000000 8
b11000110100100 6
b110010000000 5
b1111101111100001 4
b100000000100100 3
1'
1/
b0 ,
b10010110000111000 *
b10010110000111000 :
b10010110000111000 =
b101001111100 <
b1001000 ;
1!
#2035000
0!
#2040000
b1001001 ;
b101011000100 <
b10011011010110100 *
b10011011010110100 :
b10011011010110100 =
b1 ,
1!
#2045000
0!
#2050000
b10 ,
b10100000101111000 *
b10100000101111000 :
b10100000101111000 =
b101100001101 <
b1001010 ;
1!
#2055000
0!
#2060000
b1001011 ;
b101101010111 <
b10100110010000101 *
b10100110010000101 :
b10100110010000101 =
b11 ,
1!
#2065000
0!
#2070000
b10100110010000101 -
b10100110010000101 1
0'
0/
b0 ,
b10101011111011100 *
b10101011111011100 :
b10101011111011100 =
b101110100010 <
b1001100 ;
1!
#2075000
0!
#2080000
b1001101 ;
b101111101110 <
b10110001101111110 *
b10110001101111110 :
b10110001101111110 =
b1 ,
1!
#2085000
0!
#2090000
b10 ,
b10110111101101100 *
b10110111101101100 :
b10110111101101100 =
b110000111011 <
b1001110 ;
1!
#2095000
0!
#2100000
b1001111 ;
b110010001001 <
b10111101110100111 *
b10111101110100111 :
b10111101110100111 =
b11 ,
1!
#2105000
0!
#2110000
b10100110010000101 4
b101000010100100 3
b100000000100100 6
b111010000000 5
b110010000000 8
1'
1/
b0 ,
b11000100000110000 *
b11000100000110000 :
b11000100000110000 =
b110011011000 <
b1010000 ;
1!
#2115000
0!
#2120000
b1010001 ;
b110100101000 <
b11001010100001000 *
b11001010100001000 :
b11001010100001000 =
b1 ,
1!
#2125000
0!
#2130000
b10 ,
b11010001000110000 *
b11010001000110000 :
b11010001000110000 =
b110101111001 <
b1010010 ;
1!
#2135000
0!
#2140000
b1010011 ;
b110111001011 <
b11010111110101001 *
b11010111110101001 :
b11010111110101001 =
b11 ,
1!
#2145000
0!
