dev/nn/neuron/dev/macc/sim.vcd
$date
	Wed Nov 18 23:44:45 2020
$end
$version
	Icarus Verilog
$end
$timescale
	1ns
$end
$scope module macc_tb $end
$scope module macc_inst $end
$scope module mult_add_inst $end
$scope module parallel_mult_inst $end
$var wire 1 ! clk $end
$var wire 64 " din1 [63:0] $end
$var wire 64 # din2 [63:0] $end
$var wire 32 $ dout_t [31:0] $end
$var wire 128 % dout [127:0] $end
$var wire 16 & d2 [15:0] $end
$var wire 16 ' d1 [15:0] $end
$upscope $end
$upscope $end
$upscope $end
$upscope $end
$scope module macc_tb $end
$var wire 1 ! clk $end
$var wire 64 ( din1 [63:0] $end
$var wire 64 ) din2 [63:0] $end
$var wire 1 * en $end
$var wire 1 + last $end
$var wire 1 , rst $end
$var wire 1 - dout_valid $end
$var wire 32 . dout [31:0] $end
$scope module macc_inst $end
$var wire 1 ! clk $end
$var wire 64 / din1 [63:0] $end
$var wire 64 0 din2 [63:0] $end
$var wire 1 * en $end
$var wire 1 + last $end
$var wire 1 , rst $end
$var wire 20 1 madd_out [19:0] $end
$var wire 1 - dout_valid $end
$var wire 32 2 dout [31:0] $end
$var wire 3 3 d_control [2:0] $end
$scope module delay_inst $end
$var wire 1 ! clk $end
$var wire 3 4 din [2:0] $end
$var wire 3 5 dout [2:0] $end
$scope begin loop[0] $end
$var reg 3 6 d_din [2:0] $end
$scope begin genblk2 $end
$upscope $end
$upscope $end
$scope begin loop[1] $end
$var reg 3 7 d_din [2:0] $end
$scope begin genblk3 $end
$upscope $end
$upscope $end
$scope begin loop[2] $end
$var reg 3 8 d_din [2:0] $end
$scope begin genblk3 $end
$upscope $end
$upscope $end
$scope begin loop[3] $end
$var reg 3 9 d_din [2:0] $end
$scope begin genblk3 $end
$upscope $end
$upscope $end
$upscope $end
$scope module mult_add_inst $end
$var wire 1 ! clk $end
$var wire 64 : din1 [63:0] $end
$var wire 64 ; din2 [63:0] $end
$var wire 1 , rst $end
$var wire 72 < mult_sized [71:0] $end
$var wire 128 = mult_out [127:0] $end
$var wire 20 > dout [19:0] $end
$scope module adder_tree_inst $end
$var wire 1 ! clk $end
$var wire 20 ? dout [19:0] $end
$var wire 72 @ din [71:0] $end
$scope begin genblk2 $end
$var wire 38 A result [37:0] $end
$scope module add_pairs_inst $end
$var wire 1 ! clk $end
$var wire 38 B dout [37:0] $end
$var wire 72 C din [71:0] $end
$scope begin genblk1[0] $end
$scope module add_inst $end
$var wire 1 ! clk $end
$var wire 18 D din_a [17:0] $end
$var wire 18 E din_b [17:0] $end
$var wire 19 F dout [18:0] $end
$var reg 19 G dout_r [18:0] $end
$upscope $end
$upscope $end
$scope begin genblk1[1] $end
$scope module add_inst $end
$var wire 1 ! clk $end
$var wire 18 H din_a [17:0] $end
$var wire 18 I din_b [17:0] $end
$var wire 19 J dout [18:0] $end
$var reg 19 K dout_r [18:0] $end
$upscope $end
$upscope $end
$upscope $end
$scope module adder_tree_inst $end
$var wire 1 ! clk $end
$var wire 38 L din [37:0] $end
$var wire 20 M dout [19:0] $end
$scope begin genblk1 $end
$scope module add_inst $end
$var wire 1 ! clk $end
$var wire 19 N din_a [18:0] $end
$var wire 19 O din_b [18:0] $end
$var wire 20 P dout [19:0] $end
$var reg 20 Q dout_r [19:0] $end
$upscope $end
$upscope $end
$upscope $end
$upscope $end
$upscope $end
$scope module downsize_inst $end
$var wire 1 ! clk $end
$var wire 72 R dout [71:0] $end
$var wire 128 S din [127:0] $end
$var reg 72 T r_dout [71:0] $end
$var integer 32 U i [31:0] $end
$upscope $end
$scope module parallel_mult_inst $end
$scope begin genblk1[0] $end
$scope module sing_mult $end
$var wire 1 ! clk $end
$var wire 16 V din1 [15:0] $end
$var wire 16 W din2 [15:0] $end
$var wire 32 X dout [31:0] $end
$var reg 32 Y full_mult [31:0] $end
$upscope $end
$upscope $end
$scope begin genblk1[1] $end
$scope module sing_mult $end
$var wire 1 ! clk $end
$var wire 16 Z din1 [15:0] $end
$var wire 16 [ din2 [15:0] $end
$var wire 32 \ dout [31:0] $end
$var reg 32 ] full_mult [31:0] $end
$upscope $end
$upscope $end
$scope begin genblk1[2] $end
$scope module sing_mult $end
$var wire 1 ! clk $end
$var wire 16 ^ din1 [15:0] $end
$var wire 16 _ din2 [15:0] $end
$var wire 32 ` dout [31:0] $end
$var reg 32 a full_mult [31:0] $end
$upscope $end
$upscope $end
$scope begin genblk1[3] $end
$scope module sing_mult $end
$var wire 1 ! clk $end
$var wire 16 b din1 [15:0] $end
$var wire 16 c din2 [15:0] $end
$var wire 32 d dout [31:0] $end
$var reg 32 e full_mult [31:0] $end
$upscope $end
$upscope $end
$upscope $end
$upscope $end
$scope module sig_acc $end
$var wire 1 ! clk $end
$var wire 20 f din [19:0] $end
$var wire 32 g dout [31:0] $end
$var wire 1 - dout_valid $end
$var wire 1 h en $end
$var wire 1 i last $end
$var wire 1 j rst $end
$var wire 32 k align_din [31:0] $end
$var wire 32 l acc_combo [31:0] $end
$var reg 32 m acc_mem [31:0] $end
$var reg 32 n d_acc_combo [31:0] $end
$var reg 1 o flag $end
$var reg 32 p r_dout [31:0] $end
$var reg 1 q valid $end
$scope begin genblk1 $end
$upscope $end
$upscope $end
$upscope $end
$upscope $end
$enddefinitions $end
#0
$dumpvars
0q
b0 p
0o
b0 n
b0 m
b0 l
b0 k
xj
xi
xh
b0 g
b0 f
b11110011000010100011001001100110 e
b11110011000010100011001001100110 d
b1111000011000011 c
b1110001001011101 b
b101100000111101101000100 a
b101100000111101101000100 `
b1100100001110001 _
b1111111111111101 ^
b11111111111111101110010000111000 ]
b11111111111111101110010000111000 \
b1110010011100010 [
b1011011110001 Z
b11111001111000010100100001001010 Y
b11111001111000010100100001001010 X
b11010001101101 W
b10011011100000 V
b100 U
b0 T
b11110011000010100011001001100110000000001011000001111011010001001111111111111110111001000011100011111001111000010100100001001010 S
b0 R
b0 Q
b0 P
b0 O
b0 N
b0 M
b0 L
b0 K
b0 J
b0 I
b0 H
b0 G
b0 F
b0 E
b0 D
b0 C
b0 B
b0 A
b0 @
b0 ?
b0 >
b11110011000010100011001001100110000000001011000001111011010001001111111111111110111001000011100011111001111000010100100001001010 =
b0 <
b1111000011000011110010000111000111100100111000100011010001101101 ;
b1110001001011101111111111111110100010110111100010010011011100000 :
bx 9
bx 8
bx 7
b100 6
bx 5
b100 4
bx 3
b0 2
b0 1
b1111000011000011110010000111000111100100111000100011010001101101 0
b1110001001011101111111111111110100010110111100010010011011100000 /
b0 .
0-
0,
0+
1*
b1111000011000011110010000111000111100100111000100011010001101101 )
b1110001001011101111111111111110100010110111100010010011011100000 (
b1011011110001 '
b1110010011100010 &
b11110011000010100011001001100110000000001011000001111011010001001111111111111110111001000011100011111001111000010100100001001010 %
b11111111111111101110010000111000 $
b1111000011000011110010000111000111100100111000100011010001101101 #
b1110001001011101111111111111110100010110111100010010011011100000 "
1!
$end
#5
0!
#10
b1100001100110000 V
b11011100110001 Z
b1111100111100000 ^
b1101101101010001 b
b11011100110001 '
b11000110100 W
b1101110101111011 [
b11100110011101 _
b110011011110 c
b1101110101111011 &
b1101101101010001111110011110000000110111001100011100001100110000 "
b1101101101010001111110011110000000110111001100011100001100110000 (
b1101101101010001111110011110000000110111001100011100001100110000 /
b1101101101010001111110011110000000110111001100011100001100110000 :
b110011011110001110011001110111011101011110110000011000110100 #
b110011011110001110011001110111011101011110110000011000110100 )
b110011011110001110011001110111011101011110110000011000110100 0
b110011011110001110011001110111011101011110110000011000110100 ;
b111100110000101000 I
b1011000001 H
b111111111111111011 E
b111110011110000101 D
b100 7
b111100110000101000000000001011000001111111111111111011111110011110000101 <
b111100110000101000000000001011000001111111111111111011111110011110000101 @
b111100110000101000000000001011000001111111111111111011111110011110000101 C
b111100110000101000000000001011000001111111111111111011111110011110000101 R
b111100110000101000000000001011000001111111111111111011111110011110000101 T
b11111101100100011110010011000010 $
b1110000111001110011010111 d
b1010011010101101 `
b11111101100100011110010011000010 \
b1110000111001110011010111000000000000000010100110101011011111110110010001111001001100001000000111111101100000110101100000 %
b1110000111001110011010111000000000000000010100110101011011111110110010001111001001100001000000111111101100000110101100000 =
b1110000111001110011010111000000000000000010100110101011011111110110010001111001001100001000000111111101100000110101100000 S
b111111101100000110101100000 X
b100 U
b1110000111001110011010111 e
b1010011010101101 a
b11111101100100011110010011000010 ]
b111111101100000110101100000 Y
1!
#15
0!
#20
b10000000001101 V
b1011111111 Z
b1101000100001100 ^
b11010001011110 b
b1011111111 '
b1111111011010010 W
b1101101000111001 [
b1111101111100000 _
b1010110100010 c
b1101101000111001 &
b11010001011110110100010000110000000010111111110010000000001101 "
b11010001011110110100010000110000000010111111110010000000001101 (
b11010001011110110100010000110000000010111111110010000000001101 /
b11010001011110110100010000110000000010111111110010000000001101 :
b1010110100010111110111110000011011010001110011111111011010010 #
b1010110100010111110111110000011011010001110011111111011010010 )
b1010110100010111110111110000011011010001110011111111011010010 0
b1010110100010111110111110000011011010001110011111111011010010 ;
b11100001110 I
b10 H
b111111011001000111 E
b1111111011000 D
b1111110011110000000 N
b1111100111011101001 O
b11100001110000000000000000010111111011001000111000001111111011000 <
b11100001110000000000000000010111111011001000111000001111111011000 @
b11100001110000000000000000010111111011001000111000001111111011000 C
b11100001110000000000000000010111111011001000111000001111111011000 R
b11100001110000000000000000010111111011001000111000001111111011000 T
b1111110011110000000 F
b1111110011110000000 G
b11111001110111010011111110011110000000 A
b11111001110111010011111110011110000000 B
b11111001110111010011111110011110000000 L
b1111100111011101001 J
b1111100111011101001 K
b100 8
b11111000100011101101000110001011 $
b11111110100001101100010111000000 X
b11111000100011101101000110001011 \
b11111110100111110001111001100000 `
b11111110001001111111110000111110111111101001111100011110011000001111100010001110110100011000101111111110100001101100010111000000 %
b11111110001001111111110000111110111111101001111100011110011000001111100010001110110100011000101111111110100001101100010111000000 =
b11111110001001111111110000111110111111101001111100011110011000001111100010001110110100011000101111111110100001101100010111000000 S
b11111110001001111111110000111110 d
b11111110100001101100010111000000 Y
b11111000100011101101000110001011 ]
b11111110100111110001111001100000 a
b11111110001001111111110000111110 e
b100 U
1!
#25
0!
#30
b10101101000000 V
b1110111011010110 Z
b1111110100011100 ^
b1110111110101011 b
b1110111011010110 '
b1110001101010110 W
b100101001011 [
b1110100000110001 _
b10001001100011 c
b100101001011 &
b1110111110101011111111010001110011101110110101100010101101000000 "
b1110111110101011111111010001110011101110110101100010101101000000 (
b1110111110101011111111010001110011101110110101100010101101000000 /
b1110111110101011111111010001110011101110110101100010101101000000 :
b10001001100011111010000011000100001001010010111110001101010110 #
b10001001100011111010000011000100001001010010111110001101010110 )
b10001001100011111010000011000100001001010010111110001101010110 0
b10001001100011111010000011000100001001010010111110001101010110 ;
0i
0j
1h
b11111110110110011010010000000000 l
b11111110110110011010010000000000 k
b11100010000 O
b1011000011111 N
b111111100010011111 I
b111111101001111100 H
b111110001000111011 E
b111111101000011011 D
b100 3
b100 5
b100 9
b11111011011001101001 1
b11111011011001101001 >
b11111011011001101001 ?
b11111011011001101001 M
b11111011011001101001 P
b11111011011001101001 Q
b11111011011001101001 f
b11100010000 J
b11100010000 K
b111000100000000001011000011111 A
b111000100000000001011000011111 B
b111000100000000001011000011111 L
b1011000011111 F
b1011000011111 G
b111111100010011111111111101001111100111110001000111011111111101000011011 <
b111111100010011111111111101001111100111110001000111011111111101000011011 @
b111111100010011111111111101001111100111110001000111011111111101000011011 C
b111111100010011111111111101001111100111110001000111011111111101000011011 R
b111111100010011111111111101001111100111110001000111011111111101000011011 T
b11111111100011101101000011000111 $
b100011011001101100101111100 d
b110000011010111010000000 `
b11111111100011101101000011000111 \
b100011011001101100101111100000000001100000110101110100000001111111110001110110100001100011111111111110110100011000010101010 %
b100011011001101100101111100000000001100000110101110100000001111111110001110110100001100011111111111110110100011000010101010 =
b100011011001101100101111100000000001100000110101110100000001111111110001110110100001100011111111111110110100011000010101010 S
b11111111110110100011000010101010 X
b100 U
b100011011001101100101111100 e
b110000011010111010000000 a
b11111111100011101101000011000111 ]
b11111111110110100011000010101010 Y
1!
#35
0!
#40
b1110111101101000 V
b1010000100101 Z
b1110110100101111 ^
b1111100111110111 b
b1010000100101 '
b11010000000101 W
b1111010011011101 [
b1110000010010 _
b1111101011000100 c
b1111010011011101 &
b1111100111110111111011010010111100010100001001011110111101101000 "
b1111100111110111111011010010111100010100001001011110111101101000 (
b1111100111110111111011010010111100010100001001011110111101101000 /
b1111100111110111111011010010111100010100001001011110111101101000 :
b1111101011000100000111000001001011110100110111010011010000000101 #
b1111101011000100000111000001001011110100110111010011010000000101 )
b1111101011000100000111000001001011110100110111010011010000000101 0
b1111101011000100000111000001001011110100110111010011010000000101 ;
b1000110110011 I
b1100000110 H
b111111111000111011 E
b111111111101101000 D
b1111101110001010110 N
b1111111001100011011 O
b11101001011110000000000 k
b1000110110011000000001100000110111111111000111011111111111101101000 <
b1000110110011000000001100000110111111111000111011111111111101101000 @
b1000110110011000000001100000110111111111000111011111111111101101000 C
b1000110110011000000001100000110111111111000111011111111111101101000 R
b1000110110011000000001100000110111111111000111011111111111101101000 T
b1111101110001010110 F
b1111101110001010110 G
b11111110011000110111111101110001010110 A
b11111110011000110111111101110001010110 B
b11111110011000110111111101110001010110 L
b1111111001100011011 J
b1111111001100011011 K
b1110100101111 1
b1110100101111 >
b1110100101111 ?
b1110100101111 M
b1110100101111 P
b1110100101111 Q
b1110100101111 f
b11111110110110011010010000000000 n
b11111111010011100110000000000000 l
b11111110110110011010010000000000 m
b11111111011000000111111010110010 $
b11111011001010000100011110000000 X
b11111111011000000111111010110010 \
b10001001101001001011100 `
b11111101110011100110010100100001000000000100010011010010010111001111111101100000011111101011001011111011001010000100011110000000 %
b11111101110011100110010100100001000000000100010011010010010111001111111101100000011111101011001011111011001010000100011110000000 =
b11111101110011100110010100100001000000000100010011010010010111001111111101100000011111101011001011111011001010000100011110000000 S
b11111101110011100110010100100001 d
b11111011001010000100011110000000 Y
b11111111011000000111111010110010 ]
b10001001101001001011100 a
b11111101110011100110010100100001 e
b100 U
1!
#45
0!
#50
b1111011010010111 V
b1111011000010001 Z
b1111011011100 ^
b1101011100011010 b
b1111011000010001 '
b1100000000101111 W
b1111010100011011 [
b1011101110 _
b1000100110011 c
b1111010100011011 &
b1101011100011010000111101101110011110110000100011111011010010111 "
b1101011100011010000111101101110011110110000100011111011010010111 (
b1101011100011010000111101101110011110110000100011111011010010111 /
b1101011100011010000111101101110011110110000100011111011010010111 :
b1000100110011000000101110111011110101000110111100000000101111 #
b1000100110011000000101110111011110101000110111100000000101111 )
b1000100110011000000101110111011110101000110111100000000101111 0
b1000100110011000000101110111011110101000110111100000000101111 ;
b11111111001111011100010000000000 k
b1010010111001 O
b1111111110110100011 N
b111111011100111001 I
b100010011 H
b111111110110000001 E
b111110110010100001 D
b11111110100011000010010000000000 l
b11111111010011100110000000000000 m
b11111111010011100110000000000000 n
b11111100111101110001 1
b11111100111101110001 >
b11111100111101110001 ?
b11111100111101110001 M
b11111100111101110001 P
b11111100111101110001 Q
b11111100111101110001 f
b1010010111001 J
b1010010111001 K
b10100101110011111111110110100011 A
b10100101110011111111110110100011 B
b10100101110011111111110110100011 L
b1111111110110100011 F
b1111111110110100011 G
b111111011100111001000000000100010011111111110110000001111110110010100001 <
b111111011100111001000000000100010011111111110110000001111110110010100001 @
b111111011100111001000000000100010011111111110110000001111110110010100001 C
b111111011100111001000000000100010011111111110110000001111110110010100001 R
b111111011100111001000000000100010011111111110110000001111110110010100001 T
b11111111000111111010011111110001 $
b111111001011100011100 d
b11111101111011111101000101001110 `
b11111111000111111010011111110001 \
b111111001011100011100111111011110111111010001010011101111111100011111101001111111000111111100101000001100110100001000 %
b111111001011100011100111111011110111111010001010011101111111100011111101001111111000111111100101000001100110100001000 =
b111111001011100011100111111011110111111010001010011101111111100011111101001111111000111111100101000001100110100001000 S
b11111100101000001100110100001000 X
b100 U
b111111001011100011100 e
b11111101111011111101000101001110 a
b11111111000111111010011111110001 ]
b11111100101000001100110100001000 Y
1!
#55
0!
#60
b1100100011011 V
b1100011101 Z
b1101011001101 ^
b1100101111010000 b
b1100011101 '
b1110011110001001 W
b1100011011001101 [
b1011101101001 _
b11101001001100 c
b1100011011001101 &
b1100101111010000000110101100110100000011000111010001100100011011 "
b1100101111010000000110101100110100000011000111010001100100011011 (
b1100101111010000000110101100110100000011000111010001100100011011 /
b1100101111010000000110101100110100000011000111010001100100011011 :
b11101001001100000101110110100111000110110011011110011110001001 #
b11101001001100000101110110100111000110110011011110011110001001 )
b11101001001100000101110110100111000110110011011110011110001001 0
b11101001001100000101110110100111000110110011011110011110001001 ;
b1111110 I
b111111011110111111 H
b111111110001111110 E
b111111001010000011 D
b1111110101000100010 N
b1111111100001001100 O
b10010010111000000000000 k
b1111110111111011110111111111111110001111110111111001010000011 <
b1111110111111011110111111111111110001111110111111001010000011 @
b1111110111111011110111111111111110001111110111111001010000011 C
b1111110111111011110111111111111110001111110111111001010000011 R
b1111110111111011110111111111111110001111110111111001010000011 T
b1111110101000100010 F
b1111110101000100010 G
b11111111000010011001111110101000100010 A
b11111111000010011001111110101000100010 B
b11111111000010011001111110101000100010 L
b1111111100001001100 J
b1111111100001001100 K
b1001001011100 1
b1001001011100 >
b1001001011100 ?
b1001001011100 M
b1001001011100 P
b1001001011100 Q
b1001001011100 f
b11111110100011000010010000000000 n
b11111110110101011001010000000000 l
b11111110100011000010010000000000 m
b11011000011100011001011 $
b10010110001000010110111001 X
b11011000011100011001011 \
b10110100110100010001000 `
b11111101010000001001010000101110000000000101101001101000100010000000000001101100001110001100101100000010010110001000010110111001 %
b11111101010000001001010000101110000000000101101001101000100010000000000001101100001110001100101100000010010110001000010110111001 =
b11111101010000001001010000101110000000000101101001101000100010000000000001101100001110001100101100000010010110001000010110111001 S
b11111101010000001001010000101110 d
b10010110001000010110111001 Y
b11011000011100011001011 ]
b10110100110100010001000 a
b11111101010000001001010000101110 e
b100 U
1!
#65
0!
#70
b11100011110111 V
b11101110000100 Z
b1101111000011001 ^
b101111011010 b
b11101110000100 '
b1101000011001001 W
b10101110110101 [
b1111110001110110 _
b10110010011000 c
b10101110110101 &
b101111011010110111100001100100111011100001000011100011110111 "
b101111011010110111100001100100111011100001000011100011110111 (
b101111011010110111100001100100111011100001000011100011110111 /
b101111011010110111100001100100111011100001000011100011110111 :
b10110010011000111111000111011000101011101101011101000011001001 #
b10110010011000111111000111011000101011101101011101000011001001 )
b10110010011000111111000111011000101011101101011101000011001001 0
b10110010011000111111000111011000101011101101011101000011001001 ;
b11111111100010011011100000000000 k
b1111111100000111101 O
b1111110111100000001 N
b111111010100000010 I
b101101001 H
b110110000 E
b100101100010 D
b11111110010111110100110000000000 l
b11111110110101011001010000000000 m
b11111110110101011001010000000000 n
b11111110001001101110 1
b11111110001001101110 >
b11111110001001101110 ?
b11111110001001101110 M
b11111110001001101110 P
b11111110001001101110 Q
b11111110001001101110 f
b1111111100000111101 J
b1111111100000111101 K
b11111111000001111011111110111100000001 A
b11111111000001111011111110111100000001 B
b11111111000001111011111110111100000001 L
b1111110111100000001 F
b1111110111100000001 G
b111111010100000010000000000101101001000000000110110000000000100101100010 <
b111111010100000010000000000101101001000000000110110000000000100101100010 @
b111111010100000010000000000101101001000000000110110000000000100101100010 C
b111111010100000010000000000101101001000000000110110000000000100101100010 R
b111111010100000010000000000101101001000000000110110000000000100101100010 T
b11111111010011011110110000111001 $
b11110100000111011010000111000000 d
b10011100110110100100010101 `
b11111111010011011110110000111001 \
b11110100000111011010000111000000000000100111001101101001000101011111111101001101111011000011100111111101100110011100110001110011 %
b11110100000111011010000111000000000000100111001101101001000101011111111101001101111011000011100111111101100110011100110001110011 =
b11110100000111011010000111000000000000100111001101101001000101011111111101001101111011000011100111111101100110011100110001110011 S
b11111101100110011100110001110011 X
b100 U
b11110100000111011010000111000000 e
b10011100110110100100010101 a
b11111111010011011110110000111001 ]
b11111101100110011100110001110011 Y
1!
#75
0!
#80
b1111111000110000 V
b1111011110100 Z
b1111101101000100 ^
b1110011110000101 b
b1111011110100 '
b1110011001110101 W
b1110100110000111 [
b1110101111111010 _
b1101000110000110 c
b1110100110000111 &
b1110011110000101111110110100010000011110111101001111111000110000 "
b1110011110000101111110110100010000011110111101001111111000110000 (
b1110011110000101111110110100010000011110111101001111111000110000 /
b1110011110000101111110110100010000011110111101001111111000110000 :
b1101000110000110111010111111101011101001100001111110011001110101 #
b1101000110000110111010111111101011101001100001111110011001110101 )
b1101000110000110111010111111101011101001100001111110011001110101 0
b1101000110000110111010111111101011101001100001111110011001110101 ;
b111101000001110110 I
b100111001101 H
b111111110100110111 E
b111111011001100111 D
b101100010010 N
b1111111011001101011 O
b11111111100111001111100000000000 k
b111101000001110110000000100111001101111111110100110111111111011001100111 <
b111101000001110110000000100111001101111111110100110111111111011001100111 @
b111101000001110110000000100111001101111111110100110111111111011001100111 C
b111101000001110110000000100111001101111111110100110111111111011001100111 R
b111101000001110110000000100111001101111111110100110111111111011001100111 T
b101100010010 F
b101100010010 G
b11111110110011010110000000101100010010 A
b11111110110011010110000000101100010010 B
b11111110110011010110000000101100010010 L
b1111111011001101011 J
b1111111011001101011 K
b11111110011100111110 1
b11111110011100111110 >
b11111110011100111110 ?
b11111110011100111110 M
b11111110011100111110 P
b11111110011100111110 Q
b11111110011100111110 f
b11111110010111110100110000000000 n
b11111101111111000100010000000000 l
b11111110010111110100110000000000 m
b1010001010010100000001010100 $
b11110101011111100110100111101111 X
b1010001010010100000001010100 \
b11101111111101110000110 `
b10000100001000000101110000000000000111011111111011100001100000101000101001010000000101010011110101011111100110100111101111 %
b10000100001000000101110000000000000111011111111011100001100000101000101001010000000101010011110101011111100110100111101111 =
b10000100001000000101110000000000000111011111111011100001100000101000101001010000000101010011110101011111100110100111101111 S
b10000100001000000101110000 d
b11110101011111100110100111101111 Y
b1010001010010100000001010100 ]
b11101111111101110000110 a
b10000100001000000101110000 e
b100 U
1!
#85
0!
#90
b10001100101111 V
b1111100101011101 Z
b1111010100011100 ^
b1101010100110000 b
b1111100101011101 '
b10001110011100 W
b1111101011110110 [
b1011011101 _
b10010111110000 c
b1111101011110110 &
b1101010100110000111101010001110011111001010111010010001100101111 "
b1101010100110000111101010001110011111001010111010010001100101111 (
b1101010100110000111101010001110011111001010111010010001100101111 /
b1101010100110000111101010001110011111001010111010010001100101111 :
b10010111110000000000101101110111111010111101100010001110011100 #
b10010111110000000000101101110111111010111101100010001110011100 )
b10010111110000000000101101110111111010111101100010001110011100 0
b10010111110000000000101101110111111010111101100010001110011100 ;
b1011111010000000000 k
b1111101101001000011 O
b1111111001110011110 N
b100001000010 I
b111011111 H
b10100010100101 E
b111101010111111001 D
b11111110000000100011100000000000 l
b11111101111111000100010000000000 m
b11111101111111000100010000000000 n
b101111101 1
b101111101 >
b101111101 ?
b101111101 M
b101111101 P
b101111101 Q
b101111101 f
b1111101101001000011 J
b1111101101001000011 K
b11111011010010000111111111001110011110 A
b11111011010010000111111111001110011110 B
b11111011010010000111111111001110011110 L
b1111111001110011110 F
b1111111001110011110 G
b100001000010000000000111011111000010100010100101111101010111111001 <
b100001000010000000000111011111000010100010100101111101010111111001 @
b100001000010000000000111011111000010100010100101111101010111111001 C
b100001000010000000000111011111000010100010100101111101010111111001 R
b100001000010000000000111011111000010100010100101111101010111111001 T
b11111101010010000110011010101100 $
b100011100011100010010011110 d
b10111101100110001101000 `
b11111101010010000110011010101100 \
b100011100011100010010011110000000000101111011001100011010001111110101001000011001101010110000000000001011100100101111110000 %
b100011100011100010010011110000000000101111011001100011010001111110101001000011001101010110000000000001011100100101111110000 =
b100011100011100010010011110000000000101111011001100011010001111110101001000011001101010110000000000001011100100101111110000 S
b1011100100101111110000 X
b100 U
b100011100011100010010011110 e
b10111101100110001101000 a
b11111101010010000110011010101100 ]
b1011100100101111110000 Y
1!
#95
0!
#100
b11100000110100 V
b10011001110110 Z
b1011001100011 ^
b11000110010010 b
b10011001110110 '
b1111110011100110 W
b1110001101100111 [
b11000000010110 _
b1100010100110101 c
b1110001101100111 &
b11000110010010000101100110001100100110011101100011100000110100 "
b11000110010010000101100110001100100110011101100011100000110100 (
b11000110010010000101100110001100100110011101100011100000110100 /
b11000110010010000101100110001100100110011101100011100000110100 :
b1100010100110101001100000001011011100011011001111111110011100110 #
b1100010100110101001100000001011011100011011001111111110011100110 )
b1100010100110101001100000001011011100011011001111111110011100110 0
b1100010100110101001100000001011011100011011001111111110011100110 ;
b1000111000111 I
b101111011 H
b111111010100100001 E
b10111001 D
b1111111111010011110 N
b101000100001 O
b11111111001101111000010000000000 k
b1000111000111000000000101111011111111010100100001000000000010111001 <
b1000111000111000000000101111011111111010100100001000000000010111001 @
b1000111000111000000000101111011111111010100100001000000000010111001 C
b1000111000111000000000101111011111111010100100001000000000010111001 R
b1000111000111000000000101111011111111010100100001000000000010111001 T
b1111111111010011110 F
b1111111111010011110 G
b1010001000011111111111010011110 A
b1010001000011111111111010011110 B
b1010001000011111111111010011110 L
b101000100001 J
b101000100001 K
b11111100110111100001 1
b11111100110111100001 >
b11111100110111100001 ?
b11111100110111100001 M
b11111100110111100001 P
b11111100110111100001 Q
b11111100110111100001 f
b11111110000000100011100000000000 n
b11111101001110011011110000000000 l
b11111110000000100011100000000000 m
b1000010111000101011110 $
b100111001001101110110100100 X
b1000010111000101011110 \
b11111111111000001101000100101100 `
b11111001101001111100110100000000111111111110000011010001001011000000000000100001011100010101111000000100111001001101110110100100 %
b11111001101001111100110100000000111111111110000011010001001011000000000000100001011100010101111000000100111001001101110110100100 =
b11111001101001111100110100000000111111111110000011010001001011000000000000100001011100010101111000000100111001001101110110100100 S
b11111001101001111100110100000000 d
b100111001001101110110100100 Y
b1000010111000101011110 ]
b11111111111000001101000100101100 a
b11111001101001111100110100000000 e
b100 U
1!
#105
0!
#110
b1010001010001 V
b1101001011010110 Z
b1101111001110 ^
b10010111111100 b
b1101001011010110 '
b1111011011000000 W
b10100000001010 [
b1110110110110101 _
b1100100011011110 c
b10100000001010 &
b10010111111100000110111100111011010010110101100001010001010001 "
b10010111111100000110111100111011010010110101100001010001010001 (
b10010111111100000110111100111011010010110101100001010001010001 /
b10010111111100000110111100111011010010110101100001010001010001 :
b1100100011011110111011011011010100101000000010101111011011000000 #
b1100100011011110111011011011010100101000000010101111011011000000 )
b1100100011011110111011011011010100101000000010101111011011000000 0
b1100100011011110111011011011010100101000000010101111011011000000 ;
b1000101111110000000000 k
b1001101000010 O
b1111111010111011010 N
b111110011010011111 I
b111111111110000011 H
b10000101 E
b1001110010011 D
b11111101010111001011100000000000 l
b11111101001110011011110000000000 m
b11111101001110011011110000000000 n
b100010111111 1
b100010111111 >
b100010111111 ?
b100010111111 M
b100010111111 P
b100010111111 Q
b100010111111 f
b1001101000010 J
b1001101000010 K
b10011010000101111111010111011010 A
b10011010000101111111010111011010 B
b10011010000101111111010111011010 L
b1111111010111011010 F
b1111111010111011010 G
b111110011010011111111111111110000011000000000010000101000001001110010011 <
b111110011010011111111111111110000011000000000010000101000001001110010011 @
b111110011010011111111111111110000011000000000010000101000001001110010011 C
b111110011010011111111111111110000011000000000010000101000001001110010011 R
b111110011010011111111111111110000011000000000010000101000001001110010011 T
b11111011101101000001101101111010 $
b11110100100111011001110100111010 d
b100001101000111110010000010 `
b11111011101101000001101101111010 \
b11110100100111011001110100111010000001000011010001111100100000101111101110110100000110110111101011111111010100011010111010111000 %
b11110100100111011001110100111010000001000011010001111100100000101111101110110100000110110111101011111111010100011010111010111000 =
b11110100100111011001110100111010000001000011010001111100100000101111101110110100000110110111101011111111010100011010111010111000 S
b11111111010100011010111010111000 X
b100 U
b11110100100111011001110100111010 e
b100001101000111110010000010 a
b11111011101101000001101101111010 ]
b11111111010100011010111010111000 Y
1!
#115
0!
