dsp/delay/sim.vcd
$date
	Fri Nov 13 23:56:52 2020
$end
$version
	Icarus Verilog
$end
$timescale
	1s
$end
$scope module delay_tb $end
$var wire 8 ! dout [7:0] $end
$var reg 1 " clk $end
$var reg 8 # din [7:0] $end
$var integer 32 $ i [31:0] $end
$scope module delay_inst $end
$var wire 1 " clk $end
$var wire 8 % din [7:0] $end
$var wire 8 & dout [7:0] $end
$scope begin loop[0] $end
$var reg 8 ' d_din [7:0] $end
$scope begin genblk2 $end
$upscope $end
$upscope $end
$scope begin loop[1] $end
$var reg 8 ( d_din [7:0] $end
$scope begin genblk3 $end
$upscope $end
$upscope $end
$scope begin loop[2] $end
$var reg 8 ) d_din [7:0] $end
$scope begin genblk3 $end
$upscope $end
$upscope $end
$upscope $end
$upscope $end
$enddefinitions $end
#0
$dumpvars
bx )
bx (
b1 '
bx &
b1 %
bx $
b1 #
0"
bx !
$end
#5
b1 (
b0 $
1"
#10
0"
#15
b1 !
b1 &
b1 )
1"
b1 $
#20
0"
#25
1"
b10 $
#30
0"
#35
1"
b11 $
#40
0"
#45
1"
b100 $
#50
0"
#55
b1010 '
1"
b1010 #
b1010 %
b0 $
#60
0"
#65
b1010 (
1"
b1 $
#70
0"
#75
b1010 !
b1010 &
b1010 )
1"
b10 $
#80
0"
#85
1"
b11 $
#90
0"
#95
1"
b100 $
#100
0"
#105
b0 '
1"
b0 #
b0 %
b0 $
#110
0"
#115
b1 '
b0 (
1"
b1 #
b1 %
b1 $
#120
0"
#125
b0 !
b0 &
b0 )
b1 (
b10 '
1"
b10 #
b10 %
b10 $
#130
0"
#135
b11 '
b10 (
b1 !
b1 &
b1 )
1"
b11 #
b11 %
b11 $
#140
0"
#145
b10 !
b10 &
b10 )
b11 (
b100 '
1"
b100 #
b100 %
b100 $
#150
0"
#155
b101 '
b100 (
b11 !
b11 &
b11 )
1"
b101 #
b101 %
b101 $
#160
0"
#165
b100 !
b100 &
b100 )
b101 (
b110 '
1"
b110 #
b110 %
b110 $
#170
0"
#175
b111 '
b110 (
b101 !
b101 &
b101 )
1"
b111 #
b111 %
b111 $
#180
0"
#185
b110 !
b110 &
b110 )
b111 (
b1000 '
1"
b1000 #
b1000 %
b1000 $
#190
0"
#195
b1001 '
b1000 (
b111 !
b111 &
b111 )
1"
b1001 #
b1001 %
b1001 $
#200
0"
#205
b1000 !
b1000 &
b1000 )
b1001 (
b1010 '
1"
b1010 #
b1010 %
b1010 $
#210
0"
#215
b1011 '
b1010 (
b1001 !
b1001 &
b1001 )
1"
b1011 #
b1011 %
b1011 $
#220
0"
#225
b1010 !
b1010 &
b1010 )
b1011 (
b1100 '
1"
b1100 #
b1100 %
b1100 $
#230
0"
#235
b1101 '
b1100 (
b1011 !
b1011 &
b1011 )
1"
b1101 #
b1101 %
b1101 $
#240
0"
#245
b1100 !
b1100 &
b1100 )
b1101 (
b1110 '
1"
b1110 #
b1110 %
b1110 $
#250
0"
#255
b1111 '
b1110 (
b1101 !
b1101 &
b1101 )
1"
b1111 #
b1111 %
b1111 $
#260
0"
#265
b1110 !
b1110 &
b1110 )
b1111 (
b10000 '
1"
b10000 #
b10000 %
b10000 $
#270
0"
#275
b10001 '
b10000 (
b1111 !
b1111 &
b1111 )
1"
b10001 #
b10001 %
b10001 $
#280
0"
#285
b10000 !
b10000 &
b10000 )
b10001 (
b10010 '
1"
b10010 #
b10010 %
b10010 $
#290
0"
#295
b10011 '
b10010 (
b10001 !
b10001 &
b10001 )
1"
b10011 #
b10011 %
b10011 $
#300
0"
#305
b10010 !
b10010 &
b10010 )
b10011 (
b10100 '
1"
b10100 #
b10100 %
b10100 $
#310
0"
#315
b10101 '
b10100 (
b10011 !
b10011 &
b10011 )
1"
b10101 #
b10101 %
b10101 $
#320
0"
#325
b10100 !
b10100 &
b10100 )
b10101 (
b10110 '
1"
b10110 #
b10110 %
b10110 $
#330
0"
#335
b10111 '
b10110 (
b10101 !
b10101 &
b10101 )
1"
b10111 #
b10111 %
b10111 $
#340
0"
#345
b10110 !
b10110 &
b10110 )
b10111 (
b11000 '
1"
b11000 #
b11000 %
b11000 $
#350
0"
#355
b11001 '
b11000 (
b10111 !
b10111 &
b10111 )
1"
b11001 #
b11001 %
b11001 $
#360
0"
#365
b11000 !
b11000 &
b11000 )
b11001 (
b11010 '
1"
b11010 #
b11010 %
b11010 $
#370
0"
#375
b11011 '
b11010 (
b11001 !
b11001 &
b11001 )
1"
b11011 #
b11011 %
b11011 $
#380
0"
#385
b11010 !
b11010 &
b11010 )
b11011 (
b11100 '
1"
b11100 #
b11100 %
b11100 $
#390
0"
#395
b11101 '
b11100 (
b11011 !
b11011 &
b11011 )
1"
b11101 #
b11101 %
b11101 $
#400
0"
#405
b11100 !
b11100 &
b11100 )
b11101 (
b11110 '
1"
b11110 #
b11110 %
b11110 $
#410
0"
#415
b11111 '
b11110 (
b11101 !
b11101 &
b11101 )
1"
b11111 #
b11111 %
b11111 $
#420
0"
#425
b11110 !
b11110 &
b11110 )
b11111 (
b100000 '
1"
b100000 #
b100000 %
b100000 $
#430
0"
#435
b100001 '
b100000 (
b11111 !
b11111 &
b11111 )
1"
b100001 #
b100001 %
b100001 $
#440
0"
#445
b100000 !
b100000 &
b100000 )
b100001 (
b100010 '
1"
b100010 #
b100010 %
b100010 $
#450
0"
#455
b100011 '
b100010 (
b100001 !
b100001 &
b100001 )
1"
b100011 #
b100011 %
b100011 $
#460
0"
#465
b100010 !
b100010 &
b100010 )
b100011 (
b100100 '
1"
b100100 #
b100100 %
b100100 $
#470
0"
#475
b100101 '
b100100 (
b100011 !
b100011 &
b100011 )
1"
b100101 #
b100101 %
b100101 $
#480
0"
#485
b100100 !
b100100 &
b100100 )
b100101 (
b100110 '
1"
b100110 #
b100110 %
b100110 $
#490
0"
#495
b100111 '
b100110 (
b100101 !
b100101 &
b100101 )
1"
b100111 #
b100111 %
b100111 $
#500
0"
#505
b100110 !
b100110 &
b100110 )
b100111 (
1"
b101000 $
