work_in_progress/fifo_sync/fifo.vcd
$date
	Sat Aug 29 00:05:53 2020
$end
$version
	Icarus Verilog
$end
$timescale
	1s
$end
$scope module fifo_tb2 $end
$var wire 1 ! out_data_tvalid $end
$var wire 32 " out_data_tdata [31:0] $end
$var wire 1 # in_data_tready $end
$var wire 1 $ full $end
$var wire 1 % empty $end
$var reg 1 & aclk $end
$var reg 1 ' arstn $end
$var reg 32 ( in_data_tdata [31:0] $end
$var reg 1 ) in_data_tvalid $end
$var reg 1 * out_data_tready $end
$scope module fifo_inst $end
$var wire 1 & aclk $end
$var wire 1 ' arstn $end
$var wire 1 $ full $end
$var wire 32 + in_data_tdata [31:0] $end
$var wire 1 # in_data_tready $end
$var wire 1 ) in_data_tvalid $end
$var wire 32 , out_data_tdata [31:0] $end
$var wire 1 * out_data_tready $end
$var wire 1 ! out_data_tvalid $end
$var wire 1 % empty $end
$var reg 32 - dout [31:0] $end
$var reg 1 . empty_r $end
$var reg 1 / full_r $end
$var reg 9 0 r_ptr [8:0] $end
$var reg 1 1 r_valid $end
$var reg 1 2 rst_fifo $end
$var reg 1 3 rst_system $end
$var reg 9 4 w_ptr [8:0] $end
$var reg 1 5 w_ready $end
$var integer 32 6 i [31:0] $end
$upscope $end
$upscope $end
$enddefinitions $end
#0
$dumpvars
b11111111 6
x5
bx 4
x3
x2
x1
bx 0
x/
x.
bx -
bx ,
bx +
x*
x)
bx (
x'
x&
x%
x$
x#
bx "
x!
$end
#1002
0#
0!
05
01
02
0*
1)
b0 (
b0 +
0'
1&
#2002
0&
#3002
1%
b0 4
b0 0
0$
0/
1.
03
1&
#4002
0&
#5002
b0 "
b0 ,
b0 -
13
12
0)
1'
1&
#6002
0&
#7002
1#
15
1&
#8002
0&
#9002
1&
#10002
0&
#11002
02
0'
1&
#12002
0&
#13002
05
0#
03
1&
#14002
0&
#15002
1&
#16002
0&
#17002
13
12
1'
1&
#18002
0&
#19002
1#
15
1&
#20002
0&
#21002
1&
#22002
0&
#23002
1&
#24002
0&
#25002
1&
#26002
0&
#27002
1&
#28002
0&
#29002
1&
#30002
0&
#31002
1&
#32002
0&
#33002
1&
#34002
0&
#35002
1&
#36002
0&
#37002
0%
b1 4
1)
1&
#38002
0&
#39002
0.
0)
b1 (
b1 +
1&
#40002
0&
#41002
b10 (
b10 +
1&
#42002
0&
#43002
b10 4
1)
b11 (
b11 +
1&
#44002
0&
#45002
0)
b100 (
b100 +
1&
#46002
0&
#47002
b101 (
b101 +
1&
#48002
0&
#49002
b11 4
1)
b110 (
b110 +
1&
#50002
0&
#51002
0)
b111 (
b111 +
1&
#52002
0&
#53002
b1000 (
b1000 +
1&
#54002
0&
#55002
b100 4
1)
b1001 (
b1001 +
1&
#56002
0&
#57002
0)
b1010 (
b1010 +
1&
#58002
0&
#59002
b1011 (
b1011 +
1&
#60002
0&
#61002
b101 4
1)
b1100 (
b1100 +
1&
#62002
0&
#63002
0)
b1101 (
b1101 +
1&
#64002
0&
#65002
b1110 (
b1110 +
1&
#66002
0&
#67002
b110 4
1)
b1111 (
b1111 +
1&
#68002
0&
#69002
0)
b10000 (
b10000 +
1&
#70002
0&
#71002
b10001 (
b10001 +
1&
#72002
0&
#73002
b111 4
1)
b10010 (
b10010 +
1&
#74002
0&
#75002
0)
b10011 (
b10011 +
1&
#76002
0&
#77002
b10100 (
b10100 +
1&
#78002
0&
#79002
b1000 4
1)
b10101 (
b10101 +
1&
#80002
0&
#81002
0)
b10110 (
b10110 +
1&
#82002
0&
#83002
b10111 (
b10111 +
1&
#84002
0&
#85002
b1001 4
1)
b11000 (
b11000 +
1&
#86002
0&
#87002
0)
b11001 (
b11001 +
1&
#88002
0&
#89002
b11010 (
b11010 +
1&
#90002
0&
#91002
b1010 4
1)
b11011 (
b11011 +
1&
#92002
0&
#93002
0)
b11100 (
b11100 +
1&
#94002
0&
#95002
b11101 (
b11101 +
1&
#96002
0&
#97002
b1011 4
1)
b11110 (
b11110 +
1&
#98002
0&
#99002
0)
b11111 (
b11111 +
1&
#100002
0&
#101002
b100000 (
b100000 +
1&
#102002
0&
#103002
b1100 4
1)
b100001 (
b100001 +
1&
#104002
0&
#105002
0)
b100010 (
b100010 +
1&
#106002
0&
#107002
b100011 (
b100011 +
1&
#108002
0&
#109002
b1101 4
1)
b100100 (
b100100 +
1&
#110002
0&
#111002
0)
b100101 (
b100101 +
1&
#112002
0&
#113002
b100110 (
b100110 +
1&
#114002
0&
#115002
b1110 4
1)
b100111 (
b100111 +
1&
#116002
0&
#117002
0)
b101000 (
b101000 +
1&
#118002
0&
#119002
b101001 (
b101001 +
1&
#120002
0&
#121002
b1111 4
1)
b101010 (
b101010 +
1&
#122002
0&
#123002
0)
b101011 (
b101011 +
1&
#124002
0&
#125002
b101100 (
b101100 +
1&
#126002
0&
#127002
b10000 4
1)
b101101 (
b101101 +
1&
#128002
0&
#129002
0)
b101110 (
b101110 +
1&
#130002
0&
#131002
b101111 (
b101111 +
1&
#132002
0&
#133002
b10001 4
1)
b110000 (
b110000 +
1&
#134002
0&
#135002
0)
b110001 (
b110001 +
1&
#136002
0&
#137002
b110010 (
b110010 +
1&
#138002
0&
#139002
b10010 4
1)
b110011 (
b110011 +
1&
#140002
0&
#141002
0)
b110100 (
b110100 +
1&
#142002
0&
#143002
b110101 (
b110101 +
1&
#144002
0&
#145002
b10011 4
1)
b110110 (
b110110 +
1&
#146002
0&
#147002
0)
b110111 (
b110111 +
1&
#148002
0&
#149002
b111000 (
b111000 +
1&
#150002
0&
#151002
b10100 4
1)
b111001 (
b111001 +
1&
#152002
0&
#153002
0)
b111010 (
b111010 +
1&
#154002
0&
#155002
b111011 (
b111011 +
1&
#156002
0&
#157002
b10101 4
1)
b111100 (
b111100 +
1&
#158002
0&
#159002
0)
b111101 (
b111101 +
1&
#160002
0&
#161002
b111110 (
b111110 +
1&
#162002
0&
#163002
b10110 4
1)
b111111 (
b111111 +
1&
#164002
0&
#165002
0)
b1000000 (
b1000000 +
1&
#166002
0&
#167002
b1000001 (
b1000001 +
1&
#168002
0&
#169002
b10111 4
1)
b1000010 (
b1000010 +
1&
#170002
0&
#171002
0)
b1000011 (
b1000011 +
1&
#172002
0&
#173002
b1000100 (
b1000100 +
1&
#174002
0&
#175002
b11000 4
1)
b1000101 (
b1000101 +
1&
#176002
0&
#177002
0)
b1000110 (
b1000110 +
1&
#178002
0&
#179002
b1000111 (
b1000111 +
1&
#180002
0&
#181002
b11001 4
1)
b1001000 (
b1001000 +
1&
#182002
0&
#183002
0)
b1001001 (
b1001001 +
1&
#184002
0&
#185002
b1001010 (
b1001010 +
1&
#186002
0&
#187002
b11010 4
1)
b1001011 (
b1001011 +
1&
#188002
0&
#189002
0)
b1001100 (
b1001100 +
1&
#190002
0&
#191002
b1001101 (
b1001101 +
1&
#192002
0&
#193002
b11011 4
1)
b1001110 (
b1001110 +
1&
#194002
0&
#195002
0)
b1001111 (
b1001111 +
1&
#196002
0&
#197002
b1010000 (
b1010000 +
1&
#198002
0&
#199002
b11100 4
1)
b1010001 (
b1010001 +
1&
#200002
0&
#201002
0)
b1010010 (
b1010010 +
1&
#202002
0&
#203002
b1010011 (
b1010011 +
1&
#204002
0&
#205002
b11101 4
1)
b1010100 (
b1010100 +
1&
#206002
0&
#207002
0)
b1010101 (
b1010101 +
1&
#208002
0&
#209002
b1010110 (
b1010110 +
1&
#210002
0&
#211002
b11110 4
1)
b1010111 (
b1010111 +
1&
#212002
0&
#213002
0)
b1011000 (
b1011000 +
1&
#214002
0&
#215002
b1011001 (
b1011001 +
1&
#216002
0&
#217002
b11111 4
1)
b1011010 (
b1011010 +
1&
#218002
0&
#219002
0)
b1011011 (
b1011011 +
1&
#220002
0&
#221002
b1011100 (
b1011100 +
1&
#222002
0&
#223002
b100000 4
1)
b1011101 (
b1011101 +
1&
#224002
0&
#225002
0)
b1011110 (
b1011110 +
1&
#226002
0&
#227002
b1011111 (
b1011111 +
1&
#228002
0&
#229002
b100001 4
1)
b1100000 (
b1100000 +
1&
#230002
0&
#231002
0)
b1100001 (
b1100001 +
1&
#232002
0&
#233002
b1100010 (
b1100010 +
1&
#234002
0&
#235002
1!
11
b1 0
b100010 4
1*
1)
b0 (
b0 +
1&
#236002
0&
#237002
b10 0
b11 "
b11 ,
b11 -
0)
b1 (
b1 +
1&
#238002
0&
#239002
b11 0
b110 "
b110 ,
b110 -
b10 (
b10 +
1&
#240002
0&
#241002
b100011 4
b100 0
b1001 "
b1001 ,
b1001 -
1)
b11 (
b11 +
1&
#242002
0&
#243002
b101 0
b1100 "
b1100 ,
b1100 -
0)
b100 (
b100 +
1&
#244002
0&
#245002
b110 0
b1111 "
b1111 ,
b1111 -
b101 (
b101 +
1&
#246002
0&
#247002
b111 0
b100100 4
b10010 "
b10010 ,
b10010 -
1)
b110 (
b110 +
1&
#248002
0&
#249002
b1000 0
b10101 "
b10101 ,
b10101 -
0)
b111 (
b111 +
1&
#250002
0&
#251002
b1001 0
b11000 "
b11000 ,
b11000 -
b1000 (
b1000 +
1&
#252002
0&
#253002
b100101 4
b1010 0
b11011 "
b11011 ,
b11011 -
1)
b1001 (
b1001 +
1&
#254002
0&
#255002
b1011 0
b11110 "
b11110 ,
b11110 -
0)
b1010 (
b1010 +
1&
#256002
0&
#257002
b1100 0
b100001 "
b100001 ,
b100001 -
b1011 (
b1011 +
1&
#258002
0&
#259002
b1101 0
b100110 4
b100100 "
b100100 ,
b100100 -
1)
b1100 (
b1100 +
1&
#260002
0&
#261002
b1110 0
b100111 "
b100111 ,
b100111 -
0)
b1101 (
b1101 +
1&
#262002
0&
#263002
b1111 0
b101010 "
b101010 ,
b101010 -
b1110 (
b1110 +
1&
#264002
0&
#265002
b100111 4
b10000 0
b101101 "
b101101 ,
b101101 -
1)
b1111 (
b1111 +
1&
#266002
0&
#267002
b10001 0
b110000 "
b110000 ,
b110000 -
0)
b10000 (
b10000 +
1&
#268002
0&
#269002
b10010 0
b110011 "
b110011 ,
b110011 -
b10001 (
b10001 +
1&
#270002
0&
#271002
b10011 0
b101000 4
b110110 "
b110110 ,
b110110 -
1)
b10010 (
b10010 +
1&
#272002
0&
#273002
b10100 0
b111001 "
b111001 ,
b111001 -
0)
b10011 (
b10011 +
1&
#274002
0&
#275002
b10101 0
b111100 "
b111100 ,
b111100 -
b10100 (
b10100 +
1&
#276002
0&
#277002
b101001 4
b10110 0
b111111 "
b111111 ,
b111111 -
1)
b10101 (
b10101 +
1&
#278002
0&
#279002
b10111 0
b1000010 "
b1000010 ,
b1000010 -
0)
b10110 (
b10110 +
1&
#280002
0&
#281002
b11000 0
b1000101 "
b1000101 ,
b1000101 -
b10111 (
b10111 +
1&
#282002
0&
#283002
b11001 0
b101010 4
b1001000 "
b1001000 ,
b1001000 -
1)
b11000 (
b11000 +
1&
#284002
0&
#285002
b11010 0
b1001011 "
b1001011 ,
b1001011 -
0)
b11001 (
b11001 +
1&
#286002
0&
#287002
b11011 0
b1001110 "
b1001110 ,
b1001110 -
b11010 (
b11010 +
1&
#288002
0&
#289002
b101011 4
b11100 0
b1010001 "
b1010001 ,
b1010001 -
1)
b11011 (
b11011 +
1&
#290002
0&
#291002
b11101 0
b1010100 "
b1010100 ,
b1010100 -
0)
b11100 (
b11100 +
1&
#292002
0&
#293002
b11110 0
b1010111 "
b1010111 ,
b1010111 -
b11101 (
b11101 +
1&
#294002
0&
#295002
b11111 0
b101100 4
b1011010 "
b1011010 ,
b1011010 -
1)
b11110 (
b11110 +
1&
#296002
0&
#297002
b100000 0
b1011101 "
b1011101 ,
b1011101 -
0)
b11111 (
b11111 +
1&
#298002
0&
#299002
b100001 0
b1100000 "
b1100000 ,
b1100000 -
b100000 (
b100000 +
1&
#300002
0&
#301002
b101101 4
b100010 0
b0 "
b0 ,
b0 -
1)
b100001 (
b100001 +
1&
#302002
0&
#303002
b100011 0
b11 "
b11 ,
b11 -
0)
b100010 (
b100010 +
1&
#304002
0&
#305002
b100100 0
b110 "
b110 ,
b110 -
b100011 (
b100011 +
1&
#306002
0&
#307002
b100101 0
b101110 4
b1001 "
b1001 ,
b1001 -
1)
b100100 (
b100100 +
1&
#308002
0&
#309002
b100110 0
b1100 "
b1100 ,
b1100 -
0)
b100101 (
b100101 +
1&
#310002
0&
#311002
b100111 0
b1111 "
b1111 ,
b1111 -
b100110 (
b100110 +
1&
#312002
0&
#313002
b101111 4
b101000 0
b10010 "
b10010 ,
b10010 -
1)
b100111 (
b100111 +
1&
#314002
0&
#315002
b101001 0
b10101 "
b10101 ,
b10101 -
0)
b101000 (
b101000 +
1&
#316002
0&
#317002
b101010 0
b11000 "
b11000 ,
b11000 -
b101001 (
b101001 +
1&
#318002
0&
#319002
b101011 0
b110000 4
b11011 "
b11011 ,
b11011 -
1)
b101010 (
b101010 +
1&
#320002
0&
#321002
b101100 0
b11110 "
b11110 ,
b11110 -
0)
b101011 (
b101011 +
1&
#322002
0&
#323002
b101101 0
b100001 "
b100001 ,
b100001 -
b101100 (
b101100 +
1&
#324002
0&
#325002
b110001 4
b101110 0
b100100 "
b100100 ,
b100100 -
1)
b101101 (
b101101 +
1&
#326002
0&
#327002
b101111 0
b100111 "
b100111 ,
b100111 -
0)
b101110 (
b101110 +
1&
#328002
0&
#329002
b110000 0
b101010 "
b101010 ,
b101010 -
b101111 (
b101111 +
1&
#330002
0&
#331002
b110001 0
b110010 4
b101101 "
b101101 ,
b101101 -
1)
b110000 (
b110000 +
1&
#332002
0&
#333002
1%
b110010 0
b110000 "
b110000 ,
b110000 -
0)
b110001 (
b110001 +
1&
#334002
0&
#335002
0!
1.
01
b0 "
b0 ,
b0 -
b110010 (
b110010 +
1&
#336002
0&
#337002
0%
b110011 4
1)
b110011 (
b110011 +
1&
#338002
0&
#339002
1!
0.
11
1%
b110011 0
b110011 "
b110011 ,
b110011 -
0)
b110100 (
b110100 +
1&
#340002
0&
#341002
0!
01
1.
b0 "
b0 ,
b0 -
b110101 (
b110101 +
1&
#342002
0&
#343002
0%
b110100 4
1)
b110110 (
b110110 +
1&
#344002
0&
#345002
1!
11
1%
b110100 0
0.
b110110 "
b110110 ,
b110110 -
0)
b110111 (
b110111 +
1&
#346002
0&
#347002
0!
1.
01
b0 "
b0 ,
b0 -
b111000 (
b111000 +
1&
#348002
0&
#349002
0%
b110101 4
1)
b111001 (
b111001 +
1&
#350002
0&
#351002
1!
0.
11
1%
b110101 0
b111001 "
b111001 ,
b111001 -
0)
b111010 (
b111010 +
1&
#352002
0&
#353002
0!
01
1.
b0 "
b0 ,
b0 -
b111011 (
b111011 +
1&
#354002
0&
#355002
0%
b110110 4
1)
b111100 (
b111100 +
1&
#356002
0&
#357002
1!
11
1%
b110110 0
0.
b111100 "
b111100 ,
b111100 -
0)
b111101 (
b111101 +
1&
#358002
0&
#359002
0!
1.
01
b0 "
b0 ,
b0 -
b111110 (
b111110 +
1&
#360002
0&
#361002
0%
b110111 4
1)
b111111 (
b111111 +
1&
#362002
0&
#363002
1!
0.
11
1%
b110111 0
b111111 "
b111111 ,
b111111 -
0)
b1000000 (
b1000000 +
1&
#364002
0&
#365002
0!
01
1.
b0 "
b0 ,
b0 -
b1000001 (
b1000001 +
1&
#366002
0&
#367002
0%
b111000 4
1)
b1000010 (
b1000010 +
1&
#368002
0&
#369002
1!
11
1%
b111000 0
0.
b1000010 "
b1000010 ,
b1000010 -
0)
b1000011 (
b1000011 +
1&
#370002
0&
#371002
0!
1.
01
b0 "
b0 ,
b0 -
b1000100 (
b1000100 +
1&
#372002
0&
#373002
0%
b111001 4
1)
b1000101 (
b1000101 +
1&
#374002
0&
#375002
1!
0.
11
1%
b111001 0
b1000101 "
b1000101 ,
b1000101 -
0)
b1000110 (
b1000110 +
1&
#376002
0&
#377002
0!
01
1.
b0 "
b0 ,
b0 -
b1000111 (
b1000111 +
1&
#378002
0&
#379002
0%
b111010 4
1)
b1001000 (
b1001000 +
1&
#380002
0&
#381002
1!
11
1%
b111010 0
0.
b1001000 "
b1001000 ,
b1001000 -
0)
b1001001 (
b1001001 +
1&
#382002
0&
#383002
0!
1.
01
b0 "
b0 ,
b0 -
b1001010 (
b1001010 +
1&
#384002
0&
#385002
0%
b111011 4
1)
b1001011 (
b1001011 +
1&
#386002
0&
#387002
1!
0.
11
1%
b111011 0
b1001011 "
b1001011 ,
b1001011 -
0)
b1001100 (
b1001100 +
1&
#388002
0&
#389002
0!
01
1.
b0 "
b0 ,
b0 -
b1001101 (
b1001101 +
1&
#390002
0&
#391002
0%
b111100 4
1)
b1001110 (
b1001110 +
1&
#392002
0&
#393002
1!
11
1%
b111100 0
0.
b1001110 "
b1001110 ,
b1001110 -
0)
b1001111 (
b1001111 +
1&
#394002
0&
#395002
0!
1.
01
b0 "
b0 ,
b0 -
b1010000 (
b1010000 +
1&
#396002
0&
#397002
0%
b111101 4
1)
b1010001 (
b1010001 +
1&
#398002
0&
#399002
1!
0.
11
1%
b111101 0
b1010001 "
b1010001 ,
b1010001 -
0)
b1010010 (
b1010010 +
1&
#400002
0&
#401002
0!
01
1.
b0 "
b0 ,
b0 -
b1010011 (
b1010011 +
1&
#402002
0&
#403002
0%
b111110 4
1)
b1010100 (
b1010100 +
1&
#404002
0&
#405002
1!
11
1%
b111110 0
0.
b1010100 "
b1010100 ,
b1010100 -
0)
b1010101 (
b1010101 +
1&
#406002
0&
#407002
0!
1.
01
b0 "
b0 ,
b0 -
b1010110 (
b1010110 +
1&
#408002
0&
#409002
0%
b111111 4
1)
b1010111 (
b1010111 +
1&
#410002
0&
#411002
1!
0.
11
1%
b111111 0
b1010111 "
b1010111 ,
b1010111 -
0)
b1011000 (
b1011000 +
1&
#412002
0&
#413002
0!
01
1.
b0 "
b0 ,
b0 -
b1011001 (
b1011001 +
1&
#414002
0&
#415002
0%
b1000000 4
1)
b1011010 (
b1011010 +
1&
#416002
0&
#417002
1!
11
1%
b1000000 0
0.
b1011010 "
b1011010 ,
b1011010 -
0)
b1011011 (
b1011011 +
1&
#418002
0&
#419002
0!
1.
01
b0 "
b0 ,
b0 -
b1011100 (
b1011100 +
1&
#420002
0&
#421002
0%
b1000001 4
1)
b1011101 (
b1011101 +
1&
#422002
0&
#423002
1!
0.
11
1%
b1000001 0
b1011101 "
b1011101 ,
b1011101 -
0)
b1011110 (
b1011110 +
1&
#424002
0&
#425002
0!
01
1.
b0 "
b0 ,
b0 -
b1011111 (
b1011111 +
1&
#426002
0&
#427002
0%
b1000010 4
1)
b1100000 (
b1100000 +
1&
#428002
0&
#429002
1!
11
1%
b1000010 0
0.
b1100000 "
b1100000 ,
b1100000 -
0)
b1100001 (
b1100001 +
1&
#430002
0&
#431002
0!
1.
01
b0 "
b0 ,
b0 -
b1100010 (
b1100010 +
1&
#432002
0&
#433002
02
0'
1&
#434002
0&
#435002
05
b0 4
1%
b0 0
0#
03
1&
#436002
0&
#437002
1&
#438002
0&
#439002
13
12
1'
1&
#440002
0&
#441002
1#
15
1&
