work_in_progress/agc/v2/avg_pow/traces.vcd
$date
	Mon Mar 15 23:11:26 2021
$end
$version
	Icarus Verilog
$end
$timescale
	1ps
$end
$scope module avg_pow_tb $end
$var wire 1 ! clk $end
$var wire 8 " din [7:0] $end
$var wire 1 # din_valid $end
$var wire 1 $ rst $end
$var wire 1 % dout_valid $end
$var wire 16 & dout [15:0] $end
$scope module avg_pow_inst $end
$var wire 1 ! clk $end
$var wire 8 ' din [7:0] $end
$var wire 1 # din_valid $end
$var wire 1 $ rst $end
$var wire 1 % dout_valid $end
$var wire 16 ( dout [15:0] $end
$var wire 1 ) din_pow_valid $end
$var wire 16 * din_pow [15:0] $end
$scope module mov_avg $end
$var wire 1 ! clk $end
$var wire 1 % dout_valid $end
$var wire 1 + rst $end
$var wire 16 , dout [15:0] $end
$var wire 1 ) din_valid $end
$var wire 16 - din [15:0] $end
$var wire 16 . diff_dly_out [15:0] $end
$var reg 16 / comb_reg [15:0] $end
$var reg 1 0 din_valid_dly $end
$var reg 1 1 dout_valid_r $end
$var reg 21 2 integ [20:0] $end
$var reg 5 3 r_addr [4:0] $end
$var reg 5 4 w_addr [4:0] $end
$scope begin genblk3 $end
$upscope $end
$scope module diff_dly $end
$var wire 1 ! clk $end
$var wire 5 5 radd [4:0] $end
$var wire 1 6 ren $end
$var wire 5 7 wadd [4:0] $end
$var wire 16 8 win [15:0] $end
$var wire 1 ) wen $end
$var reg 16 9 wout [15:0] $end
$var integer 32 : i [31:0] $end
$upscope $end
$upscope $end
$scope module pow_mult $end
$var wire 1 ! clk $end
$var wire 8 ; din1 [7:0] $end
$var wire 8 < din2 [7:0] $end
$var wire 1 # din_valid $end
$var wire 16 = dout [15:0] $end
$var wire 1 > rst $end
$var wire 1 ) dout_valid $end
$var reg 8 ? din1_reg_0 [7:0] $end
$var reg 8 @ din1_reg_1 [7:0] $end
$var reg 8 A din2_reg_0 [7:0] $end
$var reg 8 B din2_reg_1 [7:0] $end
$var reg 16 C dout_reg_0 [15:0] $end
$var reg 16 D dout_reg_1 [15:0] $end
$var reg 4 E dout_valid_r [3:0] $end
$upscope $end
$upscope $end
$upscope $end
$enddefinitions $end
#0
$dumpvars
b0 E
b0 D
b0 C
b0 B
b0 A
b0 @
b0 ?
0>
b0 =
b0 <
b0 ;
b100000 :
b0 9
b0 8
b0 7
16
b1 5
b0 4
b1 3
b0 2
01
00
b0 /
b0 .
b0 -
b0 ,
0+
b0 *
0)
b0 (
b0 '
b0 &
0%
0$
0#
b0 "
1!
$end
#5000
0!
#10000
1!
#15000
0!
#20000
1!
#25000
0!
#30000
1#
1!
#35000
0!
#40000
b111111 "
b111111 '
b111111 ;
b111111 <
b1 E
1!
#45000
0!
#50000
b1100 "
b1100 '
b1100 ;
b1100 <
b111111 A
b111111 ?
b11 E
1!
#55000
0!
#60000
b11000011 "
b11000011 '
b11000011 ;
b11000011 <
b1100 A
b1100 ?
b111 E
b111111 B
b111111 @
1!
#65000
0!
#70000
b11101000 "
b11101000 '
b11101000 ;
b11101000 <
1)
b111110000001 C
b1100 B
b1100 @
b11000011 A
b11000011 ?
b1111 E
1!
#75000
0!
#80000
b111000 "
b111000 '
b111000 ;
b111000 <
b11101000 A
b11101000 ?
b111110000001 *
b111110000001 -
b111110000001 8
b111110000001 =
b111110000001 D
b10010000 C
b11000011 B
b11000011 @
b10 3
b10 5
b1 4
b1 7
10
1!
#85000
0!
#90000
b100011 "
b100011 '
b100011 ;
b100011 <
1%
11
b111110000001 /
b11 3
b11 5
b10 4
b10 7
b10010000 *
b10010000 -
b10010000 8
b10010000 =
b10010000 D
b111010001001 C
b11101000 B
b11101000 @
b111000 A
b111000 ?
1!
#95000
0!
#100000
b11001111 "
b11001111 '
b11001111 ;
b11001111 <
b1111100 &
b1111100 (
b1111100 ,
b100011 A
b100011 ?
b111010001001 *
b111010001001 -
b111010001001 8
b111010001001 =
b111010001001 D
b1001000000 C
b111000 B
b111000 @
b100 3
b100 5
b11 4
b11 7
b10010000 /
b111110000001 2
1!
#105000
0!
#110000
b11010011 "
b11010011 '
b11010011 ;
b11010011 <
b10000000 &
b10000000 (
b10000000 ,
b1000000010001 2
b111010001001 /
b101 3
b101 5
b100 4
b100 7
b1001000000 *
b1001000000 -
b1001000000 8
b1001000000 =
b1001000000 D
b110001000000 C
b100011 B
b100011 @
b11001111 A
b11001111 ?
1!
#115000
0!
#120000
b101000 "
b101000 '
b101000 ;
b101000 <
b11110100 &
b11110100 (
b11110100 ,
b11010011 A
b11010011 ?
b110001000000 *
b110001000000 -
b110001000000 8
b110001000000 =
b110001000000 D
b10011001001 C
b11001111 B
b11001111 @
b110 3
b110 5
b101 4
b101 7
b1001000000 /
b1111010011010 2
1!
#125000
0!
#130000
b110101 "
b110101 '
b110101 ;
b110101 <
b100000110 &
b100000110 (
b100000110 ,
b10000011011010 2
b110001000000 /
b111 3
b111 5
b110 4
b110 7
b10011001001 *
b10011001001 -
b10011001001 8
b10011001001 =
b10011001001 D
b100101100001 C
b11010011 B
b11010011 @
b101000 A
b101000 ?
1!
#135000
0!
#140000
b11100010 "
b11100010 '
b11100010 ;
b11100010 <
b101101000 &
b101101000 (
b101101000 ,
b110101 A
b110101 ?
b100101100001 *
b100101100001 -
b100101100001 8
b100101100001 =
b100101100001 D
b11111101001 C
b101000 B
b101000 @
b1000 3
b1000 5
b111 4
b111 7
b10011001001 /
b10110100011010 2
1!
#145000
0!
#150000
b11000101 "
b11000101 '
b11000101 ;
b11000101 <
b110001111 &
b110001111 (
b110001111 ,
b11000111100011 2
b100101100001 /
b1001 3
b1001 5
b1000 4
b1000 7
b11111101001 *
b11111101001 -
b11111101001 8
b11111101001 =
b11111101001 D
b11001000000 C
b110101 B
b110101 @
b11100010 A
b11100010 ?
1!
#155000
0!
#160000
b10010 "
b10010 '
b10010 ;
b10010 <
b111011010 &
b111011010 (
b111011010 ,
b11000101 A
b11000101 ?
b11001000000 *
b11001000000 -
b11001000000 8
b11001000000 =
b11001000000 D
b101011111001 C
b11100010 B
b11100010 @
b1010 3
b1010 5
b1001 4
b1001 7
b11111101001 /
b11101101000100 2
1!
#165000
0!
#170000
b111110 "
b111110 '
b111110 ;
b111110 <
b1000011001 &
b1000011001 (
b1000011001 ,
b100001100101101 2
b11001000000 /
b1011 3
b1011 5
b1010 4
b1010 7
b101011111001 *
b101011111001 -
b101011111001 8
b101011111001 =
b101011111001 D
b1110000100 C
b11000101 B
b11000101 @
b10010 A
b10010 ?
1!
#175000
0!
#180000
b11111010 "
b11111010 '
b11111010 ;
b11111010 <
b1001001011 &
b1001001011 (
b1001001011 ,
b111110 A
b111110 ?
b1110000100 *
b1110000100 -
b1110000100 8
b1110000100 =
b1110000100 D
b110110011001 C
b10010 B
b10010 @
b1100 3
b1100 5
b1011 4
b1011 7
b101011111001 /
b100100101101101 2
1!
#185000
0!
#190000
b11000000 "
b11000000 '
b11000000 ;
b11000000 <
b1010100011 &
b1010100011 (
b1010100011 ,
b101010001100110 2
b1110000100 /
b1101 3
b1101 5
b1100 4
b1100 7
b110110011001 *
b110110011001 -
b110110011001 8
b110110011001 =
b110110011001 D
b101000100 C
b111110 B
b111110 @
b11111010 A
b11111010 ?
1!
#195000
0!
#200000
b11111010 "
b11111010 '
b11111010 ;
b11111010 <
b1010111111 &
b1010111111 (
b1010111111 ,
b11000000 A
b11000000 ?
b101000100 *
b101000100 -
b101000100 8
b101000100 =
b101000100 D
b111100000100 C
b11111010 B
b11111010 @
b1110 3
b1110 5
b1101 4
b1101 7
b110110011001 /
b101011111101010 2
1!
#205000
0!
#210000
b111110 "
b111110 '
b111110 ;
b111110 <
b1100101100 &
b1100101100 (
b1100101100 ,
b110010110000011 2
b101000100 /
b1111 3
b1111 5
b1110 4
b1110 7
b111100000100 *
b111100000100 -
b111100000100 8
b111100000100 =
b111100000100 D
b100100 C
b11000000 B
b11000000 @
b11111010 A
b11111010 ?
1!
#215000
0!
#220000
b10010 "
b10010 '
b10010 ;
b10010 <
b1100110110 &
b1100110110 (
b1100110110 ,
b111110 A
b111110 ?
b100100 *
b100100 -
b100100 8
b100100 =
b100100 D
b1000000000000 C
b11111010 B
b11111010 @
b10000 3
b10000 5
b1111 4
b1111 7
b111100000100 /
b110011011000111 2
1!
#225000
0!
#230000
b11000101 "
b11000101 '
b11000101 ;
b11000101 <
b1110101110 &
b1110101110 (
b1110101110 ,
b111010111001011 2
b100100 /
b10001 3
b10001 5
b10000 4
b10000 7
b1000000000000 *
b1000000000000 -
b1000000000000 8
b1000000000000 =
b1000000000000 D
b100100 C
b111110 B
b111110 @
b10010 A
b10010 ?
1!
#235000
0!
#240000
b11100010 "
b11100010 '
b11100010 ;
b11100010 <
b1110101111 &
b1110101111 (
b1110101111 ,
b11000101 A
b11000101 ?
b100100 *
b100100 -
b100100 8
b100100 =
b100100 D
b111100000100 C
b10010 B
b10010 @
b10010 3
b10010 5
b10001 4
b10001 7
b1000000000000 /
b111010111101111 2
1!
#245000
0!
#250000
b110101 "
b110101 '
b110101 ;
b110101 <
b10000101111 &
b10000101111 (
b10000101111 ,
b1000010111101111 2
b100100 /
b10011 3
b10011 5
b10010 4
b10010 7
b111100000100 *
b111100000100 -
b111100000100 8
b111100000100 =
b111100000100 D
b101000100 C
b11000101 B
b11000101 @
b11100010 A
b11100010 ?
1!
#255000
0!
#260000
b101000 "
b101000 '
b101000 ;
b101000 <
b10000110000 &
b10000110000 (
b10000110000 ,
b110101 A
b110101 ?
b101000100 *
b101000100 -
b101000100 8
b101000100 =
b101000100 D
b110110011001 C
b11100010 B
b11100010 @
b10100 3
b10100 5
b10011 4
b10011 7
b111100000100 /
b1000011000010011 2
1!
#265000
0!
#270000
b11010011 "
b11010011 '
b11010011 ;
b11010011 <
b10010101000 &
b10010101000 (
b10010101000 ,
b1001010100010111 2
b101000100 /
b10101 3
b10101 5
b10100 4
b10100 7
b110110011001 *
b110110011001 -
b110110011001 8
b110110011001 =
b110110011001 D
b1110000100 C
b110101 B
b110101 @
b101000 A
b101000 ?
1!
#275000
0!
#280000
b11001111 "
b11001111 '
b11001111 ;
b11001111 <
b10010110010 &
b10010110010 (
b10010110010 ,
b11010011 A
b11010011 ?
b1110000100 *
b1110000100 -
b1110000100 8
b1110000100 =
b1110000100 D
b101011111001 C
b101000 B
b101000 @
b10110 3
b10110 5
b10101 4
b10101 7
b110110011001 /
b1001011001011011 2
1!
#285000
0!
#290000
b100011 "
b100011 '
b100011 ;
b100011 <
b10100011111 &
b10100011111 (
b10100011111 ,
b1010001111110100 2
b1110000100 /
b10111 3
b10111 5
b10110 4
b10110 7
b101011111001 *
b101011111001 -
b101011111001 8
b101011111001 =
b101011111001 D
b11001000000 C
b11010011 B
b11010011 @
b11001111 A
b11001111 ?
1!
#295000
0!
#300000
b111000 "
b111000 '
b111000 ;
b111000 <
b10100111011 &
b10100111011 (
b10100111011 ,
b100011 A
b100011 ?
b11001000000 *
b11001000000 -
b11001000000 8
b11001000000 =
b11001000000 D
b11111101001 C
b11001111 B
b11001111 @
b11000 3
b11000 5
b10111 4
b10111 7
b101011111001 /
b1010011101111000 2
1!
#305000
0!
#310000
b11101000 "
b11101000 '
b11101000 ;
b11101000 <
b10110010011 &
b10110010011 (
b10110010011 ,
b1011001001110001 2
b11001000000 /
b11001 3
b11001 5
b11000 4
b11000 7
b11111101001 *
b11111101001 -
b11111101001 8
b11111101001 =
b11111101001 D
b100101100001 C
b100011 B
b100011 @
b111000 A
b111000 ?
1!
#315000
0!
#320000
b11000011 "
b11000011 '
b11000011 ;
b11000011 <
b10111000101 &
b10111000101 (
b10111000101 ,
b11101000 A
b11101000 ?
b100101100001 *
b100101100001 -
b100101100001 8
b100101100001 =
b100101100001 D
b10011001001 C
b111000 B
b111000 @
b11010 3
b11010 5
b11001 4
b11001 7
b11111101001 /
b1011100010110001 2
1!
#325000
0!
#330000
b1100 "
b1100 '
b1100 ;
b1100 <
b11000000100 &
b11000000100 (
b11000000100 ,
b1100000010011010 2
b100101100001 /
b11011 3
b11011 5
b11010 4
b11010 7
b10011001001 *
b10011001001 -
b10011001001 8
b10011001001 =
b10011001001 D
b110001000000 C
b11101000 B
b11101000 @
b11000011 A
b11000011 ?
1!
#335000
0!
#340000
b111111 "
b111111 '
b111111 ;
b111111 <
b11001001111 &
b11001001111 (
b11001001111 ,
b1100 A
b1100 ?
b110001000000 *
b110001000000 -
b110001000000 8
b110001000000 =
b110001000000 D
b1001000000 C
b11000011 B
b11000011 @
b11100 3
b11100 5
b11011 4
b11011 7
b10011001001 /
b1100100111111011 2
1!
#345000
0!
#350000
b0 "
b0 '
b0 ;
b0 <
b11001110110 &
b11001110110 (
b11001110110 ,
b1100111011000100 2
b110001000000 /
b11101 3
b11101 5
b11100 4
b11100 7
b1001000000 *
b1001000000 -
b1001000000 8
b1001000000 =
b1001000000 D
b111010001001 C
b1100 B
b1100 @
b111111 A
b111111 ?
1!
#355000
0!
#360000
b11000001 "
b11000001 '
b11000001 ;
b11000001 <
b11011011000 &
b11011011000 (
b11011011000 ,
b0 A
b0 ?
b111010001001 *
b111010001001 -
b111010001001 8
b111010001001 =
b111010001001 D
b10010000 C
b111111 B
b111111 @
b11110 3
b11110 5
b11101 4
b11101 7
b1001000000 /
b1101101100000100 2
1!
#365000
0!
#370000
b11110100 "
b11110100 '
b11110100 ;
b11110100 <
b11011101010 &
b11011101010 (
b11011101010 ,
b1101110101000100 2
b111010001001 /
b11111 3
b11111 5
b11110 4
b11110 7
b10010000 *
b10010000 -
b10010000 8
b10010000 =
b10010000 D
b111110000001 C
b0 B
b0 @
b11000001 A
b11000001 ?
1!
#375000
0!
#380000
b111101 "
b111101 '
b111101 ;
b111101 <
b11101011110 &
b11101011110 (
b11101011110 ,
b11110100 A
b11110100 ?
b111110000001 *
b111110000001 -
b111110000001 8
b111110000001 =
b111110000001 D
b0 C
b11000001 B
b11000001 @
b0 3
b0 5
b11111 4
b11111 7
b10010000 /
b1110101111001101 2
1!
#385000
0!
#390000
b11000 "
b11000 '
b11000 ;
b11000 <
b11101100010 &
b11101100010 (
b11101100010 ,
b1110110001011101 2
b111110000001 /
b1 3
b1 5
b0 4
b0 7
b0 *
b0 -
b0 8
b0 =
b0 D
b111110000001 C
b11110100 B
b11110100 @
b111101 A
b111101 ?
1!
#395000
0!
#400000
b11001000 "
b11001000 '
b11001000 ;
b11001000 <
b11111011110 &
b11111011110 (
b11111011110 ,
b11000 A
b11000 ?
b111110000001 *
b111110000001 -
b111110000001 8
b111110000001 =
b111110000001 D
b10010000 C
b111101 B
b111101 @
b111110000001 .
b111110000001 9
b10 3
b10 5
b1 4
b1 7
b0 /
b1111101111011110 2
1!
#405000
0!
#410000
b11011101 "
b11011101 '
b11011101 ;
b11011101 <
b11 3
b11 5
b10 4
b10 7
b10010000 .
b10010000 9
b10010000 *
b10010000 -
b10010000 8
b10010000 =
b10010000 D
b111010001001 C
b11000 B
b11000 @
b11001000 A
b11001000 ?
1!
#415000
0!
#420000
b110001 "
b110001 '
b110001 ;
b110001 <
b11011101 A
b11011101 ?
b111010001001 *
b111010001001 -
b111010001001 8
b111010001001 =
b111010001001 D
b1001000000 C
b11001000 B
b11001000 @
b111010001001 .
b111010001001 9
b100 3
b100 5
b11 4
b11 7
1!
#425000
0!
#430000
b101101 "
b101101 '
b101101 ;
b101101 <
b101 3
b101 5
b100 4
b100 7
b1001000000 .
b1001000000 9
b1001000000 *
b1001000000 -
b1001000000 8
b1001000000 =
b1001000000 D
b110001000000 C
b11011101 B
b11011101 @
b110001 A
b110001 ?
1!
#435000
0!
#440000
b11011000 "
b11011000 '
b11011000 ;
b11011000 <
b101101 A
b101101 ?
b110001000000 *
b110001000000 -
b110001000000 8
b110001000000 =
b110001000000 D
b10011001001 C
b110001 B
b110001 @
b110001000000 .
b110001000000 9
b110 3
b110 5
b101 4
b101 7
1!
#445000
0!
#450000
b11001011 "
b11001011 '
b11001011 ;
b11001011 <
b111 3
b111 5
b110 4
b110 7
b10011001001 .
b10011001001 9
b10011001001 *
b10011001001 -
b10011001001 8
b10011001001 =
b10011001001 D
b100101100001 C
b101101 B
b101101 @
b11011000 A
b11011000 ?
1!
#455000
0!
#460000
b11110 "
b11110 '
b11110 ;
b11110 <
b11001011 A
b11001011 ?
b100101100001 *
b100101100001 -
b100101100001 8
b100101100001 =
b100101100001 D
b11111101001 C
b11011000 B
b11011000 @
b100101100001 .
b100101100001 9
b1000 3
b1000 5
b111 4
b111 7
1!
#465000
0!
#470000
b111011 "
b111011 '
b111011 ;
b111011 <
b1001 3
b1001 5
b1000 4
b1000 7
b11111101001 .
b11111101001 9
b11111101001 *
b11111101001 -
b11111101001 8
b11111101001 =
b11111101001 D
b11001000000 C
b11001011 B
b11001011 @
b11110 A
b11110 ?
1!
#475000
0!
#480000
b11101110 "
b11101110 '
b11101110 ;
b11101110 <
b111011 A
b111011 ?
b11001000000 *
b11001000000 -
b11001000000 8
b11001000000 =
b11001000000 D
b101011111001 C
b11110 B
b11110 @
b11001000000 .
b11001000000 9
b1010 3
b1010 5
b1001 4
b1001 7
1!
#485000
0!
#490000
b11000010 "
b11000010 '
b11000010 ;
b11000010 <
b1011 3
b1011 5
b1010 4
b1010 7
b101011111001 .
b101011111001 9
b101011111001 *
b101011111001 -
b101011111001 8
b101011111001 =
b101011111001 D
b1110000100 C
b111011 B
b111011 @
b11101110 A
b11101110 ?
1!
#495000
0!
#500000
b110 "
b110 '
b110 ;
b110 <
b11000010 A
b11000010 ?
b1110000100 *
b1110000100 -
b1110000100 8
b1110000100 =
b1110000100 D
b110110011001 C
b11101110 B
b11101110 @
b1110000100 .
b1110000100 9
b1100 3
b1100 5
b1011 4
b1011 7
1!
#505000
0!
#510000
b1000000 "
b1000000 '
b1000000 ;
b1000000 <
b1101 3
b1101 5
b1100 4
b1100 7
b110110011001 .
b110110011001 9
b110110011001 *
b110110011001 -
b110110011001 8
b110110011001 =
b110110011001 D
b101000100 C
b11000010 B
b11000010 @
b110 A
b110 ?
1!
#515000
0!
#520000
b110 "
b110 '
b110 ;
b110 <
b1000000 A
b1000000 ?
b101000100 *
b101000100 -
b101000100 8
b101000100 =
b101000100 D
b111100000100 C
b110 B
b110 @
b101000100 .
b101000100 9
b1110 3
b1110 5
b1101 4
b1101 7
1!
#525000
0!
#530000
b11000010 "
b11000010 '
b11000010 ;
b11000010 <
b1111 3
b1111 5
b1110 4
b1110 7
b111100000100 .
b111100000100 9
b111100000100 *
b111100000100 -
b111100000100 8
b111100000100 =
b111100000100 D
b100100 C
b1000000 B
b1000000 @
b110 A
b110 ?
1!
#535000
0!
#540000
b11101110 "
b11101110 '
b11101110 ;
b11101110 <
b11000010 A
b11000010 ?
b100100 *
b100100 -
b100100 8
b100100 =
b100100 D
b1000000000000 C
b110 B
b110 @
b100100 .
b100100 9
b10000 3
b10000 5
b1111 4
b1111 7
1!
#545000
0!
#550000
b111011 "
b111011 '
b111011 ;
b111011 <
b10001 3
b10001 5
b10000 4
b10000 7
b1000000000000 .
b1000000000000 9
b1000000000000 *
b1000000000000 -
b1000000000000 8
b1000000000000 =
b1000000000000 D
b100100 C
b11000010 B
b11000010 @
b11101110 A
b11101110 ?
1!
#555000
0!
#560000
b11110 "
b11110 '
b11110 ;
b11110 <
b111011 A
b111011 ?
b100100 *
b100100 -
b100100 8
b100100 =
b100100 D
b111100000100 C
b11101110 B
b11101110 @
b100100 .
b100100 9
b10010 3
b10010 5
b10001 4
b10001 7
1!
#565000
0!
#570000
b11001011 "
b11001011 '
b11001011 ;
b11001011 <
b10011 3
b10011 5
b10010 4
b10010 7
b111100000100 .
b111100000100 9
b111100000100 *
b111100000100 -
b111100000100 8
b111100000100 =
b111100000100 D
b101000100 C
b111011 B
b111011 @
b11110 A
b11110 ?
1!
#575000
0!
#580000
b11011000 "
b11011000 '
b11011000 ;
b11011000 <
b11001011 A
b11001011 ?
b101000100 *
b101000100 -
b101000100 8
b101000100 =
b101000100 D
b110110011001 C
b11110 B
b11110 @
b101000100 .
b101000100 9
b10100 3
b10100 5
b10011 4
b10011 7
1!
#585000
0!
#590000
b101101 "
b101101 '
b101101 ;
b101101 <
b10101 3
b10101 5
b10100 4
b10100 7
b110110011001 .
b110110011001 9
b110110011001 *
b110110011001 -
b110110011001 8
b110110011001 =
b110110011001 D
b1110000100 C
b11001011 B
b11001011 @
b11011000 A
b11011000 ?
1!
#595000
0!
#600000
b110001 "
b110001 '
b110001 ;
b110001 <
b101101 A
b101101 ?
b1110000100 *
b1110000100 -
b1110000100 8
b1110000100 =
b1110000100 D
b101011111001 C
b11011000 B
b11011000 @
b1110000100 .
b1110000100 9
b10110 3
b10110 5
b10101 4
b10101 7
1!
#605000
0!
#610000
b11011101 "
b11011101 '
b11011101 ;
b11011101 <
b10111 3
b10111 5
b10110 4
b10110 7
b101011111001 .
b101011111001 9
b101011111001 *
b101011111001 -
b101011111001 8
b101011111001 =
b101011111001 D
b11001000000 C
b101101 B
b101101 @
b110001 A
b110001 ?
1!
#615000
0!
#620000
b11001000 "
b11001000 '
b11001000 ;
b11001000 <
b11011101 A
b11011101 ?
b11001000000 *
b11001000000 -
b11001000000 8
b11001000000 =
b11001000000 D
b11111101001 C
b110001 B
b110001 @
b11001000000 .
b11001000000 9
b11000 3
b11000 5
b10111 4
b10111 7
1!
#625000
0!
#630000
b11000 "
b11000 '
b11000 ;
b11000 <
b11001 3
b11001 5
b11000 4
b11000 7
b11111101001 .
b11111101001 9
b11111101001 *
b11111101001 -
b11111101001 8
b11111101001 =
b11111101001 D
b100101100001 C
b11011101 B
b11011101 @
b11001000 A
b11001000 ?
1!
#635000
0!
#640000
b111101 "
b111101 '
b111101 ;
b111101 <
b11000 A
b11000 ?
b100101100001 *
b100101100001 -
b100101100001 8
b100101100001 =
b100101100001 D
b10011001001 C
b11001000 B
b11001000 @
b100101100001 .
b100101100001 9
b11010 3
b11010 5
b11001 4
b11001 7
1!
#645000
0!
#650000
b11110100 "
b11110100 '
b11110100 ;
b11110100 <
b11011 3
b11011 5
b11010 4
b11010 7
b10011001001 .
b10011001001 9
b10011001001 *
b10011001001 -
b10011001001 8
b10011001001 =
b10011001001 D
b110001000000 C
b11000 B
b11000 @
b111101 A
b111101 ?
1!
#655000
0!
#660000
b11000001 "
b11000001 '
b11000001 ;
b11000001 <
b11110100 A
b11110100 ?
b110001000000 *
b110001000000 -
b110001000000 8
b110001000000 =
b110001000000 D
b1001000000 C
b111101 B
b111101 @
b110001000000 .
b110001000000 9
b11100 3
b11100 5
b11011 4
b11011 7
1!
#665000
0!
#670000
b0 "
b0 '
b0 ;
b0 <
b11101 3
b11101 5
b11100 4
b11100 7
b1001000000 .
b1001000000 9
b1001000000 *
b1001000000 -
b1001000000 8
b1001000000 =
b1001000000 D
b111010001001 C
b11110100 B
b11110100 @
b11000001 A
b11000001 ?
1!
#675000
0!
#680000
b111111 "
b111111 '
b111111 ;
b111111 <
b0 A
b0 ?
b111010001001 *
b111010001001 -
b111010001001 8
b111010001001 =
b111010001001 D
b10010000 C
b11000001 B
b11000001 @
b111010001001 .
b111010001001 9
b11110 3
b11110 5
b11101 4
b11101 7
1!
#685000
0!
#690000
b1100 "
b1100 '
b1100 ;
b1100 <
b11111 3
b11111 5
b11110 4
b11110 7
b10010000 .
b10010000 9
b10010000 *
b10010000 -
b10010000 8
b10010000 =
b10010000 D
b111110000001 C
b0 B
b0 @
b111111 A
b111111 ?
1!
#695000
0!
#700000
b11000011 "
b11000011 '
b11000011 ;
b11000011 <
b1100 A
b1100 ?
b111110000001 *
b111110000001 -
b111110000001 8
b111110000001 =
b111110000001 D
b0 C
b111111 B
b111111 @
b111110000001 .
b111110000001 9
b0 3
b0 5
b11111 4
b11111 7
1!
#705000
0!
#710000
b11101000 "
b11101000 '
b11101000 ;
b11101000 <
b1 3
b1 5
b0 4
b0 7
b0 .
b0 9
b0 *
b0 -
b0 8
b0 =
b0 D
b111110000001 C
b1100 B
b1100 @
b11000011 A
b11000011 ?
1!
#715000
0!
#720000
b111000 "
b111000 '
b111000 ;
b111000 <
b11101000 A
b11101000 ?
b111110000001 *
b111110000001 -
b111110000001 8
b111110000001 =
b111110000001 D
b10010000 C
b11000011 B
b11000011 @
b111110000001 .
b111110000001 9
b10 3
b10 5
b1 4
b1 7
1!
#725000
0!
#730000
b100011 "
b100011 '
b100011 ;
b100011 <
b11 3
b11 5
b10 4
b10 7
b10010000 .
b10010000 9
b10010000 *
b10010000 -
b10010000 8
b10010000 =
b10010000 D
b111010001001 C
b11101000 B
b11101000 @
b111000 A
b111000 ?
1!
#735000
0!
#740000
b11001111 "
b11001111 '
b11001111 ;
b11001111 <
b100011 A
b100011 ?
b111010001001 *
b111010001001 -
b111010001001 8
b111010001001 =
b111010001001 D
b1001000000 C
b111000 B
b111000 @
b111010001001 .
b111010001001 9
b100 3
b100 5
b11 4
b11 7
1!
#745000
0!
#750000
b11010011 "
b11010011 '
b11010011 ;
b11010011 <
b101 3
b101 5
b100 4
b100 7
b1001000000 .
b1001000000 9
b1001000000 *
b1001000000 -
b1001000000 8
b1001000000 =
b1001000000 D
b110001000000 C
b100011 B
b100011 @
b11001111 A
b11001111 ?
1!
#755000
0!
#760000
b101000 "
b101000 '
b101000 ;
b101000 <
b11010011 A
b11010011 ?
b110001000000 *
b110001000000 -
b110001000000 8
b110001000000 =
b110001000000 D
b10011001001 C
b11001111 B
b11001111 @
b110001000000 .
b110001000000 9
b110 3
b110 5
b101 4
b101 7
1!
#765000
0!
#770000
b110101 "
b110101 '
b110101 ;
b110101 <
b111 3
b111 5
b110 4
b110 7
b10011001001 .
b10011001001 9
b10011001001 *
b10011001001 -
b10011001001 8
b10011001001 =
b10011001001 D
b100101100001 C
b11010011 B
b11010011 @
b101000 A
b101000 ?
1!
#775000
0!
#780000
b11100010 "
b11100010 '
b11100010 ;
b11100010 <
b110101 A
b110101 ?
b100101100001 *
b100101100001 -
b100101100001 8
b100101100001 =
b100101100001 D
b11111101001 C
b101000 B
b101000 @
b100101100001 .
b100101100001 9
b1000 3
b1000 5
b111 4
b111 7
1!
#785000
0!
#790000
b11000101 "
b11000101 '
b11000101 ;
b11000101 <
b1001 3
b1001 5
b1000 4
b1000 7
b11111101001 .
b11111101001 9
b11111101001 *
b11111101001 -
b11111101001 8
b11111101001 =
b11111101001 D
b11001000000 C
b110101 B
b110101 @
b11100010 A
b11100010 ?
1!
#795000
0!
#800000
b10010 "
b10010 '
b10010 ;
b10010 <
b11000101 A
b11000101 ?
b11001000000 *
b11001000000 -
b11001000000 8
b11001000000 =
b11001000000 D
b101011111001 C
b11100010 B
b11100010 @
b11001000000 .
b11001000000 9
b1010 3
b1010 5
b1001 4
b1001 7
1!
#805000
0!
#810000
b111110 "
b111110 '
b111110 ;
b111110 <
b1011 3
b1011 5
b1010 4
b1010 7
b101011111001 .
b101011111001 9
b101011111001 *
b101011111001 -
b101011111001 8
b101011111001 =
b101011111001 D
b1110000100 C
b11000101 B
b11000101 @
b10010 A
b10010 ?
1!
#815000
0!
#820000
b11111010 "
b11111010 '
b11111010 ;
b11111010 <
b111110 A
b111110 ?
b1110000100 *
b1110000100 -
b1110000100 8
b1110000100 =
b1110000100 D
b110110011001 C
b10010 B
b10010 @
b1110000100 .
b1110000100 9
b1100 3
b1100 5
b1011 4
b1011 7
1!
#825000
0!
#830000
b11000000 "
b11000000 '
b11000000 ;
b11000000 <
b1101 3
b1101 5
b1100 4
b1100 7
b110110011001 .
b110110011001 9
b110110011001 *
b110110011001 -
b110110011001 8
b110110011001 =
b110110011001 D
b101000100 C
b111110 B
b111110 @
b11111010 A
b11111010 ?
1!
#835000
0!
#840000
b11111010 "
b11111010 '
b11111010 ;
b11111010 <
b11000000 A
b11000000 ?
b101000100 *
b101000100 -
b101000100 8
b101000100 =
b101000100 D
b111100000100 C
b11111010 B
b11111010 @
b101000100 .
b101000100 9
b1110 3
b1110 5
b1101 4
b1101 7
1!
#845000
0!
#850000
b111110 "
b111110 '
b111110 ;
b111110 <
b1111 3
b1111 5
b1110 4
b1110 7
b111100000100 .
b111100000100 9
b111100000100 *
b111100000100 -
b111100000100 8
b111100000100 =
b111100000100 D
b100100 C
b11000000 B
b11000000 @
b11111010 A
b11111010 ?
1!
#855000
0!
#860000
b10010 "
b10010 '
b10010 ;
b10010 <
b111110 A
b111110 ?
b100100 *
b100100 -
b100100 8
b100100 =
b100100 D
b1000000000000 C
b11111010 B
b11111010 @
b100100 .
b100100 9
b10000 3
b10000 5
b1111 4
b1111 7
1!
#865000
0!
#870000
b11000101 "
b11000101 '
b11000101 ;
b11000101 <
b10001 3
b10001 5
b10000 4
b10000 7
b1000000000000 .
b1000000000000 9
b1000000000000 *
b1000000000000 -
b1000000000000 8
b1000000000000 =
b1000000000000 D
b100100 C
b111110 B
b111110 @
b10010 A
b10010 ?
1!
#875000
0!
#880000
b11100010 "
b11100010 '
b11100010 ;
b11100010 <
b11000101 A
b11000101 ?
b100100 *
b100100 -
b100100 8
b100100 =
b100100 D
b111100000100 C
b10010 B
b10010 @
b100100 .
b100100 9
b10010 3
b10010 5
b10001 4
b10001 7
1!
#885000
0!
#890000
b110101 "
b110101 '
b110101 ;
b110101 <
b10011 3
b10011 5
b10010 4
b10010 7
b111100000100 .
b111100000100 9
b111100000100 *
b111100000100 -
b111100000100 8
b111100000100 =
b111100000100 D
b101000100 C
b11000101 B
b11000101 @
b11100010 A
b11100010 ?
1!
#895000
0!
