work_in_progress/axi_uart/uart_rx/uart_rx_tb.vcd
$date
	Fri Jul 24 17:37:29 2020
$end
$version
	Icarus Verilog
$end
$timescale
	1s
$end
$scope module uart_rs $end
$var wire 1 ! valid $end
$var wire 8 " data [7:0] $end
$var reg 1 # clk $end
$var reg 1 $ rst $end
$var reg 1 % tx_data $end
$scope module uart_rx $end
$var wire 1 # clk $end
$var wire 8 & data [7:0] $end
$var wire 1 $ rst $end
$var wire 1 % tx_data $end
$var wire 1 ! valid $end
$var reg 4 ' index [3:0] $end
$var reg 3 ( next_state [2:0] $end
$var reg 8 ) out_data [7:0] $end
$var reg 8 * r_data [7:0] $end
$var reg 1 + r_valid $end
$var reg 3 , state [2:0] $end
$var reg 9 - timer [8:0] $end
$upscope $end
$upscope $end
$enddefinitions $end
#0
$dumpvars
bx -
bx ,
x+
bx *
bx )
bx (
bx '
bx &
x%
x$
x#
bx "
x!
$end
#2002
b0 (
1%
0$
1#
#4002
0#
#6002
b0 ,
1#
#8002
0#
#10002
b0 *
b0 '
b0 -
0!
0+
1#
#12002
0#
#14002
1#
#16002
0#
#18002
1#
#20002
0#
#22002
1#
#24002
0#
#26002
1#
#28002
0#
#30002
1#
#32002
0#
#34002
1#
#36002
0#
#38002
1#
#40002
0#
#42002
1#
#44002
0#
#46002
1#
#48002
0#
#50002
1#
#52002
0#
#54002
1#
#56002
0#
#58002
1#
#60002
0#
#62002
1#
#64002
0#
#66002
1#
#68002
0#
#70002
1#
#72002
0#
#74002
1#
#76002
0#
#78002
1#
#80002
0#
#82002
1#
#84002
0#
#86002
1#
#88002
0#
#90002
1#
#92002
0#
#94002
1#
#96002
0#
#98002
1#
#100002
0#
#102002
1#
#104002
0#
#106002
1#
#108002
0#
#110002
1#
#112002
0#
#114002
1#
#116002
0#
#118002
1#
#120002
0#
#122002
1#
#124002
0#
#126002
1#
#128002
0#
#130002
1#
#132002
0#
#134002
1#
#136002
0#
#138002
1#
#140002
0#
#142002
1#
#144002
0#
#146002
1#
#148002
0#
#150002
1#
#152002
0#
#154002
1#
#156002
0#
#158002
1#
#160002
0#
#162002
1#
#164002
0#
#166002
1#
#168002
0#
#170002
1#
#172002
0#
#174002
1#
#176002
0#
#178002
1#
#180002
0#
#182002
1#
#184002
0#
#186002
1#
#188002
0#
#190002
1#
#192002
0#
#194002
1#
#196002
0#
#198002
1#
#200002
0#
#202002
1#
#204002
0#
#206002
1#
#208002
0#
#210002
1#
#212002
0#
#214002
1#
#216002
0#
#218002
1#
#220002
0#
#222002
1#
#224002
0#
#226002
1#
#228002
0#
#230002
1#
#232002
0#
#234002
1#
#236002
0#
#238002
1#
#240002
0#
#242002
1#
#244002
0#
#246002
1#
#248002
0#
#250002
1#
#252002
0#
#254002
1#
#256002
0#
#258002
1#
#260002
0#
#262002
1#
#264002
0#
#266002
1#
#268002
0#
#270002
1#
#272002
0#
#274002
1#
#276002
0#
#278002
1#
#280002
0#
#282002
1#
#284002
0#
#286002
1#
#288002
0#
#290002
1#
#292002
0#
#294002
1#
#296002
0#
#298002
1#
#300002
0#
#302002
1#
#304002
0#
#306002
1#
#308002
0#
#310002
1#
#312002
0#
#314002
1#
#316002
0#
#318002
1#
#320002
0#
#322002
1#
#324002
0#
#326002
1#
#328002
0#
#330002
1#
#332002
0#
#334002
1#
#336002
0#
#338002
1#
#340002
0#
#342002
1#
#344002
0#
#346002
1#
#348002
0#
#350002
1#
#352002
0#
#354002
1#
#356002
0#
#358002
1#
#360002
0#
#362002
1#
#364002
0#
#366002
1#
#368002
0#
#370002
1#
#372002
0#
#374002
1#
#376002
0#
#378002
1#
#380002
0#
#382002
1#
#384002
0#
#386002
1#
#388002
0#
#390002
1#
#392002
0#
#394002
1#
#396002
0#
#398002
1#
#400002
0#
#402002
1#
#404002
0#
#406002
1#
#408002
0#
#410002
1#
#412002
0#
#414002
1#
#416002
0#
#418002
1#
#420002
0#
#422002
1#
#424002
0#
#426002
1#
#428002
0#
#430002
1#
#432002
0#
#434002
1#
#436002
0#
#438002
1#
#440002
0#
#442002
1#
#444002
0#
#446002
1#
#448002
0#
#450002
1#
#452002
0#
#454002
1#
#456002
0#
#458002
1#
#460002
0#
#462002
1#
#464002
0#
#466002
1#
#468002
0#
#470002
1#
#472002
0#
#474002
1#
#476002
0#
#478002
1#
#480002
0#
#482002
1#
#484002
0#
#486002
1#
#488002
0#
#490002
1#
#492002
0#
#494002
1#
#496002
0#
#498002
1#
#500002
0#
#502002
1#
#504002
0#
#506002
1#
#508002
0#
#510002
1#
#512002
0#
#514002
1#
#516002
0#
#518002
1#
#520002
0#
#522002
1#
#524002
0#
#526002
1#
#528002
0#
#530002
1#
#532002
0#
#534002
1#
#536002
0#
#538002
1#
#540002
0#
#542002
1#
#544002
0#
#546002
1#
#548002
0#
#550002
1#
#552002
0#
#554002
1#
#556002
0#
#558002
1#
#560002
0#
#562002
1#
#564002
0#
#566002
1#
#568002
0#
#570002
1#
#572002
0#
#574002
1#
#576002
0#
#578002
1#
#580002
0#
#582002
1#
#584002
0#
#586002
1#
#588002
0#
#590002
1#
#592002
0#
#594002
1#
#596002
0#
#598002
1#
#600002
0#
#602002
1#
#604002
0#
#606002
1#
#608002
0#
#610002
1#
#612002
0#
#614002
1#
#616002
0#
#618002
1#
#620002
0#
#622002
1#
#624002
0#
#626002
1#
#628002
0#
#630002
1#
#632002
0#
#634002
1#
#636002
0#
#638002
1#
#640002
0#
#642002
1#
#644002
0#
#646002
1#
#648002
0#
#650002
1#
#652002
0#
#654002
1#
#656002
0#
#658002
1#
#660002
0#
#662002
1#
#664002
0#
#666002
1#
#668002
0#
#670002
1#
#672002
0#
#674002
1#
#676002
0#
#678002
1#
#680002
0#
#682002
1#
#684002
0#
#686002
1#
#688002
0#
#690002
1#
#692002
0#
#694002
1#
#696002
0#
#698002
1#
#700002
0#
#702002
1#
#704002
0#
#706002
1#
#708002
0#
#710002
1#
#712002
0#
#714002
1#
#716002
0#
#718002
1#
#720002
0#
#722002
1#
#724002
0#
#726002
1#
#728002
0#
#730002
1#
#732002
0#
#734002
1#
#736002
0#
#738002
1#
#740002
0#
#742002
1#
#744002
0#
#746002
1#
#748002
0#
#750002
1#
#752002
0#
#754002
1#
#756002
0#
#758002
1#
#760002
0#
#762002
1#
#764002
0#
#766002
1#
#768002
0#
#770002
1#
#772002
0#
#774002
1#
#776002
0#
#778002
1#
#780002
0#
#782002
1#
#784002
0#
#786002
1#
#788002
0#
#790002
1#
#792002
0#
#794002
1#
#796002
0#
#798002
1#
#800002
0#
#802002
1#
#804002
0#
#806002
1#
#808002
0#
#810002
1#
#812002
0#
#814002
1#
#816002
0#
#818002
1#
#820002
0#
#822002
1#
#824002
0#
#826002
1#
#828002
0#
#830002
1#
#832002
0#
#834002
1#
#836002
0#
#838002
1#
#840002
0#
#842002
1#
#844002
0#
#846002
1#
#848002
0#
#850002
1#
#852002
0#
#854002
1#
#856002
0#
#858002
1#
#860002
0#
#862002
1#
#864002
0#
#866002
1#
#868002
0#
#870002
1#
#872002
0#
#874002
1#
#876002
0#
#878002
1#
#880002
0#
#882002
1#
#884002
0#
#886002
1#
#888002
0#
#890002
1#
#892002
0#
#894002
1#
#896002
0#
#898002
1#
#900002
0#
#902002
1#
#904002
0#
#906002
1#
#908002
0#
#910002
1#
#912002
0#
#914002
1#
#916002
0#
#918002
1#
#920002
0#
#922002
1#
#924002
0#
#926002
1#
#928002
0#
#930002
1#
#932002
0#
#934002
1#
#936002
0#
#938002
1#
#940002
0#
#942002
1#
#944002
0#
#946002
1#
#948002
0#
#950002
1#
#952002
0#
#954002
1#
#956002
0#
#958002
1#
#960002
0#
#962002
1#
#964002
0#
#966002
1#
#968002
0#
#970002
1#
#972002
0#
#974002
1#
#976002
0#
#978002
1#
#980002
0#
#982002
1#
#984002
0#
#986002
1#
#988002
0#
#990002
1#
#992002
0#
#994002
1#
#996002
0#
#998002
1#
#1000002
0#
#1002002
1#
#1004002
0#
#1006002
1#
#1008002
0#
#1010002
1#
#1012002
0#
#1014002
1#
#1016002
0#
#1018002
1#
#1020002
0#
#1022002
1#
#1024002
0#
#1026002
1#
#1028002
0#
#1030002
1#
#1032002
0#
#1034002
1#
#1036002
0#
#1038002
1#
#1040002
0#
#1042002
1#
#1044002
0#
#1046002
1#
#1048002
0#
#1050002
1#
#1052002
0#
#1054002
1#
#1056002
0#
#1058002
1#
#1060002
0#
#1062002
1#
#1064002
0#
#1066002
1#
#1068002
0#
#1070002
1#
#1072002
0#
#1074002
1#
#1076002
0#
#1078002
1#
#1080002
0#
#1082002
1#
#1084002
0#
#1086002
1#
#1088002
0#
#1090002
1#
#1092002
0#
#1094002
1#
#1096002
0#
#1098002
1#
#1100002
0#
#1102002
1#
#1104002
0#
#1106002
1#
#1108002
0#
#1110002
1#
#1112002
0#
#1114002
1#
#1116002
0#
#1118002
1#
#1120002
0#
#1122002
1#
#1124002
0#
#1126002
1#
#1128002
0#
#1130002
1#
#1132002
0#
#1134002
1#
#1136002
0#
#1138002
1#
#1140002
0#
#1142002
1#
#1144002
0#
#1146002
1#
#1148002
0#
#1150002
1#
#1152002
0#
#1154002
1#
#1156002
0#
#1158002
1#
#1160002
0#
#1162002
1#
#1164002
0#
#1166002
1#
#1168002
0#
#1170002
1#
#1172002
0#
#1174002
1#
#1176002
0#
#1178002
1#
#1180002
0#
#1182002
1#
#1184002
0#
#1186002
1#
#1188002
0#
#1190002
1#
#1192002
0#
#1194002
1#
#1196002
0#
#1198002
1#
#1200002
0#
#1202002
1#
#1204002
0#
#1206002
1#
#1208002
0#
#1210002
1#
#1212002
0#
#1214002
1#
#1216002
0#
#1218002
1#
#1220002
0#
#1222002
1#
#1224002
0#
#1226002
1#
#1228002
0#
#1230002
1#
#1232002
0#
#1234002
1#
#1236002
0#
#1238002
1#
#1240002
0#
#1242002
1#
#1244002
0#
#1246002
1#
#1248002
0#
#1250002
1#
#1252002
0#
#1254002
1#
#1256002
0#
#1258002
1#
#1260002
0#
#1262002
1#
#1264002
0#
#1266002
1#
#1268002
0#
#1270002
1#
#1272002
0#
#1274002
1#
#1276002
0#
#1278002
1#
#1280002
0#
#1282002
1#
#1284002
0#
#1286002
1#
#1288002
0#
#1290002
1#
#1292002
0#
#1294002
1#
#1296002
0#
#1298002
1#
#1300002
0#
#1302002
1#
#1304002
0#
#1306002
1#
#1308002
0#
#1310002
1#
#1312002
0#
#1314002
1#
#1316002
0#
#1318002
1#
#1320002
0#
#1322002
1#
#1324002
0#
#1326002
1#
#1328002
0#
#1330002
1#
#1332002
0#
#1334002
1#
#1336002
0#
#1338002
1#
#1340002
0#
#1342002
1#
#1344002
0#
#1346002
1#
#1348002
0#
#1350002
1#
#1352002
0#
#1354002
1#
#1356002
0#
#1358002
1#
#1360002
0#
#1362002
1#
#1364002
0#
#1366002
1#
#1368002
0#
#1370002
1#
#1372002
0#
#1374002
1#
#1376002
0#
#1378002
1#
#1380002
0#
#1382002
1#
#1384002
0#
#1386002
1#
#1388002
0#
#1390002
1#
#1392002
0#
#1394002
1#
#1396002
0#
#1398002
1#
#1400002
0#
#1402002
1#
#1404002
0#
#1406002
1#
#1408002
0#
#1410002
1#
#1412002
0#
#1414002
1#
#1416002
0#
#1418002
1#
#1420002
0#
#1422002
1#
#1424002
0#
#1426002
1#
#1428002
0#
#1430002
1#
#1432002
0#
#1434002
1#
#1436002
0#
#1438002
1#
#1440002
0#
#1442002
1#
#1444002
0#
#1446002
1#
#1448002
0#
#1450002
1#
#1452002
0#
#1454002
1#
#1456002
0#
#1458002
1#
#1460002
0#
#1462002
1#
#1464002
0#
#1466002
1#
#1468002
0#
#1470002
1#
#1472002
0#
#1474002
1#
#1476002
0#
#1478002
1#
#1480002
0#
#1482002
1#
#1484002
0#
#1486002
1#
#1488002
0#
#1490002
1#
#1492002
0#
#1494002
1#
#1496002
0#
#1498002
1#
#1500002
0#
#1502002
1#
#1504002
0#
#1506002
1#
#1508002
0#
#1510002
1#
#1512002
0#
#1514002
1#
#1516002
0#
#1518002
1#
#1520002
0#
#1522002
1#
#1524002
0#
#1526002
1#
#1528002
0#
#1530002
1#
#1532002
0#
#1534002
1#
#1536002
0#
#1538002
1#
#1540002
0#
#1542002
1#
#1544002
0#
#1546002
1#
#1548002
0#
#1550002
1#
#1552002
0#
#1554002
1#
#1556002
0#
#1558002
1#
#1560002
0#
#1562002
1#
#1564002
0#
#1566002
1#
#1568002
0#
#1570002
1#
#1572002
0#
#1574002
1#
#1576002
0#
#1578002
1#
#1580002
0#
#1582002
1#
#1584002
0#
#1586002
1#
#1588002
0#
#1590002
1#
#1592002
0#
#1594002
1#
#1596002
0#
#1598002
1#
#1600002
0#
#1602002
1#
#1604002
0#
#1606002
1#
#1608002
0#
#1610002
1#
#1612002
0#
#1614002
1#
#1616002
0#
#1618002
1#
#1620002
0#
#1622002
1#
#1624002
0#
#1626002
1#
#1628002
0#
#1630002
1#
#1632002
0#
#1634002
1#
#1636002
0#
#1638002
1#
#1640002
0#
#1642002
1#
#1644002
0#
#1646002
1#
#1648002
0#
#1650002
1#
#1652002
0#
#1654002
1#
#1656002
0#
#1658002
1#
#1660002
0#
#1662002
1#
#1664002
0#
#1666002
1#
#1668002
0#
#1670002
1#
#1672002
0#
#1674002
1#
#1676002
0#
#1678002
1#
#1680002
0#
#1682002
1#
#1684002
0#
#1686002
1#
#1688002
0#
#1690002
1#
#1692002
0#
#1694002
1#
#1696002
0#
#1698002
1#
#1700002
0#
#1702002
1#
#1704002
0#
#1706002
1#
#1708002
0#
#1710002
1#
#1712002
0#
#1714002
1#
#1716002
0#
#1718002
1#
#1720002
0#
#1722002
1#
#1724002
0#
#1726002
1#
#1728002
0#
#1730002
1#
#1732002
0#
#1734002
1#
#1736002
b1 (
0%
0#
#1738002
b1 ,
1#
#1740002
0#
#1742002
b1 -
1#
#1744002
0#
#1746002
b10 -
1#
#1748002
0#
#1750002
b11 -
1#
#1752002
0#
#1754002
b100 -
1#
#1756002
0#
#1758002
b101 -
1#
#1760002
0#
#1762002
b110 -
1#
#1764002
0#
#1766002
b111 -
1#
#1768002
0#
#1770002
b1000 -
1#
#1772002
0#
#1774002
b1001 -
1#
#1776002
0#
#1778002
b1010 -
1#
#1780002
0#
#1782002
b1011 -
1#
#1784002
0#
#1786002
b1100 -
1#
#1788002
0#
#1790002
b1101 -
1#
#1792002
0#
#1794002
b1110 -
1#
#1796002
0#
#1798002
b1111 -
1#
#1800002
0#
#1802002
b10000 -
1#
#1804002
0#
#1806002
b10001 -
1#
#1808002
0#
#1810002
b10010 -
1#
#1812002
0#
#1814002
b10011 -
1#
#1816002
0#
#1818002
b10100 -
1#
#1820002
0#
#1822002
b10101 -
1#
#1824002
0#
#1826002
b10110 -
1#
#1828002
0#
#1830002
b10111 -
1#
#1832002
0#
#1834002
b11000 -
1#
#1836002
0#
#1838002
b11001 -
1#
#1840002
0#
#1842002
b11010 -
1#
#1844002
0#
#1846002
b11011 -
1#
#1848002
0#
#1850002
b11100 -
1#
#1852002
0#
#1854002
b11101 -
1#
#1856002
0#
#1858002
b11110 -
1#
#1860002
0#
#1862002
b11111 -
1#
#1864002
0#
#1866002
b100000 -
1#
#1868002
0#
#1870002
b100001 -
1#
#1872002
0#
#1874002
b100010 -
1#
#1876002
0#
#1878002
b100011 -
1#
#1880002
0#
#1882002
b100100 -
1#
#1884002
0#
#1886002
b100101 -
1#
#1888002
0#
#1890002
b100110 -
1#
#1892002
0#
#1894002
b100111 -
1#
#1896002
0#
#1898002
b101000 -
1#
#1900002
0#
#1902002
b101001 -
1#
#1904002
0#
#1906002
b101010 -
1#
#1908002
0#
#1910002
b101011 -
1#
#1912002
0#
#1914002
b101100 -
1#
#1916002
0#
#1918002
b101101 -
1#
#1920002
0#
#1922002
b101110 -
1#
#1924002
0#
#1926002
b101111 -
1#
#1928002
0#
#1930002
b110000 -
1#
#1932002
0#
#1934002
b110001 -
1#
#1936002
0#
#1938002
b110010 -
1#
#1940002
0#
#1942002
b110011 -
1#
#1944002
0#
#1946002
b110100 -
1#
#1948002
0#
#1950002
b110101 -
1#
#1952002
0#
#1954002
b110110 -
1#
#1956002
0#
#1958002
b110111 -
1#
#1960002
0#
#1962002
b111000 -
1#
#1964002
0#
#1966002
b111001 -
1#
#1968002
0#
#1970002
b111010 -
1#
#1972002
0#
#1974002
b111011 -
1#
#1976002
0#
#1978002
b111100 -
1#
#1980002
0#
#1982002
b111101 -
1#
#1984002
0#
#1986002
b111110 -
1#
#1988002
0#
#1990002
b111111 -
1#
#1992002
0#
#1994002
b1000000 -
1#
#1996002
0#
#1998002
b1000001 -
1#
#2000002
0#
#2002002
b1000010 -
1#
#2004002
0#
#2006002
b1000011 -
1#
#2008002
0#
#2010002
b1000100 -
1#
#2012002
0#
#2014002
b1000101 -
1#
#2016002
0#
#2018002
b1000110 -
1#
#2020002
0#
#2022002
b1000111 -
1#
#2024002
0#
#2026002
b1001000 -
1#
#2028002
0#
#2030002
b1001001 -
1#
#2032002
0#
#2034002
b1001010 -
1#
#2036002
0#
#2038002
b1001011 -
1#
#2040002
0#
#2042002
b1001100 -
1#
#2044002
0#
#2046002
b1001101 -
1#
#2048002
0#
#2050002
b1001110 -
1#
#2052002
0#
#2054002
b1001111 -
1#
#2056002
0#
#2058002
b1010000 -
1#
#2060002
0#
#2062002
b1010001 -
1#
#2064002
0#
#2066002
b1010010 -
1#
#2068002
0#
#2070002
b1010011 -
1#
#2072002
0#
#2074002
b1010100 -
1#
#2076002
0#
#2078002
b1010101 -
1#
#2080002
0#
#2082002
b1010110 -
1#
#2084002
0#
#2086002
b1010111 -
1#
#2088002
0#
#2090002
b1011000 -
1#
#2092002
0#
#2094002
b1011001 -
1#
#2096002
0#
#2098002
b1011010 -
1#
#2100002
0#
#2102002
b1011011 -
1#
#2104002
0#
#2106002
b1011100 -
1#
#2108002
0#
#2110002
b1011101 -
1#
#2112002
0#
#2114002
b1011110 -
1#
#2116002
0#
#2118002
b1011111 -
1#
#2120002
0#
#2122002
b1100000 -
1#
#2124002
0#
#2126002
b1100001 -
1#
#2128002
0#
#2130002
b1100010 -
1#
#2132002
0#
#2134002
b1100011 -
1#
#2136002
0#
#2138002
b1100100 -
1#
#2140002
0#
#2142002
b1100101 -
1#
#2144002
0#
#2146002
b1100110 -
1#
#2148002
0#
#2150002
b1100111 -
1#
#2152002
0#
#2154002
b1101000 -
1#
#2156002
0#
#2158002
b1101001 -
1#
#2160002
0#
#2162002
b1101010 -
1#
#2164002
0#
#2166002
b1101011 -
1#
#2168002
0#
#2170002
b10 (
b1101100 -
1#
#2172002
0#
#2174002
b11 (
b1101101 -
b10 ,
1#
#2176002
0#
#2178002
b11 ,
b0 -
1#
#2180002
0#
#2182002
b1 -
1#
#2184002
0#
#2186002
b10 -
1#
#2188002
0#
#2190002
b11 -
1#
#2192002
0#
#2194002
b100 -
1#
#2196002
0#
#2198002
b101 -
1#
#2200002
0#
#2202002
b110 -
1#
#2204002
0#
#2206002
b111 -
1#
#2208002
0#
#2210002
b1000 -
1#
#2212002
0#
#2214002
b1001 -
1#
#2216002
0#
#2218002
b1010 -
1#
#2220002
0#
#2222002
b1011 -
1#
#2224002
0#
#2226002
b1100 -
1#
#2228002
0#
#2230002
b1101 -
1#
#2232002
0#
#2234002
b1110 -
1#
#2236002
0#
#2238002
b1111 -
1#
#2240002
0#
#2242002
b10000 -
1#
#2244002
0#
#2246002
b10001 -
1#
#2248002
0#
#2250002
b10010 -
1#
#2252002
0#
#2254002
b10011 -
1#
#2256002
0#
#2258002
b10100 -
1#
#2260002
0#
#2262002
b10101 -
1#
#2264002
0#
#2266002
b10110 -
1#
#2268002
0#
#2270002
b10111 -
1#
#2272002
0#
#2274002
b11000 -
1#
#2276002
0#
#2278002
b11001 -
1#
#2280002
0#
#2282002
b11010 -
1#
#2284002
0#
#2286002
b11011 -
1#
#2288002
0#
#2290002
b11100 -
1#
#2292002
0#
#2294002
b11101 -
1#
#2296002
0#
#2298002
b11110 -
1#
#2300002
0#
#2302002
b11111 -
1#
#2304002
0#
#2306002
b100000 -
1#
#2308002
0#
#2310002
b100001 -
1#
#2312002
0#
#2314002
b100010 -
1#
#2316002
0#
#2318002
b100011 -
1#
#2320002
0#
#2322002
b100100 -
1#
#2324002
0#
#2326002
b100101 -
1#
#2328002
0#
#2330002
b100110 -
1#
#2332002
0#
#2334002
b100111 -
1#
#2336002
0#
#2338002
b101000 -
1#
#2340002
0#
#2342002
b101001 -
1#
#2344002
0#
#2346002
b101010 -
1#
#2348002
0#
#2350002
b101011 -
1#
#2352002
0#
#2354002
b101100 -
1#
#2356002
0#
#2358002
b101101 -
1#
#2360002
0#
#2362002
b101110 -
1#
#2364002
0#
#2366002
b101111 -
1#
#2368002
0#
#2370002
b110000 -
1#
#2372002
0#
#2374002
b110001 -
1#
#2376002
0#
#2378002
b110010 -
1#
#2380002
0#
#2382002
b110011 -
1#
#2384002
0#
#2386002
b110100 -
1#
#2388002
0#
#2390002
b110101 -
1#
#2392002
0#
#2394002
b110110 -
1#
#2396002
0#
#2398002
b110111 -
1#
#2400002
0#
#2402002
b111000 -
1#
#2404002
0#
#2406002
b111001 -
1#
#2408002
0#
#2410002
b111010 -
1#
#2412002
0#
#2414002
b111011 -
1#
#2416002
0#
#2418002
b111100 -
1#
#2420002
0#
#2422002
b111101 -
1#
#2424002
0#
#2426002
b111110 -
1#
#2428002
0#
#2430002
b111111 -
1#
#2432002
0#
#2434002
b1000000 -
1#
#2436002
0#
#2438002
b1000001 -
1#
#2440002
0#
#2442002
b1000010 -
1#
#2444002
0#
#2446002
b1000011 -
1#
#2448002
0#
#2450002
b1000100 -
1#
#2452002
0#
#2454002
b1000101 -
1#
#2456002
0#
#2458002
b1000110 -
1#
#2460002
0#
#2462002
b1000111 -
1#
#2464002
0#
#2466002
b1001000 -
1#
#2468002
0#
#2470002
b1001001 -
1#
#2472002
0#
#2474002
b1001010 -
1#
#2476002
0#
#2478002
b1001011 -
1#
#2480002
0#
#2482002
b1001100 -
1#
#2484002
0#
#2486002
b1001101 -
1#
#2488002
0#
#2490002
b1001110 -
1#
#2492002
0#
#2494002
b1001111 -
1#
#2496002
0#
#2498002
b1010000 -
1#
#2500002
0#
#2502002
b1010001 -
1#
#2504002
0#
#2506002
b1010010 -
1#
#2508002
0#
#2510002
b1010011 -
1#
#2512002
0#
#2514002
b1010100 -
1#
#2516002
0#
#2518002
b1010101 -
1#
#2520002
0#
#2522002
b1010110 -
1#
#2524002
0#
#2526002
b1010111 -
1#
#2528002
0#
#2530002
b1011000 -
1#
#2532002
0#
#2534002
b1011001 -
1#
#2536002
0#
#2538002
b1011010 -
1#
#2540002
0#
#2542002
b1011011 -
1#
#2544002
0#
#2546002
b1011100 -
1#
#2548002
0#
#2550002
b1011101 -
1#
#2552002
0#
#2554002
b1011110 -
1#
#2556002
0#
#2558002
b1011111 -
1#
#2560002
0#
#2562002
b1100000 -
1#
#2564002
0#
#2566002
b1100001 -
1#
#2568002
0#
#2570002
b1100010 -
1#
#2572002
0#
#2574002
b1100011 -
1#
#2576002
0#
#2578002
b1100100 -
1#
#2580002
0#
#2582002
b1100101 -
1#
#2584002
0#
#2586002
b1100110 -
1#
#2588002
0#
#2590002
b1100111 -
1#
#2592002
0#
#2594002
b1101000 -
1#
#2596002
0#
#2598002
b1101001 -
1#
#2600002
0#
#2602002
b1101010 -
1#
#2604002
1%
0#
#2606002
b1101011 -
1#
#2608002
0#
#2610002
b1101100 -
1#
#2612002
0#
#2614002
b1101101 -
1#
#2616002
0#
#2618002
b1101110 -
1#
#2620002
0#
#2622002
b1101111 -
1#
#2624002
0#
#2626002
b1110000 -
1#
#2628002
0#
#2630002
b1110001 -
1#
#2632002
0#
#2634002
b1110010 -
1#
#2636002
0#
#2638002
b1110011 -
1#
#2640002
0#
#2642002
b1110100 -
1#
#2644002
0#
#2646002
b1110101 -
1#
#2648002
0#
#2650002
b1110110 -
1#
#2652002
0#
#2654002
b1110111 -
1#
#2656002
0#
#2658002
b1111000 -
1#
#2660002
0#
#2662002
b1111001 -
1#
#2664002
0#
#2666002
b1111010 -
1#
#2668002
0#
#2670002
b1111011 -
1#
#2672002
0#
#2674002
b1111100 -
1#
#2676002
0#
#2678002
b1111101 -
1#
#2680002
0#
#2682002
b1111110 -
1#
#2684002
0#
#2686002
b1111111 -
1#
#2688002
0#
#2690002
b10000000 -
1#
#2692002
0#
#2694002
b10000001 -
1#
#2696002
0#
#2698002
b10000010 -
1#
#2700002
0#
#2702002
b10000011 -
1#
#2704002
0#
#2706002
b10000100 -
1#
#2708002
0#
#2710002
b10000101 -
1#
#2712002
0#
#2714002
b10000110 -
1#
#2716002
0#
#2718002
b10000111 -
1#
#2720002
0#
#2722002
b10001000 -
1#
#2724002
0#
#2726002
b10001001 -
1#
#2728002
0#
#2730002
b10001010 -
1#
#2732002
0#
#2734002
b10001011 -
1#
#2736002
0#
#2738002
b10001100 -
1#
#2740002
0#
#2742002
b10001101 -
1#
#2744002
0#
#2746002
b10001110 -
1#
#2748002
0#
#2750002
b10001111 -
1#
#2752002
0#
#2754002
b10010000 -
1#
#2756002
0#
#2758002
b10010001 -
1#
#2760002
0#
#2762002
b10010010 -
1#
#2764002
0#
#2766002
b10010011 -
1#
#2768002
0#
#2770002
b10010100 -
1#
#2772002
0#
#2774002
b10010101 -
1#
#2776002
0#
#2778002
b10010110 -
1#
#2780002
0#
#2782002
b10010111 -
1#
#2784002
0#
#2786002
b10011000 -
1#
#2788002
0#
#2790002
b10011001 -
1#
#2792002
0#
#2794002
b10011010 -
1#
#2796002
0#
#2798002
b10011011 -
1#
#2800002
0#
#2802002
b10011100 -
1#
#2804002
0#
#2806002
b10011101 -
1#
#2808002
0#
#2810002
b10011110 -
1#
#2812002
0#
#2814002
b10011111 -
1#
#2816002
0#
#2818002
b10100000 -
1#
#2820002
0#
#2822002
b10100001 -
1#
#2824002
0#
#2826002
b10100010 -
1#
#2828002
0#
#2830002
b10100011 -
1#
#2832002
0#
#2834002
b10100100 -
1#
#2836002
0#
#2838002
b10100101 -
1#
#2840002
0#
#2842002
b10100110 -
1#
#2844002
0#
#2846002
b10100111 -
1#
#2848002
0#
#2850002
b10101000 -
1#
#2852002
0#
#2854002
b10101001 -
1#
#2856002
0#
#2858002
b10101010 -
1#
#2860002
0#
#2862002
b10101011 -
1#
#2864002
0#
#2866002
b10101100 -
1#
#2868002
0#
#2870002
b10101101 -
1#
#2872002
0#
#2874002
b10101110 -
1#
#2876002
0#
#2878002
b10101111 -
1#
#2880002
0#
#2882002
b10110000 -
1#
#2884002
0#
#2886002
b10110001 -
1#
#2888002
0#
#2890002
b10110010 -
1#
#2892002
0#
#2894002
b10110011 -
1#
#2896002
0#
#2898002
b10110100 -
1#
#2900002
0#
#2902002
b10110101 -
1#
#2904002
0#
#2906002
b10110110 -
1#
#2908002
0#
#2910002
b10110111 -
1#
#2912002
0#
#2914002
b10111000 -
1#
#2916002
0#
#2918002
b10111001 -
1#
#2920002
0#
#2922002
b10111010 -
1#
#2924002
0#
#2926002
b10111011 -
1#
#2928002
0#
#2930002
b10111100 -
1#
#2932002
0#
#2934002
b10111101 -
1#
#2936002
0#
#2938002
b10111110 -
1#
#2940002
0#
#2942002
b10111111 -
1#
#2944002
0#
#2946002
b11000000 -
1#
#2948002
0#
#2950002
b11000001 -
1#
#2952002
0#
#2954002
b11000010 -
1#
#2956002
0#
#2958002
b11000011 -
1#
#2960002
0#
#2962002
b11000100 -
1#
#2964002
0#
#2966002
b11000101 -
1#
#2968002
0#
#2970002
b11000110 -
1#
#2972002
0#
#2974002
b11000111 -
1#
#2976002
0#
#2978002
b11001000 -
1#
#2980002
0#
#2982002
b11001001 -
1#
#2984002
0#
#2986002
b11001010 -
1#
#2988002
0#
#2990002
b11001011 -
1#
#2992002
0#
#2994002
b11001100 -
1#
#2996002
0#
#2998002
b11001101 -
1#
#3000002
0#
#3002002
b11001110 -
1#
#3004002
0#
#3006002
b11001111 -
1#
#3008002
0#
#3010002
b11010000 -
1#
#3012002
0#
#3014002
b11010001 -
1#
#3016002
0#
#3018002
b11010010 -
1#
#3020002
0#
#3022002
b11010011 -
1#
#3024002
0#
#3026002
b11010100 -
1#
#3028002
0#
#3030002
b11010101 -
1#
#3032002
0#
#3034002
b11010110 -
1#
#3036002
0#
#3038002
b11010111 -
1#
#3040002
0#
#3042002
b100 (
b11011000 -
1#
#3044002
0#
#3046002
b101 (
b11011001 -
b100 ,
1#
#3048002
0#
#3050002
b10 (
b101 ,
b1 *
1#
#3052002
0#
#3054002
b11 (
b1 '
b10 ,
1#
#3056002
0#
#3058002
b11 ,
b0 -
1#
#3060002
0#
#3062002
b1 -
1#
#3064002
0#
#3066002
b10 -
1#
#3068002
0#
#3070002
b11 -
1#
#3072002
0#
#3074002
b100 -
1#
#3076002
0#
#3078002
b101 -
1#
#3080002
0#
#3082002
b110 -
1#
#3084002
0#
#3086002
b111 -
1#
#3088002
0#
#3090002
b1000 -
1#
#3092002
0#
#3094002
b1001 -
1#
#3096002
0#
#3098002
b1010 -
1#
#3100002
0#
#3102002
b1011 -
1#
#3104002
0#
#3106002
b1100 -
1#
#3108002
0#
#3110002
b1101 -
1#
#3112002
0#
#3114002
b1110 -
1#
#3116002
0#
#3118002
b1111 -
1#
#3120002
0#
#3122002
b10000 -
1#
#3124002
0#
#3126002
b10001 -
1#
#3128002
0#
#3130002
b10010 -
1#
#3132002
0#
#3134002
b10011 -
1#
#3136002
0#
#3138002
b10100 -
1#
#3140002
0#
#3142002
b10101 -
1#
#3144002
0#
#3146002
b10110 -
1#
#3148002
0#
#3150002
b10111 -
1#
#3152002
0#
