dev/nn/neuron_v3/parallel_mult/traces.vcd
$date
	Wed Feb  3 20:39:35 2021
$end
$version
	Icarus Verilog
$end
$timescale
	1ps
$end
$scope module parallel_mult_tb $end
$var wire 1 ! clk $end
$var wire 64 " din1 [63:0] $end
$var wire 64 # din2 [63:0] $end
$var wire 1 $ din_valid $end
$var wire 4 % dout_valid [3:0] $end
$var wire 128 & dout [127:0] $end
$scope module parallel_mult_inst $end
$var wire 1 ! clk $end
$var wire 64 ' din1 [63:0] $end
$var wire 64 ( din2 [63:0] $end
$var wire 1 $ din_valid $end
$var wire 4 ) dout_valid [3:0] $end
$var wire 128 * dout [127:0] $end
$scope begin genblk1[0] $end
$scope module dsp48_mult_inst $end
$var wire 1 ! clk $end
$var wire 16 + din1 [15:0] $end
$var wire 16 , din2 [15:0] $end
$var wire 1 $ din_valid $end
$var wire 1 - dout_valid $end
$var wire 32 . dout [31:0] $end
$var reg 16 / din1_reg_0 [15:0] $end
$var reg 16 0 din1_reg_1 [15:0] $end
$var reg 16 1 din2_reg_0 [15:0] $end
$var reg 16 2 din2_reg_1 [15:0] $end
$var reg 32 3 dout_reg_0 [31:0] $end
$var reg 32 4 dout_reg_1 [31:0] $end
$var reg 4 5 dout_valid_r [3:0] $end
$upscope $end
$upscope $end
$scope begin genblk1[1] $end
$scope module dsp48_mult_inst $end
$var wire 1 ! clk $end
$var wire 16 6 din1 [15:0] $end
$var wire 16 7 din2 [15:0] $end
$var wire 1 $ din_valid $end
$var wire 1 8 dout_valid $end
$var wire 32 9 dout [31:0] $end
$var reg 16 : din1_reg_0 [15:0] $end
$var reg 16 ; din1_reg_1 [15:0] $end
$var reg 16 < din2_reg_0 [15:0] $end
$var reg 16 = din2_reg_1 [15:0] $end
$var reg 32 > dout_reg_0 [31:0] $end
$var reg 32 ? dout_reg_1 [31:0] $end
$var reg 4 @ dout_valid_r [3:0] $end
$upscope $end
$upscope $end
$scope begin genblk1[2] $end
$scope module dsp48_mult_inst $end
$var wire 1 ! clk $end
$var wire 16 A din1 [15:0] $end
$var wire 16 B din2 [15:0] $end
$var wire 1 $ din_valid $end
$var wire 1 C dout_valid $end
$var wire 32 D dout [31:0] $end
$var reg 16 E din1_reg_0 [15:0] $end
$var reg 16 F din1_reg_1 [15:0] $end
$var reg 16 G din2_reg_0 [15:0] $end
$var reg 16 H din2_reg_1 [15:0] $end
$var reg 32 I dout_reg_0 [31:0] $end
$var reg 32 J dout_reg_1 [31:0] $end
$var reg 4 K dout_valid_r [3:0] $end
$upscope $end
$upscope $end
$scope begin genblk1[3] $end
$scope module dsp48_mult_inst $end
$var wire 1 ! clk $end
$var wire 16 L din1 [15:0] $end
$var wire 16 M din2 [15:0] $end
$var wire 1 $ din_valid $end
$var wire 1 N dout_valid $end
$var wire 32 O dout [31:0] $end
$var reg 16 P din1_reg_0 [15:0] $end
$var reg 16 Q din1_reg_1 [15:0] $end
$var reg 16 R din2_reg_0 [15:0] $end
$var reg 16 S din2_reg_1 [15:0] $end
$var reg 32 T dout_reg_0 [31:0] $end
$var reg 32 U dout_reg_1 [31:0] $end
$var reg 4 V dout_valid_r [3:0] $end
$upscope $end
$upscope $end
$upscope $end
$upscope $end
$enddefinitions $end
#0
$dumpvars
b1 V
b0 U
b0 T
b0 S
b11111111001111 R
b0 Q
b110001010111010 P
b0 O
0N
b10000001 M
b1010110100101 L
b1 K
b0 J
b0 I
b0 H
b1110011000110 G
b0 F
b1010100111 E
b0 D
0C
b100000110001111 B
b101101001110 A
b1 @
b0 ?
b0 >
b0 =
b1100101011010 <
b0 ;
b101000100011011 :
b0 9
08
b110100000000011 7
b101011110111001 6
b1 5
b0 4
b0 3
b0 2
b110000101011001 1
b0 0
b101111111011000 /
b0 .
0-
b100111001100111 ,
b111101000001000 +
b0 *
b0 )
b10000001010000011000111101101000000000110100111001100111 (
b1010110100101000010110100111001010111101110010111101000001000 '
b0 &
b0 %
1$
b10000001010000011000111101101000000000110100111001100111 #
b1010110100101000010110100111001010111101110010111101000001000 "
1!
$end
#5000
0!
#10000
b101101101110111 +
b111010101111001 6
b10010101011100 A
b101110001100010 L
b101011001001010 ,
b10111111001001 7
b1001000110010 B
b100010101110010 M
b101110001100010001001010101110001110101011110010101101101110111 "
b101110001100010001001010101110001110101011110010101101101110111 '
b100010101110010000100100011001000101111110010010101011001001010 #
b100010101110010000100100011001000101111110010010101011001001010 (
b11111111001111 S
b110001010111010 Q
b10000001 R
b1010110100101 P
b11 V
b1110011000110 H
b1010100111 F
b100000110001111 G
b101101001110 E
b11 K
b1100101011010 =
b101000100011011 ;
b110100000000011 <
b101011110111001 :
b11 @
b110000101011001 2
b101111111011000 0
b100111001100111 1
b111101000001000 /
b11 5
1!
#15000
0!
#20000
b100000110101110 +
b100111100010010 6
b11011110001101 A
b11100010001101 L
b100001011000101 ,
b110011100010001 7
b100110011101110 B
b101001101000000 M
b11100010001101001101111000110101001111000100100100000110101110 "
b11100010001101001101111000110101001111000100100100000110101110 '
b101001101000000010011001110111001100111000100010100001011000101 #
b101001101000000010011001110111001100111000100010100001011000101 (
b101011001001010 1
b101101101110111 /
b111 5
b100100011100100010101000011000 3
b100111001100111 2
b111101000001000 0
b10111111001001 <
b111010101111001 :
b111 @
b1000000010000010011001111110 >
b110100000000011 =
b101011110111001 ;
b1001000110010 G
b10010101011100 E
b111 K
b10011000101000100101010 I
b100000110001111 H
b101101001110 F
b100010101110010 R
b101110001100010 P
b111 V
b11000100110111001101001100110 T
b10000001 S
b1010110100101 Q
1!
#25000
0!
#30000
b10011001111101 +
b101110010100 6
b10100011011100 A
b111010001001110 L
b101000000101010 ,
b11000000000 7
b110101000010010 B
b111010010111 M
b111010001001110001010001101110000001011100101000010011001111101 "
b111010001001110001010001101110000001011100101000010011001111101 '
b111010010111011010100001001000000110000000000101000000101010 #
b111010010111011010100001001000000110000000000101000000101010 (
1N
1C
18
b1111 %
b1111 )
1-
b11000100110111001101001100110 O
b11000100110111001101001100110 U
b10101110100000100101 T
b100010101110010 S
b101110001100010 Q
b101001101000000 R
b11100010001101 P
b1111 V
b10011000101000100101010 D
b10011000101000100101010 J
b10111001010001111010010010 I
b1001000110010 H
b10010101011100 F
b100110011101110 G
b11011110001101 E
b1111 K
b1000000010000010011001111110 9
b1000000010000010011001111110 ?
b100011101001000010111100101011 >
b10111111001001 =
b111010101111001 ;
b110011100010001 <
b100111100010010 :
b1111 @
b11000100110111001101001100110000000000100110001010001001010100000100000001000001001100111111000100100011100100010101000011000 &
b11000100110111001101001100110000000000100110001010001001010100000100000001000001001100111111000100100011100100010101000011000 *
b100100011100100010101000011000 .
b100100011100100010101000011000 4
b100101010111111000100100111000 3
b101011001001010 2
b101101101110111 0
b100001011000101 1
b100000110101110 /
b1111 5
1!
#35000
0!
#40000
b110110110101101 +
b1100101110111 6
b110100011011110 A
b100011000010111 L
b111000100100100 ,
b10010111100010 7
b110000010011000 B
b10110100000010 M
b100011000010111011010001101111000011001011101110110110110101101 "
b100011000010111011010001101111000011001011101110110110110101101 '
b10110100000010011000001001100000100101111000100111000100100100 #
b10110100000010011000001001100000100101111000100111000100100100 (
b101000000101010 1
b10011001111101 /
b100101010111111000100100111000 .
b100101010111111000100100111000 4
b11110110101000110101001100110 3
b100001011000101 2
b100000110101110 0
b11000000000 <
b101110010100 :
b100011101001000010111100101011 9
b100011101001000010111100101011 ?
b10101111011010111001100000001 >
b110011100010001 =
b100111100010010 ;
b110101000010010 G
b10100011011100 E
b10111001010001111010010010 D
b10111001010001111010010010 J
b10101001111100001111111000 I
b100110011101110 H
b11011110001101 F
b111010010111 R
b111010001001110 P
b10101110100000100101000000101110010100011110100100100010001110100100001011110010101100100101010111111000100100111000 &
b10101110100000100101000000101110010100011110100100100010001110100100001011110010101100100101010111111000100100111000 *
b10101110100000100101 O
b10101110100000100101 U
b11001000011111000110110100100 T
b101001101000000 S
b11100010001101 Q
1!
#45000
0!
#50000
b101111110110 +
b11001000111110 6
b1010100011111 A
b10100110101010 L
b111100011011101 ,
b11000100101010 7
b1001101011000 B
b110100100011001 M
b10100110101010000101010001111100110010001111100000101111110110 "
b10100110101010000101010001111100110010001111100000101111110110 '
b110100100011001000100110101100000110001001010100111100011011101 #
b110100100011001000100110101100000110001001010100111100011011101 (
b11001000011111000110110100100 O
b11001000011111000110110100100 U
b10010011000111101101001000000 T
b111010010111 S
b111010001001110 Q
b10110100000010 R
b100011000010111 P
b10101001111100001111111000 D
b10101001111100001111111000 J
b10000101100011000000100010110 I
b110101000010010 H
b10100011011100 F
b110000010011000 G
b110100011011110 E
b10101111011010111001100000001 9
b10101111011010111001100000001 ?
b11111110101010111111000110010 >
b11000000000 =
b101110010100 ;
b10010111100010 <
b1100101110111 :
b11001000011111000110110100100000000101010011111000011111110000001010111101101011100110000000100011110110101000110101001100110 &
b11001000011111000110110100100000000101010011111000011111110000001010111101101011100110000000100011110110101000110101001100110 *
b11110110101000110101001100110 .
b11110110101000110101001100110 4
b10001001000010110011011100110 3
b101000000101010 2
b10011001111101 0
b111000100100100 1
b110110110101101 /
1!
#55000
0!
#60000
b10000000101101 +
b110100110111110 6
b11101001101000 A
b111111001101010 L
b100101110001011 ,
b100010001101100 7
b111001110001111 B
b100110001110110 M
b111111001101010001110100110100001101001101111100010000000101101 "
b111111001101010001110100110100001101001101111100010000000101101 '
b100110001110110011100111000111101000100011011000100101110001011 #
b100110001110110011100111000111101000100011011000100101110001011 (
b111100011011101 1
b101111110110 /
b10001001000010110011011100110 .
b10001001000010110011011100110 4
b1100000011010110000010000010 3
b111000100100100 2
b110110110101101 0
b11000100101010 <
b11001000111110 :
b11111110101010111111000110010 9
b11111110101010111111000110010 ?
b10001010111100000000000 >
b10010111100010 =
b1100101110111 ;
b1001101011000 G
b1010100011111 E
b10000101100011000000100010110 D
b10000101100011000000100010110 J
b10000111011011111011101111000 I
b110000010011000 H
b110100011011110 F
b110100100011001 R
b10100110101010 P
b10010011000111101101001000000000100001011000110000001000101100001111111010101011111100011001000010001001000010110011011100110 &
b10010011000111101101001000000000100001011000110000001000101100001111111010101011111100011001000010001001000010110011011100110 *
b10010011000111101101001000000 O
b10010011000111101101001000000 U
b110101000001101111000000010 T
b10110100000010 S
b100011000010111 Q
1!
#65000
0!
#70000
b10011100011001 +
b101000110000 6
b10110110111000 A
b10100000111 L
b11011011111001 ,
b10100011101 7
b110001100001100 B
b10101001010101 M
b10100000111001011011011100000001010001100000010011100011001 "
b10100000111001011011011100000001010001100000010011100011001 '
b10101001010101011000110000110000000101000111010011011011111001 #
b10101001010101011000110000110000000101000111010011011011111001 (
b110101000001101111000000010 O
b110101000001101111000000010 U
b1100010100101001011100101110 T
b110100100011001 S
b10100110101010 Q
b100110001110110 R
b111111001101010 P
b10000111011011111011101111000 D
b10000111011011111011101111000 J
b100111100100011000001111010000 I
b1001101011000 H
b1010100011111 F
b111001110001111 G
b11101001101000 E
b10001010111100000000000 9
b10001010111100000000000 ?
b11110001001010111000001110 >
b11000100101010 =
b11001000111110 ;
b100010001101100 <
b110100110111110 :
b110101000001101111000000010000100001110110111110111011110000000000001000101011110000000000000001100000011010110000010000010 &
b110101000001101111000000010000100001110110111110111011110000000000001000101011110000000000000001100000011010110000010000010 *
b1100000011010110000010000010 .
b1100000011010110000010000010 4
b110000011110001100100101010100 3
b111100011011101 2
b101111110110 0
b100101110001011 1
b10000000101101 /
1!
#75000
0!
#80000
b10110000100 +
b10110001010101 6
b101000101111000 A
b10100001001111 L
b11010101110000 ,
b111000001100101 7
b110000110110001 B
b111000010100001 M
b10100001001111010100010111100000101100010101010000010110000100 "
b10100001001111010100010111100000101100010101010000010110000100 '
b111000010100001011000011011000101110000011001010011010101110000 #
b111000010100001011000011011000101110000011001010011010101110000 (
b11011011111001 1
b10011100011001 /
b110000011110001100100101010100 .
b110000011110001100100101010100 4
b101101001011010001101011110 3
b100101110001011 2
b10000000101101 0
b10100011101 <
b101000110000 :
b11110001001010111000001110 9
b11110001001010111000001110 ?
b1001101001100001110000101100 >
b100010001101100 =
b110100110111110 ;
b110001100001100 G
b10110110111000 E
b100111100100011000001111010000 D
b100111100100011000001111010000 J
b1100110001000111110101000 I
b111001110001111 H
b11101001101000 F
b10101001010101 R
b10100000111 P
b1100010100101001011100101110001001111001000110000011110100000000001111000100101011100000111000110000011110001100100101010100 &
b1100010100101001011100101110001001111001000110000011110100000000001111000100101011100000111000110000011110001100100101010100 *
b1100010100101001011100101110 O
b1100010100101001011100101110 U
b10001000110101100101110011010 T
b100110001110110 S
b111111001101010 Q
1!
#85000
0!
#90000
b10000110010000 +
b100110010000101 6
b100000110111001 A
b100110110000011 L
b1111011111100 ,
b10011011001010 7
b1101000000 B
b10011010000010 M
b100110110000011010000011011100101001100100001010010000110010000 "
b100110110000011010000011011100101001100100001010010000110010000 '
b10011010000010000000110100000000100110110010100001111011111100 #
b10011010000010000000110100000000100110110010100001111011111100 (
b10001000110101100101110011010 O
b10001000110101100101110011010 U
b100101110000011011110011011100 T
b10101001010101 S
b10100000111 Q
b111000010100001 R
b10100001001111 P
b1100110001000111110101000 D
b1100110001000111110101000 J
b11010010111010101100000011000 I
b110001100001100 H
b10110110111000 F
b110000110110001 G
b101000101111000 E
b1001101001100001110000101100 9
b1001101001100001110000101100 ?
b11100010000110001010000101000 >
b10100011101 =
b101000110000 ;
b111000001100101 <
b10110001010101 :
b10001000110101100101110011010000000011001100010001111101010000000100110100110000111000010110000000101101001011010001101011110 &
b10001000110101100101110011010000000011001100010001111101010000000100110100110000111000010110000000101101001011010001101011110 *
b101101001011010001101011110 .
b101101001011010001101011110 4
b1001011111101010011101101111 3
b11011011111001 2
b10011100011001 0
b11010101110000 1
b10110000100 /
1!
#95000
0!
#100000
b10010101111010 +
b11110011010001 6
b100100001100010 A
b100011101011110 L
b11111101011101 ,
b10101101111011 7
b111110101001001 B
b100000111001 M
b100011101011110010010000110001000111100110100010010010101111010 "
b100011101011110010010000110001000111100110100010010010101111010 '
b100000111001011111010100100100101011011110110011111101011101 #
b100000111001011111010100100100101011011110110011111101011101 (
b1111011111100 1
b10000110010000 /
b1001011111101010011101101111 .
b1001011111101010011101101111 4
b1000011001010100110101010001 3
b11010101110000 2
b10110000100 0
b10011011001010 <
b100110010000101 :
b11100010000110001010000101000 9
b11100010000110001010000101000 ?
b1101000001011101110000 >
b111000001100101 =
b10110001010101 ;
b1101000000 G
b100000110111001 E
b11010010111010101100000011000 D
b11010010111010101100000011000 J
b10001101100000100110010100000 I
b110000110110001 H
b101000101111000 F
b10011010000010 R
b100110110000011 P
b100101110000011011110011011100000110100101110101011000000110000001110001000011000101000010100000001001011111101010011101101111 &
b100101110000011011110011011100000110100101110101011000000110000001110001000011000101000010100000001001011111101010011101101111 *
b100101110000011011110011011100 O
b100101110000011011110011011100 U
b110101001101000101010011 T
b111000010100001 S
b10100001001111 Q
1!
#105000
0!
#110000
b100001010001000 +
b10100010111101 6
b11100001101011 A
b111110100010000 L
b11101101110101 ,
b100010110111 7
b110110101001101 B
b100101000000000 M
b111110100010000001110000110101100101000101111010100001010001000 "
b111110100010000001110000110101100101000101111010100001010001000 '
b100101000000000011011010100110100001000101101110011101101110101 #
b100101000000000011011010100110100001000101101110011101101110101 (
b110101001101000101010011 O
b110101001101000101010011 U
b10001101110111110100110101111 T
b10011010000010 S
b100110110000011 Q
b100000111001 R
b100011101011110 P
b10001101100000100110010100000 D
b10001101100000100110010100000 J
b11111000101101100101111111000 I
b1101000000 H
b100000110111001 F
b111110101001001 G
b100100001100010 E
b1101000001011101110000 9
b1101000001011101110000 ?
b10011011101101010110110001001 >
b10011011001010 =
b100110010000101 ;
b10101101111011 <
b11110011010001 :
b110101001101000101010011000100011011000001001100101000000000000000110100000101110111000000001000011001010100110101010001 &
b110101001101000101010011000100011011000001001100101000000000000000110100000101110111000000001000011001010100110101010001 *
b1000011001010100110101010001 .
b1000011001010100110101010001 4
b1001001101011110111000000 3
b1111011111100 2
b10000110010000 0
b11111101011101 1
b10010101111010 /
1!
#115000
0!
#120000
b10010111111 +
b100101100000010 6
b101101111111011 A
b110010000010110 L
b100000110010100 ,
b10011001011101 7
b100100000010110 B
b10110011100010 M
b110010000010110010110111111101101001011000000100000010010111111 "
b110010000010110010110111111101101001011000000100000010010111111 '
b10110011100010010010000001011000100110010111010100000110010100 #
b10110011100010010010000001011000100110010111010100000110010100 (
b11101101110101 1
b100001010001000 /
b1001001101011110111000000 .
b1001001101011110111000000 4
b100000011111110100111000000 3
b11111101011101 2
b10010101111010 0
b100010110111 <
b10100010111101 :
b10011011101101010110110001001 9
b10011011101101010110110001001 ?
b1011100110000001111011110010 >
b10101101111011 =
b11110011010001 ;
b110110101001101 G
b11100001101011 E
b11111000101101100101111111000 D
b11111000101101100101111111000 J
b110101011001100101000000 I
b111110101001001 H
b100100001100010 F
b100101000000000 R
b111110100010000 P
b10001101110111110100110101111000111110001011011001011111110000001001101110110101011011000100100000001001001101011110111000000 &
b10001101110111110100110101111000111110001011011001011111110000001001101110110101011011000100100000001001001101011110111000000 *
b10001101110111110100110101111 O
b10001101110111110100110101111 U
b1011101010001100111010000110 T
b100000111001 S
b100011101011110 Q
1!
#125000
0!
#130000
b10101100111101 +
b11001110110 6
b1010001100000 A
b101011000110100 L
b10111011000100 ,
b111000101100010 7
b1011011100110 B
b110111010101 M
b101011000110100000101000110000000000110011101100010101100111101 "
b101011000110100000101000110000000000110011101100010101100111101 '
b110111010101000101101110011001110001011000100010111011000100 #
b110111010101000101101110011001110001011000100010111011000100 (
b1011101010001100111010000110 O
b1011101010001100111010000110 U
b10010010101101001111101110 T
b100101000000000 S
b111110100010000 Q
b10110011100010 R
b110010000010110 P
b110101011001100101000000 D
b110101011001100101000000 J
b100011011011000111110111110010 I
b110110101001101 H
b11100001101011 F
b100100000010110 G
b101101111111011 E
b1011100110000001111011110010 9
b1011100110000001111011110010 ?
b1010010101000101001101101011 >
b100010110111 =
b10100010111101 ;
b10011001011101 <
b100101100000010 :
b1011101010001100111010000110000000001101010110011001010000000000101110011000000111101111001000000100000011111110100111000000 &
b1011101010001100111010000110000000001101010110011001010000000000101110011000000111101111001000000100000011111110100111000000 *
b100000011111110100111000000 .
b100000011111110100111000000 4
b1001010001101010001101010010 3
b11101101110101 2
b100001010001000 0
b100000110010100 1
b10010111111 /
1!
#135000
0!
#140000
b101111101001111 +
b110110101110 6
b110000001010001 A
b1110000000000 L
b1011110001110 ,
b1001011100101 7
b100110010010011 B
b11110000100001 M
b1110000000000011000000101000100001101101011100101111101001111 "
b1110000000000011000000101000100001101101011100101111101001111 '
b11110000100001010011001001001100010010111001010001011110001110 #
b11110000100001010011001001001100010010111001010001011110001110 (
b10111011000100 1
b10101100111101 /
b1001010001101010001101010010 .
b1001010001101010001101010010 4
b1111011100111100000000101000 3
b100000110010100 2
b10010111111 0
b111000101100010 <
b11001110110 :
b1010010101000101001101101011 9
b1010010101000101001101101011 ?
b1011000110000011100011011 >
b10011001011101 =
b100101100000010 ;
b1011011100110 G
b1010001100000 E
b100011011011000111110111110010 D
b100011011011000111110111110010 J
b11000000101101000011100101111 I
b100100000010110 H
b101101111111011 F
b110111010101 R
b101011000110100 P
b10010010101101001111101110001000110110110001111101111100100000101001010100010100110110101100001001010001101010001101010010 &
b10010010101101001111101110001000110110110001111101111100100000101001010100010100110110101100001001010001101010001101010010 *
b10010010101101001111101110 O
b10010010101101001111101110 U
b100100001001101010000000000000 T
b10110011100010 S
b110010000010110 Q
1!
#145000
0!
#150000
b100010101101101 +
b1111111010010 6
b11000111001 A
b101001010010001 L
b111011001110010 ,
b111011000001011 7
b11000011010010 B
b1110100000110 M
b101001010010001000001100011100100011111110100100100010101101101 "
b101001010010001000001100011100100011111110100100100010101101101 '
b1110100000110001100001101001001110110000010110111011001110010 #
b1110100000110001100001101001001110110000010110111011001110010 (
b100100001001101010000000000000 O
b100100001001101010000000000000 U
b10001100011000010001101101100 T
b110111010101 S
b101011000110100 Q
b11110000100001 R
b1110000000000 P
b11000000101101000011100101111 D
b11000000101101000011100101111 J
b11001111001100111111110010010 I
b1011011100110 H
b1010001100000 F
b100110010010011 G
b110000001010001 E
b1011000110000011100011011 9
b1011000110000011100011011 ?
b1011001111011000101110111010 >
b111000101100010 =
b11001110110 ;
b1001011100101 <
b110110101110 :
b100100001001101010000000000000000110000001011010000111001011110000000101100011000001110001101100001111011100111100000000101000 &
b100100001001101010000000000000000110000001011010000111001011110000000101100011000001110001101100001111011100111100000000101000 *
b1111011100111100000000101000 .
b1111011100111100000000101000 4
b1001101110011110101101100 3
b10111011000100 2
b10101100111101 0
b1011110001110 1
b101111101001111 /
1!
#155000
0!
#160000
b111110100101011 +
b111100110 6
b100010001001000 A
b100100010001011 L
b111000001001100 ,
b100011111100001 7
b110010101011000 B
b100100101011001 M
b100100010001011010001000100100000000001111001100111110100101011 "
b100100010001011010001000100100000000001111001100111110100101011 '
b100100101011001011001010101100001000111111000010111000001001100 #
b100100101011001011001010101100001000111111000010111000001001100 (
b111011001110010 1
b100010101101101 /
b1001101110011110101101100 .
b1001101110011110101101100 4
b111111001100001000010110100 3
b1011110001110 2
b101111101001111 0
b111011000001011 <
b1111111010010 :
b1011001111011000101110111010 9
b1011001111011000101110111010 ?
b10110111001000111100101100 >
b1001011100101 =
b110110101110 ;
b11000011010010 G
b11000111001 E
b11001111001100111111110010010 D
b11001111001100111111110010010 J
b1110100101000111001000000 I
b100110010010011 H
b110000001010001 F
b1110100000110 R
b101001010010001 P
b10001100011000010001101101100000110011110011001111111100100100000101100111101100010111011101000000001001101110011110101101100 &
b10001100011000010001101101100000110011110011001111111100100100000101100111101100010111011101000000001001101110011110101101100 *
b10001100011000010001101101100 O
b10001100011000010001101101100 U
b100101010000101110101000100 T
b11110000100001 S
b1110000000000 Q
1!
#165000
0!
#170000
b11011011010111 +
b1001100000011 6
b101101010111011 A
b100101011000110 L
b1010101000110 ,
b11100001000100 7
b110101100100 B
b101100011010001 M
b100101011000110010110101011101100010011000000110011011011010111 "
b100101011000110010110101011101100010011000000110011011011010111 '
b101100011010001000011010110010000111000010001000001010101000110 #
b101100011010001000011010110010000111000010001000001010101000110 (
b100101010000101110101000100 O
b100101010000101110101000100 U
b110100100111001110000000000 T
b1110100000110 S
b101001010010001 Q
b100100101011001 R
b100100010001011 P
b1110100101000111001000000 D
b1110100101000111001000000 J
b11100110011110101101010000011 I
b11000011010010 H
b11000111001 F
b110010101011000 G
b100010001001000 E
b10110111001000111100101100 9
b10110111001000111100101100 ?
b1000000100111100010100110 >
b111011000001011 =
b1111111010010 ;
b100011111100001 <
b111100110 :
b100101010000101110101000100000000011101001010001110010000000000001011011100100011110010110000000111111001100001000010110100 &
b100101010000101110101000100000000011101001010001110010000000000001011011100100011110010110000000111111001100001000010110100 *
b111111001100001000010110100 .
b111111001100001000010110100 4
b1000110001001111011011010010 3
b111011001110010 2
b100010101101101 0
b111000001001100 1
b111110100101011 /
1!
#175000
0!
#180000
b110011001101000 +
b101110001000 6
b110100011010110 A
b100000011100100 L
b11011111010010 ,
b1100101011011 7
b100101101101111 B
b100100001010110 M
b100000011100100011010001101011000001011100010000110011001101000 "
b100000011100100011010001101011000001011100010000110011001101000 '
b100100001010110010010110110111100011001010110110011011111010010 #
b100100001010110010010110110111100011001010110110011011111010010 (
b1010101000110 1
b11011011010111 /
b1000110001001111011011010010 .
b1000110001001111011011010010 4
b100000000111110010100010001010 3
b111000001001100 2
b111110100101011 0
b11100001000100 <
b1001100000011 :
b1000000100111100010100110 9
b1000000100111100010100110 ?
b1110101011000010101000000110 >
b100011111100001 =
b111100110 ;
b110101100100 G
b101101010111011 E
b11100110011110101101010000011 D
b11100110011110101101010000011 J
b1001011111100101011000010 I
b110010101011000 H
b100010001001000 F
b101100011010001 R
b100101011000110 P
b110100100111001110000000000000111001100111101011010100000110000000100000010011110001010011000001000110001001111011011010010 &
b110100100111001110000000000000111001100111101011010100000110000000100000010011110001010011000001000110001001111011011010010 *
b110100100111001110000000000 O
b110100100111001110000000000 U
b1001010111000101110001100110 T
b100100101011001 S
b100100010001011 Q
1!
#185000
0!
#190000
b1001010111000101110001100110 O
b1001010111000101110001100110 U
b10100110010001101101101010011 T
b101100011010001 S
b100101011000110 Q
b100100001010110 R
b100000011100100 P
b1001011111100101011000010 D
b1001011111100101011000010 J
b11011000001111110000011000000 I
b110101100100 H
b101101010111011 F
b100101101101111 G
b110100011010110 E
b1110101011000010101000000110 9
b1110101011000010101000000110 ?
b100010000111010100100110 >
b11100001000100 =
b1001100000011 ;
b1100101011011 <
b101110001000 :
b1001010111000101110001100110000000010010111111001010110000100000111010101100001010100000011000100000000111110010100010001010 &
b1001010111000101110001100110000000010010111111001010110000100000111010101100001010100000011000100000000111110010100010001010 *
b100000000111110010100010001010 .
b100000000111110010100010001010 4
b110110111001111111100011000100 3
b1010101000110 2
b11011011010111 0
b11011111010010 1
b110011001101000 /
1!
