moving_average/traces.vcd
$date
	Fri Mar  5 23:27:20 2021
$end
$version
	Icarus Verilog
$end
$timescale
	1ps
$end
$scope module moving_average_tb $end
$var wire 1 ! clk $end
$var wire 32 " din [31:0] $end
$var wire 1 # din_valid $end
$var wire 1 $ rst $end
$var wire 1 % dout_valid $end
$var wire 32 & dout [31:0] $end
$scope module moving_average_inst $end
$var wire 1 ! clk $end
$var wire 32 ' din [31:0] $end
$var wire 1 # din_valid $end
$var wire 1 % dout_valid $end
$var wire 1 $ rst $end
$var wire 32 ( dout [31:0] $end
$var wire 32 ) diff_dly_out [31:0] $end
$var reg 32 * comb_reg [31:0] $end
$var reg 1 + din_valid_dly $end
$var reg 1 , dout_valid_r $end
$var reg 36 - integ [35:0] $end
$var reg 4 . r_addr [3:0] $end
$var reg 4 / w_addr [3:0] $end
$scope begin genblk3 $end
$upscope $end
$scope module diff_dly $end
$var wire 1 ! clk $end
$var wire 4 0 radd [3:0] $end
$var wire 1 1 ren $end
$var wire 4 2 wadd [3:0] $end
$var wire 1 # wen $end
$var wire 32 3 win [31:0] $end
$var reg 32 4 wout [31:0] $end
$var integer 32 5 i [31:0] $end
$upscope $end
$upscope $end
$upscope $end
$enddefinitions $end
#0
$dumpvars
b10000 5
b0 4
b0 3
b0 2
11
b1 0
b0 /
b1 .
b0 -
0,
0+
b0 *
b0 )
b0 (
b0 '
b0 &
0%
0$
0#
b0 "
1!
$end
#5000
0!
#10000
1!
#15000
0!
#20000
1!
#25000
0!
#30000
b100010101110101010001010000100 "
b100010101110101010001010000100 '
b100010101110101010001010000100 3
1#
1!
#35000
0!
#40000
b11000010101001111111111111111000 "
b11000010101001111111111111111000 '
b11000010101001111111111111111000 3
b10 .
b10 0
b1 /
b1 2
b100010101110101010001010000100 *
1+
1!
#45000
0!
#50000
b10001000110110110001010100111 "
b10001000110110110001010100111 '
b10001000110110110001010100111 3
b10001010111010101000101000 &
b10001010111010101000101000 (
b100010101110101010001010000100 -
1%
1,
b11000010101001111111111111111000 *
b11 .
b11 0
b10 /
b10 2
1!
#55000
0!
#60000
b11111110110001100111000111101 "
b11111110110001100111000111101 '
b11111110110001100111000111101 3
b11111110010101100010101000100111 &
b11111110010101100010101000100111 (
b100 .
b100 0
b11 /
b11 2
b10001000110110110001010100111 *
b111111100101011000101010001001111100 -
1!
#65000
0!
#70000
b11111111110011110001001111101010 "
b11111111110011110001001111101010 '
b11111111110011110001001111101010 3
b11111111011001111110000001010010 &
b11111111011001111110000001010010 (
b111111110110011111100000010100100011 -
b11111110110001100111000111101 *
b101 .
b101 0
b100 /
b100 2
1!
#75000
0!
#80000
b11011100110001100010001011110001 "
b11011100110001100010001011110001 '
b11011100110001100010001011110001 3
b1011001010110110100110110 &
b1011001010110110100110110 (
b110 .
b110 0
b101 /
b101 2
b11111111110011110001001111101010 *
b10110010101101101001101100000 -
1!
#85000
0!
#90000
b11011001010110100001111110111100 "
b11011001010110100001111110111100 '
b11011001010110100001111110111100 3
b1011000100101111001110100 &
b1011000100101111001110100 (
b10110001001011110011101001010 -
b11011100110001100010001011110001 *
b111 .
b111 0
b110 /
b110 2
1!
#95000
0!
#100000
b100001010110010001001000000100 "
b100001010110010001001000000100 '
b100001010110010001001000000100 3
b11111111001011101100000010100011 &
b11111111001011101100000010100011 (
b1000 .
b1000 0
b111 /
b111 2
b11011001010110100001111110111100 *
b111111110010111011000000101000111011 -
1!
#105000
0!
#110000
b11010101101001010110110010000101 "
b11010101101001010110110010000101 '
b11010101101001010110110010000101 3
b11111100110001000110001010011111 &
b11111100110001000110001010011111 (
b111111001100010001100010100111110111 -
b100001010110010001001000000100 *
b1001 .
b1001 0
b1000 /
b1000 2
1!
#115000
0!
#120000
b11001011010011101011100000010011 "
b11001011010011101011100000010011 '
b11001011010011101011100000010011 3
b11111110110110011111001110111111 &
b11111110110110011111001110111111 (
b1010 .
b1010 0
b1001 /
b1001 2
b11010101101001010110110010000101 *
b111111101101100111110011101111111011 -
1!
#125000
0!
#130000
b10111101110011101111011011010 "
b10111101110011101111011011010 '
b10111101110011101111011011010 3
b11111100001101000100101010001000 &
b11111100001101000100101010001000 (
b111111000011010001001010100010000000 -
b11001011010011101011100000010011 *
b1011 .
b1011 0
b1010 /
b1010 2
1!
#135000
0!
#140000
b111010000010001100101100001101 "
b111010000010001100101100001101 '
b111010000010001100101100001101 3
b11111000111010010011011000001001 &
b11111000111010010011011000001001 (
b1100 .
b1100 0
b1011 /
b1011 2
b10111101110011101111011011010 *
b111110001110100100110110000010010011 -
1!
#145000
0!
#150000
b11000000100000010110000001110110 "
b11000000100000010110000001110110 '
b11000000100000010110000001110110 3
b11111010011001001101001111110110 &
b11111010011001001101001111110110 (
b111110100110010011010011111101101101 -
b111010000010001100101100001101 *
b1101 .
b1101 0
b1100 /
b1100 2
1!
#155000
0!
#160000
b1100011111000010000011110 "
b1100011111000010000011110 '
b1100011111000010000011110 3
b11111110000001010110000010100111 &
b11111110000001010110000010100111 (
b1110 .
b1110 0
b1101 /
b1101 2
b11000000100000010110000001110110 *
b111111100000010101100000101001111010 -
1!
#165000
0!
#170000
b101000000000111111011010110011 "
b101000000000111111011010110011 '
b101000000000111111011010110011 3
b11111010000011010111011010101111 &
b11111010000011010111011010101111 (
b111110100000110101110110101011110000 -
b1100011111000010000011110 *
b1111 .
b1111 0
b1110 /
b1110 2
1!
#175000
0!
#180000
b1110011001110100000100010000 "
b1110011001110100000100010000 '
b1110011001110100000100010000 3
b11111010001001100110111011110000 &
b11111010001001100110111011110000 (
b0 .
b0 0
b1111 /
b1111 2
b101000000000111111011010110011 *
b111110100010011001101110111100001110 -
1!
#185000
0!
#190000
b11100011000100111101001101110 "
b11100011000100111101001101110 '
b11100011000100111101001101110 3
b11111100101001101010111001011100 &
b11111100101001101010111001011100 (
b111111001010011010101110010111000001 -
b1110011001110100000100010000 *
b1 .
b1 0
b0 /
b0 2
b100010101110101010001010000100 )
b100010101110101010001010000100 4
1!
#195000
0!
#200000
b11100101010111000011000111101100 "
b11100101010111000011000111101100 '
b11100101010111000011000111101100 3
b11111101100011010010001001101101 &
b11111101100011010010001001101101 (
b11000010101001111111111111111000 )
b11000010101001111111111111111000 4
b10 .
b10 0
b1 /
b1 2
b11111001101001111101011111101010 *
b111111011000110100100010011011010001 -
1!
#205000
0!
#210000
b110101011110011001111101011000 "
b110101011110011001111101011000 '
b110101011110011001111101011000 3
b11111101001001111001111111101011 &
b11111101001001111001111111101011 (
b111111010010011110011111111010111011 -
b100010101101000011000111110100 *
b11 .
b11 0
b10 /
b10 2
b10001000110110110001010100111 )
b10001000110110110001010100111 4
1!
#215000
0!
#220000
b11011011101110011100000100010 "
b11011011101110011100000100010 '
b11011011101110011100000100010 3
b11111111010100101110001100001010 &
b11111111010100101110001100001010 (
b11111110110001100111000111101 )
b11111110110001100111000111101 4
b100 .
b100 0
b11 /
b11 2
b100100010111100011110010110001 *
b111111110101001011100011000010101111 -
1!
#225000
0!
#230000
b1100110001100011011010110 &
b1100110001100011011010110 (
b11001100011000110110101100000 -
b11111011100111100110100111100101 *
b101 .
b101 0
b100 /
b100 2
b11111111110011110001001111101010 )
b11111111110011110001001111101010 4
1!
